"coupling(Mass), created by Plot Digitizer, 2.6.6"
"Date: 07.08.14, 10:03:23"


7
Mass,coupling
1599.36,1468.58,
1798.06,1364.35,
1904.17,1663.75,
1907.16,1780.57,
1935.21,1982.34,
1960.34,2252.07,
1981.03,2472.95,
