"coupling(Mass), created by Plot Digitizer, 2.6.6"
"Date: 07.08.14, 10:07:25"


10
Mass,coupling
140.741,2336.34,
149.414,1911.52,
159.682,1813.81,
170.014,1883.89,
180.314,1869.02,
201.055,2215.22,
218.540,1735.17,
231.802,1767.02,
239.155,1745.78,
252.690,2499.80,
