%!PS-Adobe-2.0 EPSF-2.0
%%BoundingBox:  0 0 567 407
%%Title: /afs/cern.ch/user/g/gkoren/DijetAlgo/trunk/TLA/Plots/NLL_Sideband_QCD.eps: Negative Log-Likelihood
%%Creator: ROOT Version 6.02/12
%%CreationDate: Thu Sep 17 15:35:52 2015
%%EndComments
%%BeginProlog
80 dict begin
/s {stroke} def /l {lineto} def /m {moveto} def /t {translate} def
/r {rotate} def /rl {roll}  def /R {repeat} def
/d {rlineto} def /rm {rmoveto} def /gr {grestore} def /f {eofill} def
/c {setrgbcolor} def /black {0 setgray} def /sd {setdash} def
/cl {closepath} def /sf {scalefont setfont} def /lw {setlinewidth} def
/box {m dup 0 exch d exch 0 d 0 exch neg d cl} def
/NC{systemdict begin initclip end}def/C{NC box clip newpath}def
/bl {box s} def /bf {gsave box gsave f grestore 1 lw [] 0 sd s grestore} def /Y { 0 exch d} def /X { 0 d} def 
/K {{pop pop 0 moveto} exch kshow} bind def
/ita {/ang 15 def gsave [1 0 ang dup sin exch cos div 1 0 0] concat} def 
/mp {newpath /y exch def /x exch def} def
/side {[w .77 mul w .23 mul] .385 w mul sd w 0 l currentpoint t -144 r} def
/mr {mp x y w2 0 360 arc} def /m24 {mr s} def /m20 {mr f} def
/mb {mp x y w2 add m w2 neg 0 d 0 w neg d w 0 d 0 w d cl} def
/mt {mp x y w2 add m w2 neg w neg d w 0 d cl} def
/m21 {mb f} def /m25 {mb s} def /m22 {mt f} def /m26{mt s} def
/m23 {mp x y w2 sub m w2 w d w neg 0 d cl f} def
/m27 {mp x y w2 add m w3 neg w2 neg d w3 w2 neg d w3 w2 d cl s} def
/m28 {mp x w2 sub y w2 sub w3 add m w3 0 d  0 w3 neg d w3 0 d 0 w3 d w3 0 d  0 w3 d w3 neg 0 d 0 w3 d w3 neg 0 d 0 w3 neg d w3 neg 0 d cl s } def
/m29 {mp gsave x w2 sub y w2 add w3 sub m currentpoint t 4 {side} repeat cl fill gr} def
/m30 {mp gsave x w2 sub y w2 add w3 sub m currentpoint t 4 {side} repeat cl s gr} def
/m31 {mp x y w2 sub m 0 w d x w2 sub y m w 0 d x w2 sub y w2 add m w w neg d x w2 sub y w2 sub m w w d s} def
/m32 {mp x y w2 sub m w2 w d w neg 0 d cl s} def
/m33 {mp x y w2 add m w3 neg w2 neg d w3 w2 neg d w3 w2 d cl f} def
/m34 {mp x w2 sub y w2 sub w3 add m w3 0 d  0 w3 neg d w3 0 d 0 w3 d w3 0 d  0 w3 d w3 neg 0 d 0 w3 d w3 neg 0 d 0 w3 neg d w3 neg 0 d cl f } def
/m2 {mp x y w2 sub m 0 w d x w2 sub y m w 0 d s} def
/m5 {mp x w2 sub y w2 sub m w w d x w2 sub y w2 add m w w neg d s} def
/reEncode {exch findfont dup length dict begin {1 index /FID eq  {pop pop} {def} ifelse } forall /Encoding exch def currentdict end dup /FontName get exch definefont pop } def [/Times-Bold /Times-Italic /Times-BoldItalic /Helvetica /Helvetica-Oblique
 /Helvetica-Bold /Helvetica-BoldOblique /Courier /Courier-Oblique /Courier-Bold /Courier-BoldOblique /Times-Roman /AvantGarde-Book /AvantGarde-BookOblique /AvantGarde-Demi /AvantGarde-DemiOblique /Bookman-Demi /Bookman-DemiItalic /Bookman-Light
 /Bookman-LightItalic /Helvetica-Narrow /Helvetica-Narrow-Bold /Helvetica-Narrow-BoldOblique /Helvetica-Narrow-Oblique /NewCenturySchlbk-Roman /NewCenturySchlbk-Bold /NewCenturySchlbk-BoldItalic /NewCenturySchlbk-Italic /Palatino-Bold
 /Palatino-BoldItalic /Palatino-Italic /Palatino-Roman ] {ISOLatin1Encoding reEncode } forall
%%EndProlog
%%BeginSetup
%%EndSetup
newpath  gsave  .25 .25 scale  gsave  0 0 t black[  ] 0 sd 3 lw 1 1 1 c 2268 1630 0 0 bf black 1 1 1 c 1791 1287 363 261 bf black 1791 1287 363 261 bl 1 1 1 c 1791 1287 363 261 bf black 1791 1287 363 261 bl 6 lw 1 1 0 c black 3 lw 1 1 0 c 363 261 m
 407 X 11 Y 5 X -11 Y 36 X 5 Y 4 X -5 Y 5 X 5 Y 4 X -5 Y 5 X 5 Y 9 X 6 Y 4 X -6 Y 5 X -5 Y 4 X 11 Y 4 X 11 Y 5 X -17 Y 4 X 6 Y 5 X -6 Y 4 X 6 Y 5 X -11 Y 4 X 5 Y 5 X 6 Y 4 X -6 Y 5 X 6 Y 4 X 11 Y 5 X -5 Y 4 X -6 Y 5 X 17 Y 4 X -23 Y 5 X 34 Y 4 X -22
 Y 5 X 39 Y 4 X -11 Y 5 X -17 Y 4 X 57 Y 5 X -23 Y 9 X -6 Y 4 X 6 Y 4 X 12 Y 5 X 45 Y 4 X 11 Y 5 X -56 Y 4 X 28 Y 5 X 6 Y 4 X -17 Y 5 X 11 Y 4 X 40 Y 5 X -23 Y 4 X -17 Y 5 X 51 Y 4 X 68 Y 5 X 23 Y 4 X 23 Y 5 X -18 Y 4 X 18 Y 5 X 34 Y 4 X -80 Y 5 X 85
 Y 4 X 131 Y 5 X -136 Y 4 X 90 Y 9 X 40 Y 4 X 74 Y 9 X 23 Y 5 X 22 Y 4 X 6 Y 5 X 142 Y 4 X 45 Y 5 X -142 Y 4 X 148 Y 5 X 57 Y 4 X -46 Y 5 X -17 Y 4 X 51 Y 5 X -11 Y 4 X 102 Y 5 X 46 Y 4 X 56 Y 5 X 233 Y 4 X -193 Y 5 X 28 Y 4 X 103 Y 4 X -80 Y 5 X 46
 Y 4 X -46 Y 5 X 46 Y 4 X -159 Y 5 X 56 Y 4 X 46 Y 5 X 119 Y 4 X -11 Y 5 X -108 Y 4 X 74 Y 5 X 85 Y 4 X -176 Y 5 X -23 Y 4 X 148 Y 5 X -154 Y 4 X 120 Y 5 X -34 Y 4 X -103 Y 5 X -107 Y 4 X -29 Y 5 X -57 Y 4 X 6 Y 4 X 28 Y 5 X -68 Y 4 X 51 Y 5 X -170 Y
 4 X -34 Y 5 X 17 Y 4 X -96 Y 5 X -74 Y 4 X 45 Y 5 X -96 Y 4 X 51 Y 5 X -46 Y 4 X -107 Y 5 X -57 Y 4 X 74 Y 5 X -51 Y 4 X -86 Y 5 X 6 Y 4 X -6 Y 5 X -73 Y 4 X -40 Y 5 X 23 Y 4 X -12 Y 5 X -22 Y 4 X -40 Y 4 X 45 Y 5 X -45 Y 4 X 5 Y 5 X -17 Y 4 X 12 Y
 5 X -12 Y 4 X -5 Y 5 X 5 Y 9 X -5 Y 9 X -12 Y 9 X -5 Y 18 X 5 Y 4 X -5 Y 685 X f 6 lw black 1 1 0 c black 363 261 m 407 X 11 Y 5 X -11 Y 36 X 5 Y 4 X -5 Y 5 X 5 Y 4 X -5 Y 5 X 5 Y 9 X 6 Y 4 X -6 Y 5 X -5 Y 4 X 11 Y 4 X 11 Y 5 X -17 Y 4 X 6 Y 5 X -6
 Y 4 X 6 Y 5 X -11 Y 4 X 5 Y 5 X 6 Y 4 X -6 Y 5 X 6 Y 4 X 11 Y 5 X -5 Y 4 X -6 Y 5 X 17 Y 4 X -23 Y 5 X 34 Y 4 X -22 Y 5 X 39 Y 4 X -11 Y 5 X -17 Y 4 X 57 Y 5 X -23 Y 9 X -6 Y 4 X 6 Y 4 X 12 Y 5 X 45 Y 4 X 11 Y 5 X -56 Y 4 X 28 Y 5 X 6 Y 4 X -17 Y 5
 X 11 Y 4 X 40 Y 5 X -23 Y 4 X -17 Y 5 X 51 Y 4 X 68 Y 5 X 23 Y 4 X 23 Y 5 X -18 Y 4 X 18 Y 5 X 34 Y 4 X -80 Y 5 X 85 Y 4 X 131 Y 5 X -136 Y 4 X 90 Y 9 X 40 Y 4 X 74 Y 9 X 23 Y 5 X 22 Y 4 X 6 Y 5 X 142 Y 4 X 45 Y 5 X -142 Y 4 X 148 Y 5 X 57 Y 4 X -46
 Y 5 X -17 Y 4 X 51 Y 5 X -11 Y 4 X 102 Y 5 X 46 Y 4 X 56 Y 5 X 233 Y 4 X -193 Y 5 X 28 Y 4 X 103 Y 4 X -80 Y 5 X 46 Y 4 X -46 Y 5 X 46 Y 4 X -159 Y 5 X 56 Y 4 X 46 Y 5 X 119 Y 4 X -11 Y 5 X -108 Y 4 X 74 Y 5 X 85 Y 4 X -176 Y 5 X -23 Y 4 X 148 Y 5 X
 -154 Y 4 X 120 Y 5 X -34 Y 4 X -103 Y 5 X -107 Y 4 X -29 Y 5 X -57 Y 4 X 6 Y 4 X 28 Y 5 X -68 Y 4 X 51 Y 5 X -170 Y 4 X -34 Y 5 X 17 Y 4 X -96 Y 5 X -74 Y 4 X 45 Y 5 X -96 Y 4 X 51 Y 5 X -46 Y 4 X -107 Y 5 X -57 Y 4 X 74 Y 5 X -51 Y 4 X -86 Y 5 X 6
 Y 4 X -6 Y 5 X -73 Y 4 X -40 Y 5 X 23 Y 4 X -12 Y 5 X -22 Y 4 X -40 Y 4 X 45 Y 5 X -45 Y 4 X 5 Y 5 X -17 Y 4 X 12 Y 5 X -12 Y 4 X -5 Y 5 X 5 Y 9 X -5 Y 9 X -12 Y 9 X -5 Y 18 X 5 Y 4 X -5 Y 685 X s 3 lw 363 261 m 1791 X s 501 299 m -38 Y s 537 280 m
 -19 Y s 573 280 m -19 Y s 609 280 m -19 Y s 644 280 m -19 Y s 680 299 m -38 Y s 716 280 m -19 Y s 752 280 m -19 Y s 788 280 m -19 Y s 824 280 m -19 Y s 859 299 m -38 Y s 895 280 m -19 Y s 931 280 m -19 Y s 967 280 m -19 Y s 1003 280 m -19 Y s 1039
 299 m -38 Y s 1074 280 m -19 Y s 1110 280 m -19 Y s 1146 280 m -19 Y s 1182 280 m -19 Y s 1218 299 m -38 Y s 1254 280 m -19 Y s 1289 280 m -19 Y s 1325 280 m -19 Y s 1361 280 m -19 Y s 1397 299 m -38 Y s 1433 280 m -19 Y s 1468 280 m -19 Y s 1504
 280 m -19 Y s 1540 280 m -19 Y s 1576 299 m -38 Y s 1612 280 m -19 Y s 1648 280 m -19 Y s 1683 280 m -19 Y s 1719 280 m -19 Y s 1755 299 m -38 Y s 1791 280 m -19 Y s 1827 280 m -19 Y s 1863 280 m -19 Y s 1898 280 m -19 Y s 1934 299 m -38 Y s 1970
 280 m -19 Y s 2006 280 m -19 Y s 2042 280 m -19 Y s 2078 280 m -19 Y s 2113 299 m -38 Y s 501 299 m -38 Y s 465 280 m -19 Y s 429 280 m -19 Y s 394 280 m -19 Y s 2113 299 m -38 Y s 2149 280 m -19 Y s
 gsave  2268 1630 0 0 C 455.822 188.027 t 0 r /Helvetica findfont 76.92 sf 0 0 m (220) show NC gr 
 gsave  2268 1630 0 0 C 413.089 188.027 t 0 r /Symbol findfont 76.92 sf 0 0 m (-) show NC gr 
 gsave  2268 1630 0 0 C 635.302 188.027 t 0 r /Helvetica findfont 76.92 sf 0 0 m (210) show NC gr 
 gsave  2268 1630 0 0 C 592.569 188.027 t 0 r /Symbol findfont 76.92 sf 0 0 m (-) show NC gr 
 gsave  2268 1630 0 0 C 814.783 188.027 t 0 r /Helvetica findfont 76.92 sf 0 0 m (200) show NC gr 
 gsave  2268 1630 0 0 C 772.049 188.027 t 0 r /Symbol findfont 76.92 sf 0 0 m (-) show NC gr 
 gsave  2268 1630 0 0 C 994.263 188.027 t 0 r /Helvetica findfont 76.92 sf 0 0 m (190) show NC gr 
 gsave  2268 1630 0 0 C 951.529 188.027 t 0 r /Symbol findfont 76.92 sf 0 0 m (-) show NC gr 
 gsave  2268 1630 0 0 C 1173.74 188.027 t 0 r /Helvetica findfont 76.92 sf 0 0 m (180) show NC gr 
 gsave  2268 1630 0 0 C 1131.01 188.027 t 0 r /Symbol findfont 76.92 sf 0 0 m (-) show NC gr 
 gsave  2268 1630 0 0 C 1353.22 188.027 t 0 r /Helvetica findfont 76.92 sf 0 0 m (170) show NC gr 
 gsave  2268 1630 0 0 C 1310.49 188.027 t 0 r /Symbol findfont 76.92 sf 0 0 m (-) show NC gr 
 gsave  2268 1630 0 0 C 1532.7 188.027 t 0 r /Helvetica findfont 76.92 sf 0 0 m (160) show NC gr 
 gsave  2268 1630 0 0 C 1489.97 188.027 t 0 r /Symbol findfont 76.92 sf 0 0 m (-) show NC gr 
 gsave  2268 1630 0 0 C 1712.18 188.027 t 0 r /Helvetica findfont 76.92 sf 0 0 m (150) show NC gr 
 gsave  2268 1630 0 0 C 1669.45 188.027 t 0 r /Symbol findfont 76.92 sf 0 0 m (-) show NC gr 
 gsave  2268 1630 0 0 C 1888.81 188.027 t 0 r /Helvetica findfont 76.92 sf 0 0 m (140) show NC gr 
 gsave  2268 1630 0 0 C 1846.08 188.027 t 0 r /Symbol findfont 76.92 sf 0 0 m (-) show NC gr 
 gsave  2268 1630 0 0 C 2068.29 188.027 t 0 r /Helvetica findfont 76.92 sf 0 0 m (130) show NC gr 
 gsave  2268 1630 0 0 C 2025.56 188.027 t 0 r /Symbol findfont 76.92 sf 0 0 m (-) show NC gr  363 1548 m 1791 X s 501 1509 m 39 Y s 537 1529 m 19 Y s 573 1529 m 19 Y s 609 1529 m 19 Y s 644 1529 m 19 Y s 680 1509 m 39 Y s 716 1529 m 19 Y s 752 1529 m
 19 Y s 788 1529 m 19 Y s 824 1529 m 19 Y s 859 1509 m 39 Y s 895 1529 m 19 Y s 931 1529 m 19 Y s 967 1529 m 19 Y s 1003 1529 m 19 Y s 1039 1509 m 39 Y s 1074 1529 m 19 Y s 1110 1529 m 19 Y s 1146 1529 m 19 Y s 1182 1529 m 19 Y s 1218 1509 m 39 Y s
 1254 1529 m 19 Y s 1289 1529 m 19 Y s 1325 1529 m 19 Y s 1361 1529 m 19 Y s 1397 1509 m 39 Y s 1433 1529 m 19 Y s 1468 1529 m 19 Y s 1504 1529 m 19 Y s 1540 1529 m 19 Y s 1576 1509 m 39 Y s 1612 1529 m 19 Y s 1648 1529 m 19 Y s 1683 1529 m 19 Y s
 1719 1529 m 19 Y s 1755 1509 m 39 Y s 1791 1529 m 19 Y s 1827 1529 m 19 Y s 1863 1529 m 19 Y s 1898 1529 m 19 Y s 1934 1509 m 39 Y s 1970 1529 m 19 Y s 2006 1529 m 19 Y s 2042 1529 m 19 Y s 2078 1529 m 19 Y s 2113 1509 m 39 Y s 501 1509 m 39 Y s 465
 1529 m 19 Y s 429 1529 m 19 Y s 394 1529 m 19 Y s 2113 1509 m 39 Y s 2149 1529 m 19 Y s 363 261 m 1287 Y s 417 261 m -54 X s 390 289 m -27 X s 390 317 m -27 X s 390 346 m -27 X s 417 374 m -54 X s 390 403 m -27 X s 390 431 m -27 X s 390 459 m -27 X
 s 417 488 m -54 X s 390 516 m -27 X s 390 545 m -27 X s 390 573 m -27 X s 417 601 m -54 X s 390 630 m -27 X s 390 658 m -27 X s 390 686 m -27 X s 417 715 m -54 X s 390 743 m -27 X s 390 772 m -27 X s 390 800 m -27 X s 417 828 m -54 X s 390 857 m -27
 X s 390 885 m -27 X s 390 913 m -27 X s 417 942 m -54 X s 390 970 m -27 X s 390 999 m -27 X s 390 1027 m -27 X s 417 1055 m -54 X s 390 1084 m -27 X s 390 1112 m -27 X s 390 1141 m -27 X s 417 1169 m -54 X s 390 1197 m -27 X s 390 1226 m -27 X s 390
 1254 m -27 X s 417 1282 m -54 X s 390 1311 m -27 X s 390 1339 m -27 X s 390 1368 m -27 X s 417 1396 m -54 X s 390 1424 m -27 X s 390 1453 m -27 X s 390 1481 m -27 X s 417 1509 m -54 X s 417 1509 m -54 X s 390 1538 m -27 X s
 gsave  2268 1630 0 0 C 310.529 233.609 t 0 r /Helvetica findfont 76.92 sf 0 0 m (0) show NC gr 
 gsave  2268 1630 0 0 C 267.796 347.565 t 0 r /Helvetica findfont 76.92 sf 0 0 m (20) show NC gr 
 gsave  2268 1630 0 0 C 267.796 461.52 t 0 r /Helvetica findfont 76.92 sf 0 0 m (40) show NC gr 
 gsave  2268 1630 0 0 C 267.796 575.476 t 0 r /Helvetica findfont 76.92 sf 0 0 m (60) show NC gr 
 gsave  2268 1630 0 0 C 267.796 686.583 t 0 r /Helvetica findfont 76.92 sf 0 0 m (80) show NC gr 
 gsave  2268 1630 0 0 C 225.062 800.538 t 0 r /Helvetica findfont 76.92 sf 0 0 m (100) show NC gr 
 gsave  2268 1630 0 0 C 225.062 914.494 t 0 r /Helvetica findfont 76.92 sf 0 0 m (120) show NC gr 
 gsave  2268 1630 0 0 C 225.062 1028.45 t 0 r /Helvetica findfont 76.92 sf 0 0 m (140) show NC gr 
 gsave  2268 1630 0 0 C 225.062 1142.4 t 0 r /Helvetica findfont 76.92 sf 0 0 m (160) show NC gr 
 gsave  2268 1630 0 0 C 225.062 1256.36 t 0 r /Helvetica findfont 76.92 sf 0 0 m (180) show NC gr 
 gsave  2268 1630 0 0 C 225.062 1370.32 t 0 r /Helvetica findfont 76.92 sf 0 0 m (200) show NC gr 
 gsave  2268 1630 0 0 C 225.062 1481.42 t 0 r /Helvetica findfont 76.92 sf 0 0 m (220) show NC gr  2154 261 m 1287 Y s 2101 261 m 53 X s 2127 289 m 27 X s 2127 317 m 27 X s 2127 346 m 27 X s 2101 374 m 53 X s 2127 403 m 27 X s 2127 431 m 27 X s 2127
 459 m 27 X s 2101 488 m 53 X s 2127 516 m 27 X s 2127 545 m 27 X s 2127 573 m 27 X s 2101 601 m 53 X s 2127 630 m 27 X s 2127 658 m 27 X s 2127 686 m 27 X s 2101 715 m 53 X s 2127 743 m 27 X s 2127 772 m 27 X s 2127 800 m 27 X s 2101 828 m 53 X s
 2127 857 m 27 X s 2127 885 m 27 X s 2127 913 m 27 X s 2101 942 m 53 X s 2127 970 m 27 X s 2127 999 m 27 X s 2127 1027 m 27 X s 2101 1055 m 53 X s 2127 1084 m 27 X s 2127 1112 m 27 X s 2127 1141 m 27 X s 2101 1169 m 53 X s 2127 1197 m 27 X s 2127
 1226 m 27 X s 2127 1254 m 27 X s 2101 1282 m 53 X s 2127 1311 m 27 X s 2127 1339 m 27 X s 2127 1368 m 27 X s 2101 1396 m 53 X s 2127 1424 m 27 X s 2127 1453 m 27 X s 2127 1481 m 27 X s 2101 1509 m 53 X s 2101 1509 m 53 X s 2127 1538 m 27 X s 1 0 0 c
 902 261 m 323 Y s 1 1 1 c black
 gsave  2268 1630 0 0 C 706.525 1549.8 t 0 r /Helvetica findfont 79.7689 sf 0 0 m (Negative Log\255Likelihood) show NC gr 
 gr  gr showpage
end
%%EOF
