%!PS-Adobe-2.0 EPSF-2.0
%%BoundingBox:  0 0 567 407
%%Title: /afs/cern.ch/user/g/gkoren/DijetAlgo/trunk/TLA/Plots/NLL_Global_QCD.eps: Negative Log-Likelihood
%%Creator: ROOT Version 6.02/12
%%CreationDate: Thu Sep 17 15:36:42 2015
%%EndComments
%%BeginProlog
80 dict begin
/s {stroke} def /l {lineto} def /m {moveto} def /t {translate} def
/r {rotate} def /rl {roll}  def /R {repeat} def
/d {rlineto} def /rm {rmoveto} def /gr {grestore} def /f {eofill} def
/c {setrgbcolor} def /black {0 setgray} def /sd {setdash} def
/cl {closepath} def /sf {scalefont setfont} def /lw {setlinewidth} def
/box {m dup 0 exch d exch 0 d 0 exch neg d cl} def
/NC{systemdict begin initclip end}def/C{NC box clip newpath}def
/bl {box s} def /bf {gsave box gsave f grestore 1 lw [] 0 sd s grestore} def /Y { 0 exch d} def /X { 0 d} def 
/K {{pop pop 0 moveto} exch kshow} bind def
/ita {/ang 15 def gsave [1 0 ang dup sin exch cos div 1 0 0] concat} def 
/mp {newpath /y exch def /x exch def} def
/side {[w .77 mul w .23 mul] .385 w mul sd w 0 l currentpoint t -144 r} def
/mr {mp x y w2 0 360 arc} def /m24 {mr s} def /m20 {mr f} def
/mb {mp x y w2 add m w2 neg 0 d 0 w neg d w 0 d 0 w d cl} def
/mt {mp x y w2 add m w2 neg w neg d w 0 d cl} def
/m21 {mb f} def /m25 {mb s} def /m22 {mt f} def /m26{mt s} def
/m23 {mp x y w2 sub m w2 w d w neg 0 d cl f} def
/m27 {mp x y w2 add m w3 neg w2 neg d w3 w2 neg d w3 w2 d cl s} def
/m28 {mp x w2 sub y w2 sub w3 add m w3 0 d  0 w3 neg d w3 0 d 0 w3 d w3 0 d  0 w3 d w3 neg 0 d 0 w3 d w3 neg 0 d 0 w3 neg d w3 neg 0 d cl s } def
/m29 {mp gsave x w2 sub y w2 add w3 sub m currentpoint t 4 {side} repeat cl fill gr} def
/m30 {mp gsave x w2 sub y w2 add w3 sub m currentpoint t 4 {side} repeat cl s gr} def
/m31 {mp x y w2 sub m 0 w d x w2 sub y m w 0 d x w2 sub y w2 add m w w neg d x w2 sub y w2 sub m w w d s} def
/m32 {mp x y w2 sub m w2 w d w neg 0 d cl s} def
/m33 {mp x y w2 add m w3 neg w2 neg d w3 w2 neg d w3 w2 d cl f} def
/m34 {mp x w2 sub y w2 sub w3 add m w3 0 d  0 w3 neg d w3 0 d 0 w3 d w3 0 d  0 w3 d w3 neg 0 d 0 w3 d w3 neg 0 d 0 w3 neg d w3 neg 0 d cl f } def
/m2 {mp x y w2 sub m 0 w d x w2 sub y m w 0 d s} def
/m5 {mp x w2 sub y w2 sub m w w d x w2 sub y w2 add m w w neg d s} def
/reEncode {exch findfont dup length dict begin {1 index /FID eq  {pop pop} {def} ifelse } forall /Encoding exch def currentdict end dup /FontName get exch definefont pop } def [/Times-Bold /Times-Italic /Times-BoldItalic /Helvetica /Helvetica-Oblique
 /Helvetica-Bold /Helvetica-BoldOblique /Courier /Courier-Oblique /Courier-Bold /Courier-BoldOblique /Times-Roman /AvantGarde-Book /AvantGarde-BookOblique /AvantGarde-Demi /AvantGarde-DemiOblique /Bookman-Demi /Bookman-DemiItalic /Bookman-Light
 /Bookman-LightItalic /Helvetica-Narrow /Helvetica-Narrow-Bold /Helvetica-Narrow-BoldOblique /Helvetica-Narrow-Oblique /NewCenturySchlbk-Roman /NewCenturySchlbk-Bold /NewCenturySchlbk-BoldItalic /NewCenturySchlbk-Italic /Palatino-Bold
 /Palatino-BoldItalic /Palatino-Italic /Palatino-Roman ] {ISOLatin1Encoding reEncode } forall
%%EndProlog
%%BeginSetup
%%EndSetup
newpath  gsave  .25 .25 scale  gsave  0 0 t black[  ] 0 sd 3 lw 1 1 1 c 2268 1630 0 0 bf black 1 1 1 c 1791 1287 363 261 bf black 1791 1287 363 261 bl 1 1 1 c 1791 1287 363 261 bf black 1791 1287 363 261 bl 6 lw 1 1 0 c black 3 lw 1 1 0 c 363 261 m
 439 X 6 Y 9 X -6 Y 9 X 6 Y 13 X -6 Y 5 X 6 Y 4 X -6 Y 13 X 6 Y 5 X -6 Y 4 X 6 Y 14 X -6 Y 4 X 6 Y 5 X 5 Y 4 X -5 Y 5 X -6 Y 4 X 6 Y 5 X 11 Y 4 X -17 Y 5 X 6 Y 4 X 11 Y 5 X -6 Y 4 X 23 Y 5 X -34 Y 4 X 6 Y 5 X 28 Y 4 X -5 Y 5 X 11 Y 4 X 12 Y 5 X -29 Y
 4 X 17 Y 9 X 23 Y 4 X 6 Y 5 X -11 Y 4 X 17 Y 5 X 17 Y 4 X -46 Y 5 X 29 Y 4 X 46 Y 9 X 12 Y 5 X -47 Y 4 X -5 Y 5 X 29 Y 4 X 34 Y 5 X 29 Y 4 X -23 Y 5 X 75 Y 4 X -6 Y 5 X 6 Y 4 X -6 Y 5 X 110 Y 4 X -63 Y 4 X 23 Y 5 X 35 Y 4 X 144 Y 5 X -92 Y 4 X 34 Y
 5 X 23 Y 4 X -57 Y 5 X 40 Y 4 X -11 Y 5 X 144 Y 4 X 70 Y 5 X -81 Y 4 X 23 Y 5 X 46 Y 4 X 17 Y 5 X 35 Y 4 X 81 Y 5 X -64 Y 4 X 87 Y 9 X 87 Y 5 X 52 Y 4 X 87 Y 9 X 58 Y 9 X -29 Y 4 X 81 Y 5 X 127 Y 4 X -75 Y 5 X -24 Y 4 X 53 Y 5 X -267 Y 4 X 226 Y 5 X
 35 Y 4 X -29 Y 5 X 52 Y 4 X -29 Y 5 X -145 Y 4 X 128 Y 5 X -35 Y 4 X -75 Y 5 X 34 Y 4 X 52 Y 5 X -52 Y 4 X 52 Y 4 X -46 Y 5 X -121 Y 4 X -12 Y 5 X 6 Y 4 X -75 Y 5 X -58 Y 4 X -75 Y 5 X 104 Y 4 X -41 Y 5 X -208 Y 4 X 29 Y 5 X -11 Y 4 X -29 Y 5 X -122
 Y 4 X 122 Y 5 X -122 Y 4 X -40 Y 5 X -52 Y 4 X -52 Y 5 X -12 Y 4 X -64 Y 5 X 24 Y 4 X -53 Y 5 X -23 Y 4 X 41 Y 4 X -64 Y 5 X -69 Y 4 X 11 Y 5 X -57 Y 4 X 52 Y 5 X -47 Y 4 X -5 Y 5 X -6 Y 4 X 11 Y 5 X -29 Y 9 X -11 Y 4 X -12 Y 5 X -5 Y 9 X 11 Y 4 X
 -6 Y 5 X -11 Y 9 X 11 Y 4 X -5 Y 5 X 5 Y 4 X -11 Y 667 X f 6 lw black 1 1 0 c black 363 261 m 439 X 6 Y 9 X -6 Y 9 X 6 Y 13 X -6 Y 5 X 6 Y 4 X -6 Y 13 X 6 Y 5 X -6 Y 4 X 6 Y 14 X -6 Y 4 X 6 Y 5 X 5 Y 4 X -5 Y 5 X -6 Y 4 X 6 Y 5 X 11 Y 4 X -17 Y 5 X
 6 Y 4 X 11 Y 5 X -6 Y 4 X 23 Y 5 X -34 Y 4 X 6 Y 5 X 28 Y 4 X -5 Y 5 X 11 Y 4 X 12 Y 5 X -29 Y 4 X 17 Y 9 X 23 Y 4 X 6 Y 5 X -11 Y 4 X 17 Y 5 X 17 Y 4 X -46 Y 5 X 29 Y 4 X 46 Y 9 X 12 Y 5 X -47 Y 4 X -5 Y 5 X 29 Y 4 X 34 Y 5 X 29 Y 4 X -23 Y 5 X 75
 Y 4 X -6 Y 5 X 6 Y 4 X -6 Y 5 X 110 Y 4 X -63 Y 4 X 23 Y 5 X 35 Y 4 X 144 Y 5 X -92 Y 4 X 34 Y 5 X 23 Y 4 X -57 Y 5 X 40 Y 4 X -11 Y 5 X 144 Y 4 X 70 Y 5 X -81 Y 4 X 23 Y 5 X 46 Y 4 X 17 Y 5 X 35 Y 4 X 81 Y 5 X -64 Y 4 X 87 Y 9 X 87 Y 5 X 52 Y 4 X
 87 Y 9 X 58 Y 9 X -29 Y 4 X 81 Y 5 X 127 Y 4 X -75 Y 5 X -24 Y 4 X 53 Y 5 X -267 Y 4 X 226 Y 5 X 35 Y 4 X -29 Y 5 X 52 Y 4 X -29 Y 5 X -145 Y 4 X 128 Y 5 X -35 Y 4 X -75 Y 5 X 34 Y 4 X 52 Y 5 X -52 Y 4 X 52 Y 4 X -46 Y 5 X -121 Y 4 X -12 Y 5 X 6 Y 4
 X -75 Y 5 X -58 Y 4 X -75 Y 5 X 104 Y 4 X -41 Y 5 X -208 Y 4 X 29 Y 5 X -11 Y 4 X -29 Y 5 X -122 Y 4 X 122 Y 5 X -122 Y 4 X -40 Y 5 X -52 Y 4 X -52 Y 5 X -12 Y 4 X -64 Y 5 X 24 Y 4 X -53 Y 5 X -23 Y 4 X 41 Y 4 X -64 Y 5 X -69 Y 4 X 11 Y 5 X -57 Y 4
 X 52 Y 5 X -47 Y 4 X -5 Y 5 X -6 Y 4 X 11 Y 5 X -29 Y 9 X -11 Y 4 X -12 Y 5 X -5 Y 9 X 11 Y 4 X -6 Y 5 X -11 Y 9 X 11 Y 4 X -5 Y 5 X 5 Y 4 X -11 Y 667 X s 3 lw 363 261 m 1791 X s 364 299 m -38 Y s 399 280 m -19 Y s 435 280 m -19 Y s 471 280 m -19 Y
 s 507 280 m -19 Y s 543 299 m -38 Y s 579 280 m -19 Y s 614 280 m -19 Y s 650 280 m -19 Y s 686 280 m -19 Y s 722 299 m -38 Y s 758 280 m -19 Y s 794 280 m -19 Y s 829 280 m -19 Y s 865 280 m -19 Y s 901 299 m -38 Y s 937 280 m -19 Y s 973 280 m -19
 Y s 1009 280 m -19 Y s 1044 280 m -19 Y s 1080 299 m -38 Y s 1116 280 m -19 Y s 1152 280 m -19 Y s 1188 280 m -19 Y s 1224 280 m -19 Y s 1259 299 m -38 Y s 1295 280 m -19 Y s 1331 280 m -19 Y s 1367 280 m -19 Y s 1403 280 m -19 Y s 1439 299 m -38 Y
 s 1474 280 m -19 Y s 1510 280 m -19 Y s 1546 280 m -19 Y s 1582 280 m -19 Y s 1618 299 m -38 Y s 1654 280 m -19 Y s 1689 280 m -19 Y s 1725 280 m -19 Y s 1761 280 m -19 Y s 1797 299 m -38 Y s 1833 280 m -19 Y s 1869 280 m -19 Y s 1904 280 m -19 Y s
 1940 280 m -19 Y s 1976 299 m -38 Y s 364 299 m -38 Y s 1976 299 m -38 Y s 2012 280 m -19 Y s 2048 280 m -19 Y s 2084 280 m -19 Y s 2119 280 m -19 Y s
 gsave  2268 1630 0 0 C 319.076 188.027 t 0 r /Helvetica findfont 76.92 sf 0 0 m (230) show NC gr 
 gsave  2268 1630 0 0 C 276.342 188.027 t 0 r /Symbol findfont 76.92 sf 0 0 m (-) show NC gr 
 gsave  2268 1630 0 0 C 498.556 188.027 t 0 r /Helvetica findfont 76.92 sf 0 0 m (220) show NC gr 
 gsave  2268 1630 0 0 C 455.822 188.027 t 0 r /Symbol findfont 76.92 sf 0 0 m (-) show NC gr 
 gsave  2268 1630 0 0 C 678.036 188.027 t 0 r /Helvetica findfont 76.92 sf 0 0 m (210) show NC gr 
 gsave  2268 1630 0 0 C 635.302 188.027 t 0 r /Symbol findfont 76.92 sf 0 0 m (-) show NC gr 
 gsave  2268 1630 0 0 C 857.516 188.027 t 0 r /Helvetica findfont 76.92 sf 0 0 m (200) show NC gr 
 gsave  2268 1630 0 0 C 814.783 188.027 t 0 r /Symbol findfont 76.92 sf 0 0 m (-) show NC gr 
 gsave  2268 1630 0 0 C 1037 188.027 t 0 r /Helvetica findfont 76.92 sf 0 0 m (190) show NC gr 
 gsave  2268 1630 0 0 C 994.263 188.027 t 0 r /Symbol findfont 76.92 sf 0 0 m (-) show NC gr 
 gsave  2268 1630 0 0 C 1216.48 188.027 t 0 r /Helvetica findfont 76.92 sf 0 0 m (180) show NC gr 
 gsave  2268 1630 0 0 C 1173.74 188.027 t 0 r /Symbol findfont 76.92 sf 0 0 m (-) show NC gr 
 gsave  2268 1630 0 0 C 1393.11 188.027 t 0 r /Helvetica findfont 76.92 sf 0 0 m (170) show NC gr 
 gsave  2268 1630 0 0 C 1350.37 188.027 t 0 r /Symbol findfont 76.92 sf 0 0 m (-) show NC gr 
 gsave  2268 1630 0 0 C 1572.59 188.027 t 0 r /Helvetica findfont 76.92 sf 0 0 m (160) show NC gr 
 gsave  2268 1630 0 0 C 1529.85 188.027 t 0 r /Symbol findfont 76.92 sf 0 0 m (-) show NC gr 
 gsave  2268 1630 0 0 C 1752.07 188.027 t 0 r /Helvetica findfont 76.92 sf 0 0 m (150) show NC gr 
 gsave  2268 1630 0 0 C 1709.33 188.027 t 0 r /Symbol findfont 76.92 sf 0 0 m (-) show NC gr 
 gsave  2268 1630 0 0 C 1931.55 188.027 t 0 r /Helvetica findfont 76.92 sf 0 0 m (140) show NC gr 
 gsave  2268 1630 0 0 C 1888.81 188.027 t 0 r /Symbol findfont 76.92 sf 0 0 m (-) show NC gr  363 1548 m 1791 X s 364 1509 m 39 Y s 399 1529 m 19 Y s 435 1529 m 19 Y s 471 1529 m 19 Y s 507 1529 m 19 Y s 543 1509 m 39 Y s 579 1529 m 19 Y s 614 1529 m
 19 Y s 650 1529 m 19 Y s 686 1529 m 19 Y s 722 1509 m 39 Y s 758 1529 m 19 Y s 794 1529 m 19 Y s 829 1529 m 19 Y s 865 1529 m 19 Y s 901 1509 m 39 Y s 937 1529 m 19 Y s 973 1529 m 19 Y s 1009 1529 m 19 Y s 1044 1529 m 19 Y s 1080 1509 m 39 Y s 1116
 1529 m 19 Y s 1152 1529 m 19 Y s 1188 1529 m 19 Y s 1224 1529 m 19 Y s 1259 1509 m 39 Y s 1295 1529 m 19 Y s 1331 1529 m 19 Y s 1367 1529 m 19 Y s 1403 1529 m 19 Y s 1439 1509 m 39 Y s 1474 1529 m 19 Y s 1510 1529 m 19 Y s 1546 1529 m 19 Y s 1582
 1529 m 19 Y s 1618 1509 m 39 Y s 1654 1529 m 19 Y s 1689 1529 m 19 Y s 1725 1529 m 19 Y s 1761 1529 m 19 Y s 1797 1509 m 39 Y s 1833 1529 m 19 Y s 1869 1529 m 19 Y s 1904 1529 m 19 Y s 1940 1529 m 19 Y s 1976 1509 m 39 Y s 364 1509 m 39 Y s 1976
 1509 m 39 Y s 2012 1529 m 19 Y s 2048 1529 m 19 Y s 2084 1529 m 19 Y s 2119 1529 m 19 Y s 363 261 m 1287 Y s 417 261 m -54 X s 390 290 m -27 X s 390 319 m -27 X s 390 347 m -27 X s 417 376 m -54 X s 390 405 m -27 X s 390 434 m -27 X s 390 463 m -27
 X s 417 492 m -54 X s 390 521 m -27 X s 390 550 m -27 X s 390 579 m -27 X s 417 608 m -54 X s 390 637 m -27 X s 390 666 m -27 X s 390 694 m -27 X s 417 723 m -54 X s 390 752 m -27 X s 390 781 m -27 X s 390 810 m -27 X s 417 839 m -54 X s 390 868 m
 -27 X s 390 897 m -27 X s 390 926 m -27 X s 417 955 m -54 X s 390 984 m -27 X s 390 1013 m -27 X s 390 1041 m -27 X s 417 1070 m -54 X s 390 1099 m -27 X s 390 1128 m -27 X s 390 1157 m -27 X s 417 1186 m -54 X s 390 1215 m -27 X s 390 1244 m -27 X
 s 390 1273 m -27 X s 417 1302 m -54 X s 390 1331 m -27 X s 390 1360 m -27 X s 390 1388 m -27 X s 417 1417 m -54 X s 390 1446 m -27 X s 390 1475 m -27 X s 390 1504 m -27 X s 417 1533 m -54 X s 417 1533 m -54 X s
 gsave  2268 1630 0 0 C 310.529 233.609 t 0 r /Helvetica findfont 76.92 sf 0 0 m (0) show NC gr 
 gsave  2268 1630 0 0 C 267.796 350.413 t 0 r /Helvetica findfont 76.92 sf 0 0 m (20) show NC gr 
 gsave  2268 1630 0 0 C 267.796 464.369 t 0 r /Helvetica findfont 76.92 sf 0 0 m (40) show NC gr 
 gsave  2268 1630 0 0 C 267.796 581.174 t 0 r /Helvetica findfont 76.92 sf 0 0 m (60) show NC gr 
 gsave  2268 1630 0 0 C 267.796 695.129 t 0 r /Helvetica findfont 76.92 sf 0 0 m (80) show NC gr 
 gsave  2268 1630 0 0 C 225.062 811.934 t 0 r /Helvetica findfont 76.92 sf 0 0 m (100) show NC gr 
 gsave  2268 1630 0 0 C 225.062 928.738 t 0 r /Helvetica findfont 76.92 sf 0 0 m (120) show NC gr 
 gsave  2268 1630 0 0 C 225.062 1042.69 t 0 r /Helvetica findfont 76.92 sf 0 0 m (140) show NC gr 
 gsave  2268 1630 0 0 C 225.062 1159.5 t 0 r /Helvetica findfont 76.92 sf 0 0 m (160) show NC gr 
 gsave  2268 1630 0 0 C 225.062 1273.45 t 0 r /Helvetica findfont 76.92 sf 0 0 m (180) show NC gr 
 gsave  2268 1630 0 0 C 225.062 1390.26 t 0 r /Helvetica findfont 76.92 sf 0 0 m (200) show NC gr 
 gsave  2268 1630 0 0 C 225.062 1507.06 t 0 r /Helvetica findfont 76.92 sf 0 0 m (220) show NC gr  2154 261 m 1287 Y s 2101 261 m 53 X s 2127 290 m 27 X s 2127 319 m 27 X s 2127 347 m 27 X s 2101 376 m 53 X s 2127 405 m 27 X s 2127 434 m 27 X s 2127
 463 m 27 X s 2101 492 m 53 X s 2127 521 m 27 X s 2127 550 m 27 X s 2127 579 m 27 X s 2101 608 m 53 X s 2127 637 m 27 X s 2127 666 m 27 X s 2127 694 m 27 X s 2101 723 m 53 X s 2127 752 m 27 X s 2127 781 m 27 X s 2127 810 m 27 X s 2101 839 m 53 X s
 2127 868 m 27 X s 2127 897 m 27 X s 2127 926 m 27 X s 2101 955 m 53 X s 2127 984 m 27 X s 2127 1013 m 27 X s 2127 1041 m 27 X s 2101 1070 m 53 X s 2127 1099 m 27 X s 2127 1128 m 27 X s 2127 1157 m 27 X s 2101 1186 m 53 X s 2127 1215 m 27 X s 2127
 1244 m 27 X s 2127 1273 m 27 X s 2101 1302 m 53 X s 2127 1331 m 27 X s 2127 1360 m 27 X s 2127 1388 m 27 X s 2101 1417 m 53 X s 2127 1446 m 27 X s 2127 1475 m 27 X s 2127 1504 m 27 X s 2101 1533 m 53 X s 2101 1533 m 53 X s 1 0 0 c 1184 261 m 329 Y s
 1 1 1 c black
 gsave  2268 1630 0 0 C 706.525 1549.8 t 0 r /Helvetica findfont 79.7689 sf 0 0 m (Negative Log\255Likelihood) show NC gr 
 gr  gr showpage
end
%%EOF
