%!PS-Adobe-2.0 EPSF-2.0
%%BoundingBox:  0 0 567 407
%%Title: /afs/cern.ch/user/g/gkoren/DijetAlgo/trunk/TLA/Plots/pvalues_QCD.eps: p-values
%%Creator: ROOT Version 6.02/12
%%CreationDate: Fri Sep 18 11:56:23 2015
%%EndComments
%%BeginProlog
80 dict begin
/s {stroke} def /l {lineto} def /m {moveto} def /t {translate} def
/r {rotate} def /rl {roll}  def /R {repeat} def
/d {rlineto} def /rm {rmoveto} def /gr {grestore} def /f {eofill} def
/c {setrgbcolor} def /black {0 setgray} def /sd {setdash} def
/cl {closepath} def /sf {scalefont setfont} def /lw {setlinewidth} def
/box {m dup 0 exch d exch 0 d 0 exch neg d cl} def
/NC{systemdict begin initclip end}def/C{NC box clip newpath}def
/bl {box s} def /bf {gsave box gsave f grestore 1 lw [] 0 sd s grestore} def /Y { 0 exch d} def /X { 0 d} def 
/K {{pop pop 0 moveto} exch kshow} bind def
/ita {/ang 15 def gsave [1 0 ang dup sin exch cos div 1 0 0] concat} def 
/mp {newpath /y exch def /x exch def} def
/side {[w .77 mul w .23 mul] .385 w mul sd w 0 l currentpoint t -144 r} def
/mr {mp x y w2 0 360 arc} def /m24 {mr s} def /m20 {mr f} def
/mb {mp x y w2 add m w2 neg 0 d 0 w neg d w 0 d 0 w d cl} def
/mt {mp x y w2 add m w2 neg w neg d w 0 d cl} def
/m21 {mb f} def /m25 {mb s} def /m22 {mt f} def /m26{mt s} def
/m23 {mp x y w2 sub m w2 w d w neg 0 d cl f} def
/m27 {mp x y w2 add m w3 neg w2 neg d w3 w2 neg d w3 w2 d cl s} def
/m28 {mp x w2 sub y w2 sub w3 add m w3 0 d  0 w3 neg d w3 0 d 0 w3 d w3 0 d  0 w3 d w3 neg 0 d 0 w3 d w3 neg 0 d 0 w3 neg d w3 neg 0 d cl s } def
/m29 {mp gsave x w2 sub y w2 add w3 sub m currentpoint t 4 {side} repeat cl fill gr} def
/m30 {mp gsave x w2 sub y w2 add w3 sub m currentpoint t 4 {side} repeat cl s gr} def
/m31 {mp x y w2 sub m 0 w d x w2 sub y m w 0 d x w2 sub y w2 add m w w neg d x w2 sub y w2 sub m w w d s} def
/m32 {mp x y w2 sub m w2 w d w neg 0 d cl s} def
/m33 {mp x y w2 add m w3 neg w2 neg d w3 w2 neg d w3 w2 d cl f} def
/m34 {mp x w2 sub y w2 sub w3 add m w3 0 d  0 w3 neg d w3 0 d 0 w3 d w3 0 d  0 w3 d w3 neg 0 d 0 w3 d w3 neg 0 d 0 w3 neg d w3 neg 0 d cl f } def
/m2 {mp x y w2 sub m 0 w d x w2 sub y m w 0 d s} def
/m5 {mp x w2 sub y w2 sub m w w d x w2 sub y w2 add m w w neg d s} def
/reEncode {exch findfont dup length dict begin {1 index /FID eq  {pop pop} {def} ifelse } forall /Encoding exch def currentdict end dup /FontName get exch definefont pop } def [/Times-Bold /Times-Italic /Times-BoldItalic /Helvetica /Helvetica-Oblique
 /Helvetica-Bold /Helvetica-BoldOblique /Courier /Courier-Oblique /Courier-Bold /Courier-BoldOblique /Times-Roman /AvantGarde-Book /AvantGarde-BookOblique /AvantGarde-Demi /AvantGarde-DemiOblique /Bookman-Demi /Bookman-DemiItalic /Bookman-Light
 /Bookman-LightItalic /Helvetica-Narrow /Helvetica-Narrow-Bold /Helvetica-Narrow-BoldOblique /Helvetica-Narrow-Oblique /NewCenturySchlbk-Roman /NewCenturySchlbk-Bold /NewCenturySchlbk-BoldItalic /NewCenturySchlbk-Italic /Palatino-Bold
 /Palatino-BoldItalic /Palatino-Italic /Palatino-Roman ] {ISOLatin1Encoding reEncode } forall
%%EndProlog
%%BeginSetup
%%EndSetup
newpath  gsave  .25 .25 scale  gsave  0 0 t black[  ] 0 sd 3 lw 1 1 1 c 2268 1630 0 0 bf black 1 1 1 c 1791 1287 363 261 bf black 1791 1287 363 261 bl 1 1 1 c 1791 1287 363 261 bf black 1791 1287 363 261 bl 363 261 m 1791 X s
 gsave  2268 1630 0 0 C 1883.12 153.84 t 0 r /Helvetica findfont 54.1289 sf 0 0 m ( m\(jj\) [GeV]) show NC gr  378 299 m -38 Y s 425 280 m -19 Y s 472 280 m -19 Y s 518 280 m -19 Y s 565 280 m -19 Y s 612 299 m -38 Y s 659 280 m -19 Y s 706 280 m -19
 Y s 752 280 m -19 Y s 799 280 m -19 Y s 846 299 m -38 Y s 893 280 m -19 Y s 939 280 m -19 Y s 986 280 m -19 Y s 1033 280 m -19 Y s 1080 299 m -38 Y s 1126 280 m -19 Y s 1173 280 m -19 Y s 1220 280 m -19 Y s 1267 280 m -19 Y s 1314 299 m -38 Y s 1360
 280 m -19 Y s 1407 280 m -19 Y s 1454 280 m -19 Y s 1501 280 m -19 Y s 1547 299 m -38 Y s 1594 280 m -19 Y s 1641 280 m -19 Y s 1688 280 m -19 Y s 1734 280 m -19 Y s 1781 299 m -38 Y s 1828 280 m -19 Y s 1875 280 m -19 Y s 1922 280 m -19 Y s 1968
 280 m -19 Y s 2015 299 m -38 Y s 378 299 m -38 Y s 2015 299 m -38 Y s 2062 280 m -19 Y s 2109 280 m -19 Y s
 gsave  2268 1630 0 0 C 316.227 207.969 t 0 r /Helvetica findfont 54.1289 sf 0 0 m (1500) show NC gr 
 gsave  2268 1630 0 0 C 549.836 207.969 t 0 r /Helvetica findfont 54.1289 sf 0 0 m (2000) show NC gr 
 gsave  2268 1630 0 0 C 783.445 207.969 t 0 r /Helvetica findfont 54.1289 sf 0 0 m (2500) show NC gr 
 gsave  2268 1630 0 0 C 1017.05 207.969 t 0 r /Helvetica findfont 54.1289 sf 0 0 m (3000) show NC gr 
 gsave  2268 1630 0 0 C 1253.51 207.969 t 0 r /Helvetica findfont 54.1289 sf 0 0 m (3500) show NC gr 
 gsave  2268 1630 0 0 C 1487.12 207.969 t 0 r /Helvetica findfont 54.1289 sf 0 0 m (4000) show NC gr 
 gsave  2268 1630 0 0 C 1720.73 207.969 t 0 r /Helvetica findfont 54.1289 sf 0 0 m (4500) show NC gr 
 gsave  2268 1630 0 0 C 1954.34 207.969 t 0 r /Helvetica findfont 54.1289 sf 0 0 m (5000) show NC gr  363 1548 m 1791 X s 378 1509 m 39 Y s 425 1529 m 19 Y s 472 1529 m 19 Y s 518 1529 m 19 Y s 565 1529 m 19 Y s 612 1509 m 39 Y s 659 1529 m 19 Y s
 706 1529 m 19 Y s 752 1529 m 19 Y s 799 1529 m 19 Y s 846 1509 m 39 Y s 893 1529 m 19 Y s 939 1529 m 19 Y s 986 1529 m 19 Y s 1033 1529 m 19 Y s 1080 1509 m 39 Y s 1126 1529 m 19 Y s 1173 1529 m 19 Y s 1220 1529 m 19 Y s 1267 1529 m 19 Y s 1314 1509
 m 39 Y s 1360 1529 m 19 Y s 1407 1529 m 19 Y s 1454 1529 m 19 Y s 1501 1529 m 19 Y s 1547 1509 m 39 Y s 1594 1529 m 19 Y s 1641 1529 m 19 Y s 1688 1529 m 19 Y s 1734 1529 m 19 Y s 1781 1509 m 39 Y s 1828 1529 m 19 Y s 1875 1529 m 19 Y s 1922 1529 m
 19 Y s 1968 1529 m 19 Y s 2015 1509 m 39 Y s 378 1509 m 39 Y s 2015 1509 m 39 Y s 2062 1529 m 19 Y s 2109 1529 m 19 Y s 363 261 m 1287 Y s
 gsave  2268 1630 0 0 C 247.853 1358.92 t 90 r /Helvetica findfont 54.1289 sf 0 0 m ( p\255value) show NC gr  390 280 m -27 X s 390 314 m -27 X s 390 344 m -27 X s 417 371 m -54 X s
 gsave  2268 1630 0 0 C 324.773 373.205 t 0 r /Helvetica findfont 34.1867 sf 0 0 m (2) show NC gr 
 gsave  2268 1630 0 0 C 304.831 373.205 t 0 r /Symbol findfont 34.1867 sf 0 0 m (-) show NC gr 
 gsave  2268 1630 0 0 C 245.005 347.565 t 0 r /Helvetica findfont 54.1289 sf 0 0 m (10) show NC gr  390 548 m -27 X s 390 652 m -27 X s 390 726 m -27 X s 390 783 m -27 X s 390 829 m -27 X s 390 869 m -27 X s 390 903 m -27 X s 390 933 m -27 X s 417
 960 m -54 X s
 gsave  2268 1630 0 0 C 330.471 960.076 t 0 r /Helvetica findfont 34.1867 sf 0 0 m (1) show NC gr 
 gsave  2268 1630 0 0 C 310.529 960.076 t 0 r /Symbol findfont 34.1867 sf 0 0 m (-) show NC gr 
 gsave  2268 1630 0 0 C 250.702 934.436 t 0 r /Helvetica findfont 54.1289 sf 0 0 m (10) show NC gr  390 1137 m -27 X s 390 1241 m -27 X s 390 1315 m -27 X s 390 1372 m -27 X s 390 1418 m -27 X s 390 1458 m -27 X s 390 1492 m -27 X s 390 1522 m -27 X
 s 2154 261 m 1287 Y s 2127 280 m 27 X s 2127 314 m 27 X s 2127 344 m 27 X s 2101 371 m 53 X s 2127 548 m 27 X s 2127 652 m 27 X s 2127 726 m 27 X s 2127 783 m 27 X s 2127 829 m 27 X s 2127 869 m 27 X s 2127 903 m 27 X s 2127 933 m 27 X s 2101 960 m
 53 X s 2127 1137 m 27 X s 2127 1241 m 27 X s 2127 1315 m 27 X s 2127 1372 m 27 X s 2127 1418 m 27 X s 2127 1458 m 27 X s 2127 1492 m 27 X s 2127 1522 m 27 X s 0 1 0 c 9 lw black 0 1 0 c 512 1203 m 21 -184 d 21 78 d 22 89 d 22 97 d 22 -32 d 23 34 d
 23 -13 d 24 46 d 23 -17 d 25 135 d 25 -53 d 25 -32 d 26 -9 d 26 -287 d 26 -15 d 28 -29 d 27 238 d 28 -39 d 29 12 d 29 43 d 29 76 d 30 23 d 31 19 d 30 28 d 32 -226 d 32 -30 d 33 -225 d 32 107 d 34 -80 d 35 125 d 35 73 d 35 144 d 36 -124 d 37 -58 d 37
 2 d 38 213 d 39 -23 d 39 -18 d 40 -45 d 40 174 d 41 41 d 43 -73 d 42 31 d 44 -6 d 44 113 d 44 -58 d 46 -409 d s 3 lw /w 2 def /w2 {w 2 div} def /w3 {w 3 div} def 512 1203 533 1019 554 1097 576 1186 598 1283 620 1251 643 1285 666 1272 690 1318 713
 1301 738 1436 763 1383 788 1351 814 1342 840 1055 866 1040 894 1011 921 1249 949 1210 978 1222 1007 1265 1036 1341 1066 1364 1097 1383 1127 1411 1159 1185 1191 1155 1224 930 1256 1037 1290 957 1325 1082 1360 1155 1395 1299 1431 1175 1468 1117 1505
 1119 1543 1332 1582 1309 1621 1291 1661 1246 1701 1420 1742 1461 1785 1388 1827 1419 1871 1413 1915 1526 1959 1468 2005 1059 48 { m20} R 9 lw 0 0 1 c black 0 0 1 c 512 1145 m 21 -105 d 21 -27 d 22 169 d 22 -26 d 22 -103 d 23 19 d 23 -120 d 24 71 d
 23 16 d 25 164 d 25 59 d 25 -2 d 26 213 d 26 -321 d 26 -13 d 28 -88 d 27 18 d 28 3 d 29 -15 d 29 240 d 29 -10 d 30 73 d 31 -1 d 30 23 d 32 -162 d 32 -36 d 33 -291 d 32 94 d 34 -24 d 35 257 d 35 2 d 35 32 d 36 -291 d 37 -102 d 37 22 d 38 300 d 39 259
 d 39 -100 d 40 -43 d 40 71 d 41 155 d 43 -197 d 42 -40 d 44 18 d 44 188 d 44 -59 d 46 -330 d s 1 0 0 c black 1 0 0 c 512 1146 m 21 -106 d 21 -198 d 22 156 d 22 -23 d 22 78 d 23 19 d 23 -120 d 24 71 d 23 16 d 25 164 d 25 -148 d 25 -149 d 26 54 d 26
 -139 d 26 8 d 28 -85 d 27 132 d 28 137 d 29 149 d 29 37 d 29 -239 d 30 -39 d 31 173 d 30 320 d 32 -329 d 32 -34 d 33 -707 d 32 481 d 34 -48 d 35 408 d 35 -12 d 35 34 d 36 -373 d 37 -463 d 37 47 d 38 706 d 39 172 d 39 -45 d 40 -29 d 40 216 d 41 51 d
 43 -324 d 42 -59 d 44 26 d 44 293 d 44 71 d 46 -360 d s black 3 lw 1 1 1 c 340 244 1814 1304 bf black
 gsave  2268 1630 0 0 C 1897.36 1498.52 t 0 r /Helvetica-Bold findfont 28.4889 sf 0 0 m (SideBands Fit) show NC gr  1 0 0 c 9 lw 1827 1507 m 59 X s black
 gsave  2268 1630 0 0 C 1897.36 1415.9 t 0 r /Helvetica-Bold findfont 28.4889 sf 0 0 m (Smoothed Fit) show NC gr  0 0 1 c 1827 1426 m 59 X s black
 gsave  2268 1630 0 0 C 1897.36 1333.28 t 0 r /Helvetica-Bold findfont 28.4889 sf 0 0 m (Global Fit) show NC gr  0 1 0 c 1827 1344 m 59 X s 1 1 1 c black
 gsave  2268 1630 0 0 C 829.027 1549.8 t 0 r /Helvetica findfont 79.7689 sf 0 0 m (Window p\255values) show NC gr 
 gr  gr showpage
end
%%EOF
