%!PS-Adobe-2.0 EPSF-2.0
%%BoundingBox:  0 0 567 407
%%Title: /afs/cern.ch/user/g/gkoren/DijetAlgo/trunk/TLA/Plots/pvalues_QS3500.eps: p-values
%%Creator: ROOT Version 6.02/12
%%CreationDate: Fri Sep 18 12:04:43 2015
%%EndComments
%%BeginProlog
80 dict begin
/s {stroke} def /l {lineto} def /m {moveto} def /t {translate} def
/r {rotate} def /rl {roll}  def /R {repeat} def
/d {rlineto} def /rm {rmoveto} def /gr {grestore} def /f {eofill} def
/c {setrgbcolor} def /black {0 setgray} def /sd {setdash} def
/cl {closepath} def /sf {scalefont setfont} def /lw {setlinewidth} def
/box {m dup 0 exch d exch 0 d 0 exch neg d cl} def
/NC{systemdict begin initclip end}def/C{NC box clip newpath}def
/bl {box s} def /bf {gsave box gsave f grestore 1 lw [] 0 sd s grestore} def /Y { 0 exch d} def /X { 0 d} def 
/K {{pop pop 0 moveto} exch kshow} bind def
/ita {/ang 15 def gsave [1 0 ang dup sin exch cos div 1 0 0] concat} def 
/mp {newpath /y exch def /x exch def} def
/side {[w .77 mul w .23 mul] .385 w mul sd w 0 l currentpoint t -144 r} def
/mr {mp x y w2 0 360 arc} def /m24 {mr s} def /m20 {mr f} def
/mb {mp x y w2 add m w2 neg 0 d 0 w neg d w 0 d 0 w d cl} def
/mt {mp x y w2 add m w2 neg w neg d w 0 d cl} def
/m21 {mb f} def /m25 {mb s} def /m22 {mt f} def /m26{mt s} def
/m23 {mp x y w2 sub m w2 w d w neg 0 d cl f} def
/m27 {mp x y w2 add m w3 neg w2 neg d w3 w2 neg d w3 w2 d cl s} def
/m28 {mp x w2 sub y w2 sub w3 add m w3 0 d  0 w3 neg d w3 0 d 0 w3 d w3 0 d  0 w3 d w3 neg 0 d 0 w3 d w3 neg 0 d 0 w3 neg d w3 neg 0 d cl s } def
/m29 {mp gsave x w2 sub y w2 add w3 sub m currentpoint t 4 {side} repeat cl fill gr} def
/m30 {mp gsave x w2 sub y w2 add w3 sub m currentpoint t 4 {side} repeat cl s gr} def
/m31 {mp x y w2 sub m 0 w d x w2 sub y m w 0 d x w2 sub y w2 add m w w neg d x w2 sub y w2 sub m w w d s} def
/m32 {mp x y w2 sub m w2 w d w neg 0 d cl s} def
/m33 {mp x y w2 add m w3 neg w2 neg d w3 w2 neg d w3 w2 d cl f} def
/m34 {mp x w2 sub y w2 sub w3 add m w3 0 d  0 w3 neg d w3 0 d 0 w3 d w3 0 d  0 w3 d w3 neg 0 d 0 w3 d w3 neg 0 d 0 w3 neg d w3 neg 0 d cl f } def
/m2 {mp x y w2 sub m 0 w d x w2 sub y m w 0 d s} def
/m5 {mp x w2 sub y w2 sub m w w d x w2 sub y w2 add m w w neg d s} def
/reEncode {exch findfont dup length dict begin {1 index /FID eq  {pop pop} {def} ifelse } forall /Encoding exch def currentdict end dup /FontName get exch definefont pop } def [/Times-Bold /Times-Italic /Times-BoldItalic /Helvetica /Helvetica-Oblique
 /Helvetica-Bold /Helvetica-BoldOblique /Courier /Courier-Oblique /Courier-Bold /Courier-BoldOblique /Times-Roman /AvantGarde-Book /AvantGarde-BookOblique /AvantGarde-Demi /AvantGarde-DemiOblique /Bookman-Demi /Bookman-DemiItalic /Bookman-Light
 /Bookman-LightItalic /Helvetica-Narrow /Helvetica-Narrow-Bold /Helvetica-Narrow-BoldOblique /Helvetica-Narrow-Oblique /NewCenturySchlbk-Roman /NewCenturySchlbk-Bold /NewCenturySchlbk-BoldItalic /NewCenturySchlbk-Italic /Palatino-Bold
 /Palatino-BoldItalic /Palatino-Italic /Palatino-Roman ] {ISOLatin1Encoding reEncode } forall
%%EndProlog
%%BeginSetup
%%EndSetup
newpath  gsave  .25 .25 scale  gsave  0 0 t black[  ] 0 sd 3 lw 1 1 1 c 2268 1630 0 0 bf black 1 1 1 c 1791 1287 363 261 bf black 1791 1287 363 261 bl 1 1 1 c 1791 1287 363 261 bf black 1791 1287 363 261 bl 363 261 m 1791 X s
 gsave  2268 1630 0 0 C 1883.12 153.84 t 0 r /Helvetica findfont 54.1289 sf 0 0 m ( m\(jj\) [GeV]) show NC gr  382 299 m -38 Y s 428 280 m -19 Y s 473 280 m -19 Y s 518 280 m -19 Y s 564 280 m -19 Y s 609 299 m -38 Y s 654 280 m -19 Y s 700 280 m -19
 Y s 745 280 m -19 Y s 790 280 m -19 Y s 836 299 m -38 Y s 881 280 m -19 Y s 927 280 m -19 Y s 972 280 m -19 Y s 1017 280 m -19 Y s 1063 299 m -38 Y s 1108 280 m -19 Y s 1153 280 m -19 Y s 1199 280 m -19 Y s 1244 280 m -19 Y s 1289 299 m -38 Y s 1335
 280 m -19 Y s 1380 280 m -19 Y s 1426 280 m -19 Y s 1471 280 m -19 Y s 1516 299 m -38 Y s 1562 280 m -19 Y s 1607 280 m -19 Y s 1652 280 m -19 Y s 1698 280 m -19 Y s 1743 299 m -38 Y s 1788 280 m -19 Y s 1834 280 m -19 Y s 1879 280 m -19 Y s 1925
 280 m -19 Y s 1970 299 m -38 Y s 382 299 m -38 Y s 1970 299 m -38 Y s 2015 280 m -19 Y s 2061 280 m -19 Y s 2106 280 m -19 Y s 2151 280 m -19 Y s
 gsave  2268 1630 0 0 C 321.925 207.969 t 0 r /Helvetica findfont 54.1289 sf 0 0 m (1500) show NC gr 
 gsave  2268 1630 0 0 C 546.987 207.969 t 0 r /Helvetica findfont 54.1289 sf 0 0 m (2000) show NC gr 
 gsave  2268 1630 0 0 C 774.898 207.969 t 0 r /Helvetica findfont 54.1289 sf 0 0 m (2500) show NC gr 
 gsave  2268 1630 0 0 C 999.96 207.969 t 0 r /Helvetica findfont 54.1289 sf 0 0 m (3000) show NC gr 
 gsave  2268 1630 0 0 C 1227.87 207.969 t 0 r /Helvetica findfont 54.1289 sf 0 0 m (3500) show NC gr 
 gsave  2268 1630 0 0 C 1455.78 207.969 t 0 r /Helvetica findfont 54.1289 sf 0 0 m (4000) show NC gr 
 gsave  2268 1630 0 0 C 1680.85 207.969 t 0 r /Helvetica findfont 54.1289 sf 0 0 m (4500) show NC gr 
 gsave  2268 1630 0 0 C 1908.76 207.969 t 0 r /Helvetica findfont 54.1289 sf 0 0 m (5000) show NC gr  363 1548 m 1791 X s 382 1509 m 39 Y s 428 1529 m 19 Y s 473 1529 m 19 Y s 518 1529 m 19 Y s 564 1529 m 19 Y s 609 1509 m 39 Y s 654 1529 m 19 Y s
 700 1529 m 19 Y s 745 1529 m 19 Y s 790 1529 m 19 Y s 836 1509 m 39 Y s 881 1529 m 19 Y s 927 1529 m 19 Y s 972 1529 m 19 Y s 1017 1529 m 19 Y s 1063 1509 m 39 Y s 1108 1529 m 19 Y s 1153 1529 m 19 Y s 1199 1529 m 19 Y s 1244 1529 m 19 Y s 1289 1509
 m 39 Y s 1335 1529 m 19 Y s 1380 1529 m 19 Y s 1426 1529 m 19 Y s 1471 1529 m 19 Y s 1516 1509 m 39 Y s 1562 1529 m 19 Y s 1607 1529 m 19 Y s 1652 1529 m 19 Y s 1698 1529 m 19 Y s 1743 1509 m 39 Y s 1788 1529 m 19 Y s 1834 1529 m 19 Y s 1879 1529 m
 19 Y s 1925 1529 m 19 Y s 1970 1509 m 39 Y s 382 1509 m 39 Y s 1970 1509 m 39 Y s 2015 1529 m 19 Y s 2061 1529 m 19 Y s 2106 1529 m 19 Y s 2151 1529 m 19 Y s 363 261 m 1287 Y s
 gsave  2268 1630 0 0 C 247.853 1358.92 t 90 r /Helvetica findfont 54.1289 sf 0 0 m ( p\255value) show NC gr  417 264 m -54 X s
 gsave  2268 1630 0 0 C 324.773 264.947 t 0 r /Helvetica findfont 34.1867 sf 0 0 m (2) show NC gr 
 gsave  2268 1630 0 0 C 304.831 264.947 t 0 r /Symbol findfont 34.1867 sf 0 0 m (-) show NC gr 
 gsave  2268 1630 0 0 C 245.005 239.307 t 0 r /Helvetica findfont 54.1289 sf 0 0 m (10) show NC gr  390 460 m -27 X s 390 574 m -27 X s 390 656 m -27 X s 390 719 m -27 X s 390 770 m -27 X s 390 814 m -27 X s 390 852 m -27 X s 390 885 m -27 X s 417
 915 m -54 X s
 gsave  2268 1630 0 0 C 330.471 917.343 t 0 r /Helvetica findfont 34.1867 sf 0 0 m (1) show NC gr 
 gsave  2268 1630 0 0 C 310.529 917.343 t 0 r /Symbol findfont 34.1867 sf 0 0 m (-) show NC gr 
 gsave  2268 1630 0 0 C 250.702 891.703 t 0 r /Helvetica findfont 54.1289 sf 0 0 m (10) show NC gr  390 1111 m -27 X s 390 1226 m -27 X s 390 1307 m -27 X s 390 1370 m -27 X s 390 1422 m -27 X s 390 1466 m -27 X s 390 1503 m -27 X s 390 1537 m -27 X
 s 2154 261 m 1287 Y s 2101 264 m 53 X s 2127 460 m 27 X s 2127 574 m 27 X s 2127 656 m 27 X s 2127 719 m 27 X s 2127 770 m 27 X s 2127 814 m 27 X s 2127 852 m 27 X s 2127 885 m 27 X s 2101 915 m 53 X s 2127 1111 m 27 X s 2127 1226 m 27 X s 2127 1307
 m 27 X s 2127 1370 m 27 X s 2127 1422 m 27 X s 2127 1466 m 27 X s 2127 1503 m 27 X s 2127 1537 m 27 X s 1 0 0 c 9 lw black 1 0 0 c 512 1424 m 20 -19 d 21 -181 d 21 68 d 21 1 d 22 156 d 22 1 d 22 -2 d 23 13 d 23 -12 d 24 -37 d 24 -89 d 25 -2 d 24 20
 d 26 144 d 26 -46 d 26 -223 d 27 -46 d 27 -110 d 28 151 d 28 -272 d 28 139 d 29 11 d 30 347 d 30 85 d 31 -30 d 31 -790 d 31 669 d 65 X 33 -1079 d 34 600 d 34 -111 d 36 629 d 35 -162 d 36 -4 d 37 127 d 37 -143 d 38 -6 d 39 1 d 39 178 d 40 -163 d 41
 -574 d 42 93 d 42 116 d 42 529 d 44 -54 d 44 26 d 45 -142 d s 3 lw /w 2 def /w2 {w 2 div} def /w3 {w 3 div} def 512 1424 532 1405 553 1224 574 1292 595 1293 617 1449 639 1450 661 1448 684 1461 707 1449 731 1412 755 1323 780 1321 804 1341 830 1485
 856 1439 882 1216 909 1170 936 1060 964 1211 992 939 1020 1078 1049 1089 1079 1436 1109 1521 1140 1491 1171 701 1202 1370 1234 1370 1267 1370 1300 291 1334 891 1368 780 1404 1409 1439 1247 1475 1243 1512 1370 1549 1227 1587 1221 1626 1222 1665 1400
 1705 1237 1746 663 1788 756 1830 872 1872 1401 1916 1347 1960 1373 2005 1231 49 { m20} R 9 lw 0 1 0 c black 0 1 0 c 512 1424 m 20 -4 d 21 -177 d 21 66 d 21 X 22 217 d 22 -36 d 22 -51 d 23 X 23 28 d 24 -15 d 24 -82 d 25 -128 d 24 31 d 26 46 d 26 140
 d 26 -109 d 27 -70 d 27 -136 d 28 80 d 28 -277 d 28 31 d 29 9 d 30 404 d 30 124 d 31 -93 d 31 -546 d 31 495 d 65 X 33 -737 d 34 457 d 34 -21 d 36 339 d 35 -179 d 36 -13 d 37 113 d 37 48 d 38 -84 d 39 -70 d 39 -167 d 40 1 d 41 -199 d 42 256 d 42 -194
 d 42 315 d 44 20 d 44 88 d 45 -30 d s 0 0 1 c black 0 0 1 c 512 1423 m 20 -3 d 21 -177 d 21 66 d 21 X 22 217 d 22 -36 d 22 -51 d 23 X 23 28 d 24 -15 d 24 -82 d 25 -128 d 24 31 d 26 46 d 26 140 d 26 -109 d 27 -70 d 27 -136 d 28 77 d 28 -287 d 28 13 d
 29 40 d 30 417 d 30 44 d 31 -248 d 31 -475 d 31 646 d 32 -1 d 33 X 33 -836 d 34 646 d 34 -88 d 36 206 d 35 -142 d 36 54 d 37 172 d 37 39 d 38 -126 d 39 -182 d 39 -247 d 40 34 d 41 -165 d 42 269 d 42 -269 d 42 424 d 44 26 d 44 183 d 45 -24 d s black
 3 lw 1 1 1 c 340 244 1814 1304 bf black
 gsave  2268 1630 0 0 C 1897.36 1498.52 t 0 r /Helvetica-Bold findfont 28.4889 sf 0 0 m (SideBands Fit) show NC gr  0 0 1 c 9 lw 1827 1507 m 59 X s black
 gsave  2268 1630 0 0 C 1897.36 1415.9 t 0 r /Helvetica-Bold findfont 28.4889 sf 0 0 m (Smoothed Fit) show NC gr  0 1 0 c 1827 1426 m 59 X s black
 gsave  2268 1630 0 0 C 1897.36 1333.28 t 0 r /Helvetica-Bold findfont 28.4889 sf 0 0 m (Global Fit) show NC gr  1 0 0 c 1827 1344 m 59 X s 1 1 1 c black
 gsave  2268 1630 0 0 C 829.027 1549.8 t 0 r /Helvetica findfont 79.7689 sf 0 0 m (Window p\255values) show NC gr 
 gr  gr showpage
end
%%EOF
