%!PS-Adobe-2.0 EPSF-2.0
%%BoundingBox:  0 49 567 407
%%Title: QCD_fit.eps: fit
%%Creator: ROOT Version 5.34/25
%%CreationDate: Thu Oct 15 13:20:52 2015
%%EndComments
%%BeginProlog
80 dict begin
/s {stroke} def /l {lineto} def /m {moveto} def /t {translate} def
/r {rotate} def /rl {roll}  def /R {repeat} def
/d {rlineto} def /rm {rmoveto} def /gr {grestore} def /f {eofill} def
/c {setrgbcolor} def /black {0 setgray} def /sd {setdash} def
/cl {closepath} def /sf {scalefont setfont} def /lw {setlinewidth} def
/box {m dup 0 exch d exch 0 d 0 exch neg d cl} def
/NC{systemdict begin initclip end}def/C{NC box clip newpath}def
/bl {box s} def /bf {box f} def /Y { 0 exch d} def /X { 0 d} def 
/K {{pop pop 0 moveto} exch kshow} bind def
/ita {/ang 15 def gsave [1 0 ang dup sin exch cos div 1 0 0] concat} def 
/mp {newpath /y exch def /x exch def} def
/side {[w .77 mul w .23 mul] .385 w mul sd w 0 l currentpoint t -144 r} def
/mr {mp x y w2 0 360 arc} def /m24 {mr s} def /m20 {mr f} def
/mb {mp x y w2 add m w2 neg 0 d 0 w neg d w 0 d 0 w d cl} def
/mt {mp x y w2 add m w2 neg w neg d w 0 d cl} def
/m21 {mb f} def /m25 {mb s} def /m22 {mt f} def /m26{mt s} def
/m23 {mp x y w2 sub m w2 w d w neg 0 d cl f} def
/m27 {mp x y w2 add m w3 neg w2 neg d w3 w2 neg d w3 w2 d cl s} def
/m28 {mp x w2 sub y w2 sub w3 add m w3 0 d  0 w3 neg d w3 0 d 0 w3 d w3 0 d  0 w3 d w3 neg 0 d 0 w3 d w3 neg 0 d 0 w3 neg d w3 neg 0 d cl s } def
/m29 {mp gsave x w2 sub y w2 add w3 sub m currentpoint t 4 {side} repeat cl fill gr} def
/m30 {mp gsave x w2 sub y w2 add w3 sub m currentpoint t 4 {side} repeat cl s gr} def
/m31 {mp x y w2 sub m 0 w d x w2 sub y m w 0 d x w2 sub y w2 add m w w neg d x w2 sub y w2 sub m w w d s} def
/m32 {mp x y w2 sub m w2 w d w neg 0 d cl s} def
/m33 {mp x y w2 add m w3 neg w2 neg d w3 w2 neg d w3 w2 d cl f} def
/m34 {mp x w2 sub y w2 sub w3 add m w3 0 d  0 w3 neg d w3 0 d 0 w3 d w3 0 d  0 w3 d w3 neg 0 d 0 w3 d w3 neg 0 d 0 w3 neg d w3 neg 0 d cl f } def
/m2 {mp x y w2 sub m 0 w d x w2 sub y m w 0 d s} def
/m5 {mp x w2 sub y w2 sub m w w d x w2 sub y w2 add m w w neg d s} def
/reEncode {exch findfont dup length dict begin {1 index /FID eq  {pop pop} {def} ifelse } forall /Encoding exch def currentdict end dup /FontName get exch definefont pop } def [/Times-Bold /Times-Italic /Times-BoldItalic /Helvetica /Helvetica-Oblique
 /Helvetica-Bold /Helvetica-BoldOblique /Courier /Courier-Oblique /Courier-Bold /Courier-BoldOblique /Times-Roman /AvantGarde-Book /AvantGarde-BookOblique /AvantGarde-Demi /AvantGarde-DemiOblique /Bookman-Demi /Bookman-DemiItalic /Bookman-Light
 /Bookman-LightItalic /Helvetica-Narrow /Helvetica-Narrow-Bold /Helvetica-Narrow-BoldOblique /Helvetica-Narrow-Oblique /NewCenturySchlbk-Roman /NewCenturySchlbk-Bold /NewCenturySchlbk-BoldItalic /NewCenturySchlbk-Italic /Palatino-Bold
 /Palatino-BoldItalic /Palatino-Italic /Palatino-Roman ] {ISOLatin1Encoding reEncode } forall
%%EndProlog
%%BeginSetup
%%EndSetup
newpath  gsave  .25 .25 scale  gsave  0 0 t black[  ] 0 sd 3 lw 1 1 1 c 0 202 -59 626 bf black 1 1 1 c 2268 1434 0 196 bf black 1 1 1 c 1791 1133 363 425 bf black 1791 1133 363 425 bl 1 1 1 c 1791 1133 363 425 bf black 1791 1133 363 425 bl 6 lw 1 0 0
 c black 3 lw 1 0 0 c 1 lw << /PatternType 1 /PaintType 2 /TilingType 1 /BBox [ 0 0 98 4 ] /XStep 98 /YStep 4 /PaintProc { begin gsave [1] 0 sd 2 4 m 99 4 l s 1 3 m 98 3 l s 2 2 m 99 2 l s 1 1 m 98 1 l s gr end } >> [ 4.0 0 0 4.0 0 0 ] makepattern
 /P01 exch def /cs {[/Pattern /DeviceRGB] setcolorspace} def /FA {f [/DeviceRGB] setcolorspace} def cs 1 0 0 P01 setcolor 538 1328 m 15 X 1 Y -15 X FA 6 lw 3 lw 1 0 0 c cs 1 0 0 P01 setcolor 553 1315 m 16 X 1 Y -16 X FA 6 lw 3 lw 1 0 0 c cs 1 0 0 P01
 setcolor 569 1303 m 16 X 1 Y -16 X FA 6 lw 3 lw 1 0 0 c cs 1 0 0 P01 setcolor 585 1289 m 16 X 1 Y -16 X FA 6 lw 3 lw 1 0 0 c cs 1 0 0 P01 setcolor 601 1279 m 16 X 1 Y -16 X FA 6 lw 3 lw 1 0 0 c cs 1 0 0 P01 setcolor 617 1263 m 16 X 2 Y -16 X FA 6 lw
 3 lw 1 0 0 c cs 1 0 0 P01 setcolor 633 1252 m 17 X 2 Y -17 X FA 6 lw 3 lw 1 0 0 c cs 1 0 0 P01 setcolor 650 1238 m 18 X 2 Y -18 X FA 6 lw 3 lw 1 0 0 c cs 1 0 0 P01 setcolor 668 1229 m 17 X 2 Y -17 X FA 6 lw 3 lw 1 0 0 c cs 1 0 0 P01 setcolor 685
 1216 m 17 X 3 Y -17 X FA 6 lw 3 lw 1 0 0 c cs 1 0 0 P01 setcolor 702 1206 m 18 X 2 Y -18 X FA 6 lw 3 lw 1 0 0 c cs 1 0 0 P01 setcolor 720 1191 m 19 X 3 Y -19 X FA 6 lw 3 lw 1 0 0 c cs 1 0 0 P01 setcolor 739 1175 m 18 X 3 Y -18 X FA 6 lw 3 lw 1 0 0 c
 cs 1 0 0 P01 setcolor 757 1162 m 19 X 3 Y -19 X FA 6 lw 3 lw 1 0 0 c cs 1 0 0 P01 setcolor 776 1153 m 20 X 3 Y -20 X FA 6 lw 3 lw 1 0 0 c cs 1 0 0 P01 setcolor 796 1142 m 20 X 3 Y -20 X FA 6 lw 3 lw 1 0 0 c cs 1 0 0 P01 setcolor 816 1127 m 20 X 4 Y
 -20 X FA 6 lw 3 lw 1 0 0 c cs 1 0 0 P01 setcolor 836 1111 m 20 X 4 Y -20 X FA 6 lw 3 lw 1 0 0 c cs 1 0 0 P01 setcolor 856 1100 m 21 X 5 Y -21 X FA 6 lw 3 lw 1 0 0 c cs 1 0 0 P01 setcolor 877 1090 m 21 X 4 Y -21 X FA 6 lw 3 lw 1 0 0 c cs 1 0 0 P01
 setcolor 898 1075 m 21 X 5 Y -21 X FA 6 lw 3 lw 1 0 0 c cs 1 0 0 P01 setcolor 919 1055 m 22 X 6 Y -22 X FA 6 lw 3 lw 1 0 0 c cs 1 0 0 P01 setcolor 941 1043 m 23 X 6 Y -23 X FA 6 lw 3 lw 1 0 0 c cs 1 0 0 P01 setcolor 964 1030 m 22 X 6 Y -22 X FA 6 lw
 3 lw 1 0 0 c cs 1 0 0 P01 setcolor 986 1020 m 23 X 7 Y -23 X FA 6 lw 3 lw 1 0 0 c cs 1 0 0 P01 setcolor 1009 1005 m 23 X 7 Y -23 X FA 6 lw 3 lw 1 0 0 c cs 1 0 0 P01 setcolor 1032 990 m 24 X 8 Y -24 X FA 6 lw 3 lw 1 0 0 c cs 1 0 0 P01 setcolor 1056
 974 m 24 X 9 Y -24 X FA 6 lw 3 lw 1 0 0 c cs 1 0 0 P01 setcolor 1080 951 m 24 X 11 Y -24 X FA 6 lw 3 lw 1 0 0 c cs 1 0 0 P01 setcolor 1104 936 m 25 X 9 Y -25 X FA 6 lw 3 lw 1 0 0 c cs 1 0 0 P01 setcolor 1129 920 m 26 X 11 Y -26 X FA 6 lw 3 lw 1 0 0
 c cs 1 0 0 P01 setcolor 1155 912 m 26 X 11 Y -26 X FA 6 lw 3 lw 1 0 0 c cs 1 0 0 P01 setcolor 1181 899 m 26 X 12 Y -26 X FA 6 lw 3 lw 1 0 0 c cs 1 0 0 P01 setcolor 1207 879 m 27 X 14 Y -27 X FA 6 lw 3 lw 1 0 0 c cs 1 0 0 P01 setcolor 1234 851 m 27 X
 17 Y -27 X FA 6 lw 3 lw 1 0 0 c cs 1 0 0 P01 setcolor 1261 838 m 27 X 17 Y -27 X FA 6 lw 3 lw 1 0 0 c cs 1 0 0 P01 setcolor 1288 827 m 29 X 19 Y -29 X FA 6 lw 3 lw 1 0 0 c cs 1 0 0 P01 setcolor 1317 819 m 28 X 17 Y -28 X FA 6 lw 3 lw 1 0 0 c cs 1 0
 0 P01 setcolor 1345 808 m 29 X 21 Y -29 X FA 6 lw 3 lw 1 0 0 c cs 1 0 0 P01 setcolor 1374 785 m 30 X 19 Y -30 X FA 6 lw 3 lw 1 0 0 c cs 1 0 0 P01 setcolor 1404 764 m 30 X 27 Y -30 X FA 6 lw 3 lw 1 0 0 c cs 1 0 0 P01 setcolor 1434 732 m 30 X 33 Y -30
 X FA 6 lw 3 lw 1 0 0 c cs 1 0 0 P01 setcolor 1464 731 m 31 X 32 Y -31 X FA 6 lw 3 lw 1 0 0 c cs 1 0 0 P01 setcolor 1495 718 m 32 X 29 Y -32 X FA 6 lw 3 lw 1 0 0 c cs 1 0 0 P01 setcolor 1527 707 m 32 X 33 Y -32 X FA 6 lw 3 lw 1 0 0 c cs 1 0 0 P01
 setcolor 1559 695 m 33 X 37 Y -33 X FA 6 lw 3 lw 1 0 0 c cs 1 0 0 P01 setcolor 1592 672 m 33 X 40 Y -33 X FA 6 lw 3 lw 1 0 0 c cs 1 0 0 P01 setcolor 1625 637 m 34 X 43 Y -34 X FA 6 lw 3 lw 1 0 0 c cs 1 0 0 P01 setcolor 1659 630 m 34 X 48 Y -34 X FA
 6 lw 3 lw 1 0 0 c cs 1 0 0 P01 setcolor 1693 617 m 35 X 51 Y -35 X FA 6 lw 3 lw 1 0 0 c cs 1 0 0 P01 setcolor 1728 608 m 35 X 52 Y -35 X FA 6 lw 3 lw 1 0 0 c cs 1 0 0 P01 setcolor 1763 580 m 36 X 59 Y -36 X FA 6 lw 3 lw 1 0 0 c cs 1 0 0 P01 setcolor
 1799 486 m 37 X 62 Y -37 X FA 6 lw 3 lw 1 0 0 c cs 1 0 0 P01 setcolor 1836 542 m 37 X 65 Y -37 X FA 6 lw black 3 lw 363 425 m 1791 X s 645 459 m -34 Y s 715 442 m -17 Y s 786 442 m -17 Y s 856 442 m -17 Y s 927 442 m -17 Y s 997 459 m -34 Y s 1067
 442 m -17 Y s 1138 442 m -17 Y s 1208 442 m -17 Y s 1279 442 m -17 Y s 1349 459 m -34 Y s 1420 442 m -17 Y s 1490 442 m -17 Y s 1561 442 m -17 Y s 1631 442 m -17 Y s 1702 459 m -34 Y s 1772 442 m -17 Y s 1843 442 m -17 Y s 1913 442 m -17 Y s 1983
 442 m -17 Y s 2054 459 m -34 Y s 645 459 m -34 Y s 574 442 m -17 Y s 504 442 m -17 Y s 433 442 m -17 Y s 363 442 m -17 Y s 2054 459 m -34 Y s 2124 442 m -17 Y s
 gsave  2268 1434 0 196 C 569.778 364.658 t 0 r /Helvetica findfont 65.5714 sf 0 0 m (2000) show NC gr 
 gsave  2268 1434 0 196 C 920.192 364.658 t 0 r /Helvetica findfont 65.5714 sf 0 0 m (3000) show NC gr 
 gsave  2268 1434 0 196 C 1273.45 364.658 t 0 r /Helvetica findfont 65.5714 sf 0 0 m (4000) show NC gr 
 gsave  2268 1434 0 196 C 1626.72 364.658 t 0 r /Helvetica findfont 65.5714 sf 0 0 m (5000) show NC gr 
 gsave  2268 1434 0 196 C 1977.13 364.658 t 0 r /Helvetica findfont 65.5714 sf 0 0 m (6000) show NC gr  363 1558 m 1791 X s 645 1524 m 34 Y s 715 1541 m 17 Y s 786 1541 m 17 Y s 856 1541 m 17 Y s 927 1541 m 17 Y s 997 1524 m 34 Y s 1067 1541 m 17 Y s
 1138 1541 m 17 Y s 1208 1541 m 17 Y s 1279 1541 m 17 Y s 1349 1524 m 34 Y s 1420 1541 m 17 Y s 1490 1541 m 17 Y s 1561 1541 m 17 Y s 1631 1541 m 17 Y s 1702 1524 m 34 Y s 1772 1541 m 17 Y s 1843 1541 m 17 Y s 1913 1541 m 17 Y s 1983 1541 m 17 Y s
 2054 1524 m 34 Y s 645 1524 m 34 Y s 574 1541 m 17 Y s 504 1541 m 17 Y s 433 1541 m 17 Y s 363 1541 m 17 Y s 2054 1524 m 34 Y s 2124 1541 m 17 Y s 363 425 m 1133 Y s
 gsave  2268 1434 0 196 C 205.12 1358.92 t 90 r /Helvetica findfont 65.5714 sf 0 0 m (Events) show NC gr  390 486 m -27 X s 390 521 m -27 X s 390 546 m -27 X s 390 566 m -27 X s 390 582 m -27 X s 390 595 m -27 X s 390 607 m -27 X s 390 617 m -27 X s
 417 626 m -54 X s
 gsave  2268 1434 0 196 C 342.425 597.865 t 0 r  -37 0 t /Helvetica findfont 65.5714 sf 0 0 m (1) show NC gr  390 687 m -27 X s 390 722 m -27 X s 390 748 m -27 X s 390 767 m -27 X s 390 783 m -27 X s 390 797 m -27 X s 390 808 m -27 X s 390 819 m -27
 X s 417 828 m -54 X s
 gsave  2268 1434 0 196 C 342.425 799.228 t 0 r  -74 0 t /Helvetica findfont 65.5714 sf 0 0 m (10) show NC gr  390 888 m -27 X s 390 924 m -27 X s 390 949 m -27 X s 390 968 m -27 X s 390 984 m -27 X s 390 998 m -27 X s 390 1010 m -27 X s 390 1020 m
 -27 X s 417 1029 m -54 X s
 gsave  2268 1434 0 196 C 316.227 1028.45 t 0 r /Helvetica findfont 45.6149 sf 0 0 m (2) show NC gr 
 gsave  2268 1434 0 196 C 245.005 999.96 t 0 r /Helvetica findfont 65.5714 sf 0 0 m (10) show NC gr  390 1090 m -27 X s 390 1125 m -27 X s 390 1150 m -27 X s 390 1170 m -27 X s 390 1186 m -27 X s 390 1199 m -27 X s 390 1211 m -27 X s 390 1221 m -27 X
 s 417 1230 m -54 X s
 gsave  2268 1434 0 196 C 316.227 1230.72 t 0 r /Helvetica findfont 45.6149 sf 0 0 m (3) show NC gr 
 gsave  2268 1434 0 196 C 245.005 1199.38 t 0 r /Helvetica findfont 65.5714 sf 0 0 m (10) show NC gr  390 1291 m -27 X s 390 1327 m -27 X s 390 1352 m -27 X s 390 1371 m -27 X s 390 1387 m -27 X s 390 1401 m -27 X s 390 1412 m -27 X s 390 1423 m -27
 X s 417 1432 m -54 X s
 gsave  2268 1434 0 196 C 316.227 1430.14 t 0 r /Helvetica findfont 45.6149 sf 0 0 m (4) show NC gr 
 gsave  2268 1434 0 196 C 245.005 1401.65 t 0 r /Helvetica findfont 65.5714 sf 0 0 m (10) show NC gr  390 1492 m -27 X s 390 1528 m -27 X s 390 1553 m -27 X s 2154 425 m 1133 Y s 2127 486 m 27 X s 2127 521 m 27 X s 2127 546 m 27 X s 2127 566 m 27 X s
 2127 582 m 27 X s 2127 595 m 27 X s 2127 607 m 27 X s 2127 617 m 27 X s 2101 626 m 53 X s 2127 687 m 27 X s 2127 722 m 27 X s 2127 748 m 27 X s 2127 767 m 27 X s 2127 783 m 27 X s 2127 797 m 27 X s 2127 808 m 27 X s 2127 819 m 27 X s 2101 828 m 53 X
 s 2127 888 m 27 X s 2127 924 m 27 X s 2127 949 m 27 X s 2127 968 m 27 X s 2127 984 m 27 X s 2127 998 m 27 X s 2127 1010 m 27 X s 2127 1020 m 27 X s 2101 1029 m 53 X s 2127 1090 m 27 X s 2127 1125 m 27 X s 2127 1150 m 27 X s 2127 1170 m 27 X s 2127
 1186 m 27 X s 2127 1199 m 27 X s 2127 1211 m 27 X s 2127 1221 m 27 X s 2101 1230 m 53 X s 2127 1291 m 27 X s 2127 1327 m 27 X s 2127 1352 m 27 X s 2127 1371 m 27 X s 2127 1387 m 27 X s 2127 1401 m 27 X s 2127 1412 m 27 X s 2127 1423 m 27 X s 2101
 1432 m 53 X s 2127 1492 m 27 X s 2127 1528 m 27 X s 2127 1553 m 27 X s 1 0 0 c 6 lw 1 1 1 c black 1 0 0 c 363 425 m 175 X 903 Y 15 X -13 Y 16 X -12 Y 16 X -13 Y 16 X -11 Y 16 X -15 Y 16 X -11 Y 17 X -14 Y 18 X -9 Y 17 X -12 Y 17 X -11 Y 18 X -15 Y
 19 X -15 Y 18 X -13 Y 19 X -10 Y 20 X -10 Y 20 X -15 Y 20 X -16 Y 20 X -11 Y 21 X -10 Y 21 X -14 Y 21 X -20 Y 22 X -12 Y 23 X -13 Y 22 X -9 Y 23 X -15 Y 23 X -15 Y 24 X -16 Y 24 X -21 Y 24 X -16 Y 25 X -15 Y 26 X -9 Y 26 X -12 Y 26 X -19 Y 27 X -26
 Y 27 X -13 Y 27 X -10 Y 29 X -9 Y 28 X -9 Y 29 X -24 Y 30 X -16 Y 30 X -29 Y 30 X -1 Y 31 X -15 Y 32 X -9 Y 32 X -10 Y 33 X -21 Y 33 X -33 Y 34 X -4 Y 34 X -11 Y 35 X -8 Y 35 X -24 Y 36 X -92 Y 37 X 58 Y 37 X -155 Y 281 X s 0 0 1 c 1 1 1 c black 0 0
 1 c 363 425 m 175 X 903 Y 15 X -13 Y 16 X -12 Y 16 X -12 Y 16 X -14 Y 16 X -11 Y 16 X -13 Y 17 X -12 Y 18 X -12 Y 17 X -11 Y 17 X -13 Y 18 X -13 Y 19 X -13 Y 18 X -12 Y 19 X -13 Y 20 X -12 Y 20 X -13 Y 20 X -12 Y 20 X -15 Y 21 X -12 Y 21 X -16 Y 21
 X -12 Y 22 X -15 Y 23 X -14 Y 22 X -13 Y 23 X -11 Y 23 X -15 Y 24 X -16 Y 24 X -15 Y 24 X -15 Y 25 X -18 Y 26 X -16 Y 26 X -16 Y 26 X -15 Y 27 X -17 Y 27 X -14 Y 27 X -15 Y 29 X -17 Y 28 X -14 Y 29 X -14 Y 30 X -14 Y 30 X -13 Y 30 X -16 Y 31 X -17 Y
 32 X -14 Y 32 X -15 Y 33 X -16 Y 33 X -19 Y 34 X -17 Y 34 X -18 Y 35 X -20 Y 35 X -19 Y 36 X -15 Y 37 X 1 Y 37 X -155 Y 281 X s 0 1 0 c 9 lw 0.95 0.95 0.95 c black 0 1 0 c 477 1390 m 17 -15 d 17 -15 d 17 -15 d 16 -14 d 17 -14 d 17 -13 d 17 -14 d 17
 -13 d 17 -13 d 17 -13 d 16 -12 d 17 -13 d 17 -12 d 17 -12 d 17 -11 d 17 -12 d 17 -12 d 16 -11 d 17 -11 d 17 -11 d 17 -11 d 17 -11 d 17 -10 d 17 -11 d 16 -10 d 17 -11 d 17 -10 d 17 -10 d 17 -10 d 17 -10 d 17 -10 d 16 -10 d 17 -10 d 17 -9 d 17 -10 d
 17 -9 d 17 -10 d 17 -9 d 16 -10 d 17 -9 d 17 -9 d 17 -9 d 17 -9 d 17 -9 d 17 -9 d 16 -9 d 17 -9 d 17 -9 d 17 -9 d s 1303 853 m 17 -9 d 17 -9 d 17 -8 d 16 -9 d 17 -8 d 17 -9 d 17 -9 d 17 -8 d 17 -9 d 17 -8 d 16 -9 d 17 -8 d 17 -9 d 17 -8 d 17 -9 d 17
 -8 d 17 -8 d 16 -9 d 17 -8 d 17 -9 d 17 -8 d 17 -8 d 17 -8 d 17 -9 d 16 -8 d 17 -8 d 17 -9 d 17 -8 d 17 -8 d 17 -8 d 17 -9 d 16 -8 d 17 -8 d 17 -9 d 17 -8 d 17 -8 d 17 -8 d 17 -8 d 16 -9 d 17 -8 d 17 -8 d 17 -9 d 17 -8 d 17 -8 d 17 -9 d 16 -8 d 17
 -8 d 17 -9 d 17 -8 d s 2129 442 m 17 -9 d s black 6 lw 1 1 1 c black 3 lw /w 27 def /w2 {w 2 div} def /w3 {w 3 div} def 369 1497 m20 6 lw 3 lw 381 1484 m20 6 lw 3 lw 393 1472 m20 6 lw 3 lw 406 1457 m20 6 lw 3 lw 419 1445 m20 6 lw 3 lw 432 1433 m20 6
 lw 3 lw 446 1419 m20 6 lw 3 lw 459 1405 m20 6 lw 3 lw 473 1395 m20 6 lw 3 lw 487 1378 m20 6 lw 3 lw 501 1368 m20 6 lw 3 lw 516 1355 m20 6 lw 3 lw 531 1340 m20 6 lw 3 lw 546 1330 m20 6 lw 3 lw 561 1313 m20 6 lw 3 lw 577 1305 m20 6 lw 3 lw 593 1286
 m20 6 lw 3 lw 609 1277 m20 6 lw 3 lw 625 1266 m20 6 lw 3 lw 642 1255 m20 6 lw 3 lw 659 1243 m20 6 lw 3 lw 676 1231 m20 6 lw 3 lw 694 1214 m20 6 lw 3 lw 711 1205 m20 6 lw 3 lw 730 1187 m20 6 lw 3 lw 748 1179 m20 6 lw 3 lw 767 1173 m20 6 lw 3 lw 786
 1151 m20 6 lw 3 lw 806 1138 m20 6 lw 3 lw 826 1130 m20 6 lw 3 lw 846 1120 m20 6 lw 3 lw 866 1098 m20 6 lw 3 lw 887 1085 m20 6 lw 3 lw 909 1080 m20 6 lw 3 lw 930 1067 m20 6 lw 3 lw 952 1056 m20 6 lw 3 lw 975 1030 m20 6 lw 986 1019 m s 1009 1019 m s 3
 lw 998 1019 m20 6 lw 1009 1003 m s 1032 1003 m s 3 lw 1021 1003 m20 6 lw 1044 967 m 2 Y s 1032 980 m 1 X s 1055 980 m 1 X s 3 lw 1044 980 m20 6 lw 1068 936 m 4 Y s 1068 963 m 1 Y s 1056 951 m s 1079 951 m 1 X s 3 lw 1068 951 m20 6 lw 1092 947 m 3 Y
 s 1092 973 m s 1080 961 m 1 X s 1104 961 m s 3 lw 1092 961 m20 6 lw 1117 962 m 2 Y s 1104 975 m 2 X s 1128 975 m 1 X s 3 lw 1117 975 m20 6 lw 1142 903 m 6 Y s 1142 932 m 4 Y s 1129 921 m 2 X s 1154 921 m 1 X s 3 lw 1142 921 m20 6 lw 1168 871 m 10 Y
 s 1168 904 m 6 Y s 1155 893 m 1 X s 1179 893 m 2 X s 3 lw 1168 893 m20 6 lw 1194 871 m 10 Y s 1194 904 m 6 Y s 1181 893 m 1 X s 1205 893 m 2 X s 3 lw 1194 893 m20 6 lw 1220 876 m 9 Y s 1220 908 m 6 Y s 1207 897 m 2 X s 1232 897 m 2 X s 3 lw 1220 897
 m20 6 lw 1247 884 m 9 Y s 1247 916 m 5 Y s 1234 904 m 2 X s 1259 904 m 2 X s 3 lw 1247 904 m20 6 lw 1275 866 m 11 Y s 1275 900 m 6 Y s 1261 888 m 2 X s 1286 888 m 2 X s 3 lw 1275 888 m20 6 lw 1302 814 m 18 Y s 1302 855 m 11 Y s 1288 844 m 3 X s 1314
 844 m 3 X s 3 lw 1302 844 m20 6 lw 1331 794 m 22 Y s 1331 839 m 13 Y s 1317 828 m 2 X s 1342 828 m 3 X s 3 lw 1331 828 m20 6 lw 1360 783 m 24 Y s 1360 830 m 14 Y s 1345 819 m 3 X s 1371 819 m 3 X s 3 lw 1360 819 m20 6 lw 1389 737 m 35 Y s 1389 794 m
 19 Y s 1374 783 m 3 X s 1400 783 m 4 X s 3 lw 1389 783 m20 6 lw 1419 783 m 24 Y s 1419 830 m 14 Y s 1404 819 m 3 X s 1430 819 m 4 X s 3 lw 1419 819 m20 6 lw 1449 647 m 64 Y s 1449 734 m 28 Y s 1434 722 m 3 X s 1460 722 m 4 X s 3 lw 1449 722 m20 6 lw
 1480 715 m 41 Y s 1480 778 m 21 Y s 1464 767 m 4 X s 1491 767 m 4 X s 3 lw 1480 767 m20 6 lw 1511 647 m 64 Y s 1511 734 m 28 Y s 1495 722 m 5 X s 1522 722 m 5 X s 3 lw 1511 722 m20 6 lw 1543 687 m 49 Y s 1543 759 m 24 Y s 1527 748 m 5 X s 1554 748 m
 5 X s 3 lw 1543 748 m20 6 lw 1575 425 m 190 Y s 1575 638 m 49 Y s 1559 626 m 5 X s 1587 626 m 5 X s 3 lw 1575 626 m20 6 lw 1608 425 m 190 Y s 1608 638 m 49 Y s 1592 626 m 5 X s 1620 626 m 5 X s 3 lw 1608 626 m20 6 lw 1642 647 m 64 Y s 1642 734 m 28
 Y s 1625 722 m 5 X s 1653 722 m 6 X s 3 lw 1642 722 m20 6 lw 1676 687 m 49 Y s 1676 759 m 24 Y s 1659 748 m 5 X s 1687 748 m 6 X s 3 lw 1676 748 m20 6 lw 1745 580 m 96 Y s 1745 698 m 36 Y s 1728 687 m 6 X s 1757 687 m 6 X s 3 lw 1745 687 m20 6 lw
 1781 425 m 190 Y s 1781 638 m 49 Y s 1763 626 m 7 X s 1793 626 m 6 X s 3 lw 1781 626 m20 6 lw 1818 425 m 190 Y s 1818 638 m 49 Y s 1799 626 m 7 X s 1829 626 m 7 X s 3 lw 1818 626 m20 6 lw 1855 580 m 96 Y s 1855 698 m 36 Y s 1836 687 m 7 X s 1866 687
 m 7 X s 3 lw 1855 687 m20 6 lw 2050 425 m 190 Y s 2050 638 m 49 Y s 2030 626 m 9 X s 2061 626 m 9 X s 3 lw 2050 626 m20 6 lw 3 lw 1 1 1 c 680 287 1361 1056 bf black
 gsave  2268 1434 0 196 C 1529.85 1293.4 t 0 r /Helvetica-Bold findfont 39.913 sf 0 0 m (Data) show NC gr  6 lw 1386 1307 m 119 X s 1446 1285 m 43 Y s 3 lw 1446 1307 m20 6 lw
 gsave  2268 1434 0 196 C 1529.85 1219.32 t 0 r /Helvetica-Bold findfont 39.913 sf 0 0 m (Sideband) show NC gr  1 1 1 c 3 lw 1386 1210 m 119 X 50 Y -119 X f 6 lw 1 0 0 c 1386 1235 m 119 X s black
 gsave  2268 1434 0 196 C 1529.85 1148.1 t 0 r /Helvetica-Bold findfont 39.913 sf 0 0 m (Smoothed sideband) show NC gr  0 0 1 c 1386 1164 m 119 X s black
 gsave  2268 1434 0 196 C 1529.85 1076.88 t 0 r /Helvetica-Bold findfont 39.913 sf 0 0 m (fit) show NC gr  0 1 0 c 9 lw 1386 1092 m 119 X s 1 1 1 c black
 gsave  2268 1434 0 196 C 678.036 1558.34 t 0 r /Helvetica findfont 71.2732 sf 0 0 m (mjj_DataLike_QCDDiJet_1fb) show NC gr  3 lw 1 1 1 c 2268 421 0 0 bf black 1 1 1 c 1793 266 361 151 bf black 1793 266 361 151 bl 1 1 1 c 1793 266 361 151 bf black
 1793 266 361 151 bl 1 0 0 c black 1 0 0 c 361 283 m 176 X 55 Y 15 X -117 Y 15 X 97 Y 16 X -145 Y 16 X 54 Y 16 X 96 Y 17 X 8 Y 17 X 32 Y 17 X -66 Y 17 X -73 Y 18 X 22 Y 18 X -44 Y 18 X 109 Y 19 X 84 Y 19 X -154 Y 19 X -19 Y 20 X 74 Y 20 X 52 Y 21 X
 -101 Y 20 X -21 Y 22 X 78 Y 21 X 39 Y 22 X 4 Y 22 X -83 Y 23 X -10 Y 23 X -2 Y 23 X -38 Y 24 X -51 Y 24 X 137 Y 24 X 104 Y 25 X -137 Y 26 X -61 Y 25 X 40 Y 27 X 63 Y 27 X 73 Y 27 X -14 Y 27 X -73 Y 29 X -13 Y 57 X -17 Y 30 X 74 Y 30 X -89 Y 30 X 54
 Y 31 X -34 Y 32 X 36 Y 32 X -114 Y 33 X 31 Y 33 X 104 Y 34 X 21 Y 34 X -65 Y 35 X 31 Y 36 X -25 Y 36 X 29 Y 36 X 16 Y 38 X -51 Y 281 X f black 1 0 0 c black 361 283 m 176 X 55 Y 15 X -117 Y 15 X 97 Y 16 X -145 Y 16 X 54 Y 16 X 96 Y 17 X 8 Y 17 X 32
 Y 17 X -66 Y 17 X -73 Y 18 X 22 Y 18 X -44 Y 18 X 109 Y 19 X 84 Y 19 X -154 Y 19 X -19 Y 20 X 74 Y 20 X 52 Y 21 X -101 Y 20 X -21 Y 22 X 78 Y 21 X 39 Y 22 X 4 Y 22 X -83 Y 23 X -10 Y 23 X -2 Y 23 X -38 Y 24 X -51 Y 24 X 137 Y 24 X 104 Y 25 X -137 Y
 26 X -61 Y 25 X 40 Y 27 X 63 Y 27 X 73 Y 27 X -14 Y 27 X -73 Y 29 X -13 Y 57 X -17 Y 30 X 74 Y 30 X -89 Y 30 X 54 Y 31 X -34 Y 32 X 36 Y 32 X -114 Y 33 X 31 Y 33 X 104 Y 34 X 21 Y 34 X -65 Y 35 X 31 Y 36 X -25 Y 36 X 29 Y 36 X 16 Y 38 X -51 Y 281 X
 s 361 151 m 1793 X s
 gsave  2268 421 0 0 C 1888.81 28.4889 t 0 r /Helvetica findfont 65.9455 sf 0 0 m (mjj [GeV]) show NC gr  643 161 m -10 Y s 714 156 m -5 Y s 784 156 m -5 Y s 855 156 m -5 Y s 925 156 m -5 Y s 996 161 m -10 Y s 1066 156 m -5 Y s 1137 156 m -5 Y s 1207
 156 m -5 Y s 1278 156 m -5 Y s 1348 161 m -10 Y s 1419 156 m -5 Y s 1489 156 m -5 Y s 1560 156 m -5 Y s 1631 156 m -5 Y s 1701 161 m -10 Y s 1772 156 m -5 Y s 1842 156 m -5 Y s 1913 156 m -5 Y s 1983 156 m -5 Y s 2054 161 m -10 Y s 643 161 m -10 Y s
 573 156 m -5 Y s 502 156 m -5 Y s 432 156 m -5 Y s 361 156 m -5 Y s 2054 161 m -10 Y s 2124 156 m -5 Y s
 gsave  2268 421 0 0 C 575.476 99.7112 t 0 r /Helvetica findfont 60.2112 sf 0 0 m (2000) show NC gr 
 gsave  2268 421 0 0 C 928.738 99.7112 t 0 r /Helvetica findfont 60.2112 sf 0 0 m (3000) show NC gr 
 gsave  2268 421 0 0 C 1282 99.7112 t 0 r /Helvetica findfont 60.2112 sf 0 0 m (4000) show NC gr 
 gsave  2268 421 0 0 C 1635.26 99.7112 t 0 r /Helvetica findfont 60.2112 sf 0 0 m (5000) show NC gr 
 gsave  2268 421 0 0 C 1985.68 99.7112 t 0 r /Helvetica findfont 60.2112 sf 0 0 m (6000) show NC gr  361 417 m 1793 X s 643 407 m 10 Y s 714 412 m 5 Y s 784 412 m 5 Y s 855 412 m 5 Y s 925 412 m 5 Y s 996 407 m 10 Y s 1066 412 m 5 Y s 1137 412 m 5 Y
 s 1207 412 m 5 Y s 1278 412 m 5 Y s 1348 407 m 10 Y s 1419 412 m 5 Y s 1489 412 m 5 Y s 1560 412 m 5 Y s 1631 412 m 5 Y s 1701 407 m 10 Y s 1772 412 m 5 Y s 1842 412 m 5 Y s 1913 412 m 5 Y s 1983 412 m 5 Y s 2054 407 m 10 Y s 643 407 m 10 Y s 573
 412 m 5 Y s 502 412 m 5 Y s 432 412 m 5 Y s 361 412 m 5 Y s 2054 407 m 10 Y s 2124 412 m 5 Y s 361 151 m 266 Y s
 gsave  2268 421 0 0 C 159.538 96.8623 t 90 r /Helvetica findfont 60.2112 sf 0 0 m (Significance) show NC gr  404 180 m -43 X s 382 191 m -21 X s 382 201 m -21 X s 382 211 m -21 X s 382 221 m -21 X s 404 231 m -43 X s 382 242 m -21 X s 382 252 m -21
 X s 382 262 m -21 X s 382 272 m -21 X s 404 283 m -43 X s 382 293 m -21 X s 382 303 m -21 X s 382 313 m -21 X s 382 323 m -21 X s 404 334 m -43 X s 382 344 m -21 X s 382 354 m -21 X s 382 364 m -21 X s 382 374 m -21 X s 404 385 m -43 X s 404 180 m
 -43 X s 382 170 m -21 X s 382 160 m -21 X s 404 385 m -43 X s 382 395 m -21 X s 382 405 m -21 X s 382 415 m -21 X s
 gsave  2268 421 0 0 C 330.471 168.085 t 0 r /Helvetica findfont 28.672 sf 0 0 m (2) show NC gr 
 gsave  2268 421 0 0 C 313.378 168.085 t 0 r /Symbol findfont 28.672 sf 0 0 m (-) show NC gr 
 gsave  2268 421 0 0 C 336.169 219.365 t 0 r /Helvetica findfont 28.672 sf 0 0 m (1) show NC gr 
 gsave  2268 421 0 0 C 319.076 219.365 t 0 r /Symbol findfont 28.672 sf 0 0 m (-) show NC gr 
 gsave  2268 421 0 0 C 330.471 273.493 t 0 r /Helvetica findfont 28.672 sf 0 0 m (0) show NC gr 
 gsave  2268 421 0 0 C 336.169 321.925 t 0 r /Helvetica findfont 28.672 sf 0 0 m (1) show NC gr 
 gsave  2268 421 0 0 C 330.471 373.205 t 0 r /Helvetica findfont 28.672 sf 0 0 m (2) show NC gr  2154 151 m 266 Y s 2111 180 m 43 X s 2133 191 m 21 X s 2133 201 m 21 X s 2133 211 m 21 X s 2133 221 m 21 X s 2111 231 m 43 X s 2133 242 m 21 X s 2133 252
 m 21 X s 2133 262 m 21 X s 2133 272 m 21 X s 2111 283 m 43 X s 2133 293 m 21 X s 2133 303 m 21 X s 2133 313 m 21 X s 2133 323 m 21 X s 2111 334 m 43 X s 2133 344 m 21 X s 2133 354 m 21 X s 2133 364 m 21 X s 2133 374 m 21 X s 2111 385 m 43 X s 2111
 180 m 43 X s 2133 170 m 21 X s 2133 160 m 21 X s 2111 385 m 43 X s 2133 395 m 21 X s 2133 405 m 21 X s 2133 415 m 21 X s 0 0 1 c 1 1 1 c black 0 0 1 c 361 283 m 176 X 55 Y 15 X -117 Y 15 X 97 Y 16 X -167 Y 16 X 126 Y 16 X 13 Y 17 X 41 Y 17 X -15 Y
 17 X -1 Y 17 X -91 Y 18 X 53 Y 18 X -75 Y 18 X 77 Y 19 X 73 Y 19 X -111 Y 39 X 55 Y 20 X 18 Y 21 X -67 Y 42 X 82 Y 21 X -10 Y 22 X 19 Y 22 X -74 Y 23 X 10 Y 23 X -22 Y 23 X -38 Y 24 X -47 Y 24 X 109 Y 24 X 107 Y 25 X -132 Y 26 X -35 Y 25 X 51 Y 27 X
 51 Y 27 X 52 Y 27 X -9 Y 27 X -66 Y 57 X 8 Y 29 X -34 Y 30 X 71 Y 30 X -112 Y 30 X 76 Y 31 X -32 Y 32 X 40 Y 32 X -101 Y 33 X 20 Y 33 X 93 Y 34 X 27 Y 34 X -68 Y 35 X 41 Y 36 X -26 Y 36 X 6 Y 36 X 30 Y 38 X -51 Y 281 X s 0 1 0 c 1 1 1 c black 0 1 0
 c 361 283 m 176 X 26 Y 15 X -126 Y 15 X 121 Y 16 X -153 Y 16 X 94 Y 16 X 33 Y 17 X 38 Y 17 X 13 Y 17 X -1 Y 17 X -69 Y 18 X 49 Y 18 X -73 Y 18 X 64 Y 19 X 85 Y 19 X -113 Y 19 X 1 Y 20 X 52 Y 20 X 24 Y 21 X -80 Y 42 X 64 Y 21 X -7 Y 22 X 12 Y 22 X
 -80 Y 23 X 15 Y 23 X -14 Y 23 X -43 Y 24 X -63 Y 24 X 108 Y 24 X 107 Y 25 X -148 Y 26 X -42 Y 25 X 51 Y 27 X 55 Y 27 X 55 Y 27 X -8 Y 27 X -68 Y 29 X -1 Y 28 X 12 Y 29 X -33 Y 30 X 81 Y 30 X -117 Y 30 X 84 Y 31 X -34 Y 32 X 46 Y 32 X -106 Y 33 X 23
 Y 33 X 98 Y 34 X 30 Y 34 X -62 Y 35 X 34 Y 36 X -27 Y 36 X 8 Y 36 X 36 Y 38 X -51 Y 281 X s
 gr  gr showpage
end
%%EOF
