%!PS-Adobe-2.0 EPSF-2.0
%%BoundingBox:  0 49 567 407
%%Title: QStar_fit.eps: fit
%%Creator: ROOT Version 5.34/25
%%CreationDate: Thu Oct 15 13:16:01 2015
%%EndComments
%%BeginProlog
80 dict begin
/s {stroke} def /l {lineto} def /m {moveto} def /t {translate} def
/r {rotate} def /rl {roll}  def /R {repeat} def
/d {rlineto} def /rm {rmoveto} def /gr {grestore} def /f {eofill} def
/c {setrgbcolor} def /black {0 setgray} def /sd {setdash} def
/cl {closepath} def /sf {scalefont setfont} def /lw {setlinewidth} def
/box {m dup 0 exch d exch 0 d 0 exch neg d cl} def
/NC{systemdict begin initclip end}def/C{NC box clip newpath}def
/bl {box s} def /bf {box f} def /Y { 0 exch d} def /X { 0 d} def 
/K {{pop pop 0 moveto} exch kshow} bind def
/ita {/ang 15 def gsave [1 0 ang dup sin exch cos div 1 0 0] concat} def 
/mp {newpath /y exch def /x exch def} def
/side {[w .77 mul w .23 mul] .385 w mul sd w 0 l currentpoint t -144 r} def
/mr {mp x y w2 0 360 arc} def /m24 {mr s} def /m20 {mr f} def
/mb {mp x y w2 add m w2 neg 0 d 0 w neg d w 0 d 0 w d cl} def
/mt {mp x y w2 add m w2 neg w neg d w 0 d cl} def
/m21 {mb f} def /m25 {mb s} def /m22 {mt f} def /m26{mt s} def
/m23 {mp x y w2 sub m w2 w d w neg 0 d cl f} def
/m27 {mp x y w2 add m w3 neg w2 neg d w3 w2 neg d w3 w2 d cl s} def
/m28 {mp x w2 sub y w2 sub w3 add m w3 0 d  0 w3 neg d w3 0 d 0 w3 d w3 0 d  0 w3 d w3 neg 0 d 0 w3 d w3 neg 0 d 0 w3 neg d w3 neg 0 d cl s } def
/m29 {mp gsave x w2 sub y w2 add w3 sub m currentpoint t 4 {side} repeat cl fill gr} def
/m30 {mp gsave x w2 sub y w2 add w3 sub m currentpoint t 4 {side} repeat cl s gr} def
/m31 {mp x y w2 sub m 0 w d x w2 sub y m w 0 d x w2 sub y w2 add m w w neg d x w2 sub y w2 sub m w w d s} def
/m32 {mp x y w2 sub m w2 w d w neg 0 d cl s} def
/m33 {mp x y w2 add m w3 neg w2 neg d w3 w2 neg d w3 w2 d cl f} def
/m34 {mp x w2 sub y w2 sub w3 add m w3 0 d  0 w3 neg d w3 0 d 0 w3 d w3 0 d  0 w3 d w3 neg 0 d 0 w3 d w3 neg 0 d 0 w3 neg d w3 neg 0 d cl f } def
/m2 {mp x y w2 sub m 0 w d x w2 sub y m w 0 d s} def
/m5 {mp x w2 sub y w2 sub m w w d x w2 sub y w2 add m w w neg d s} def
/reEncode {exch findfont dup length dict begin {1 index /FID eq  {pop pop} {def} ifelse } forall /Encoding exch def currentdict end dup /FontName get exch definefont pop } def [/Times-Bold /Times-Italic /Times-BoldItalic /Helvetica /Helvetica-Oblique
 /Helvetica-Bold /Helvetica-BoldOblique /Courier /Courier-Oblique /Courier-Bold /Courier-BoldOblique /Times-Roman /AvantGarde-Book /AvantGarde-BookOblique /AvantGarde-Demi /AvantGarde-DemiOblique /Bookman-Demi /Bookman-DemiItalic /Bookman-Light
 /Bookman-LightItalic /Helvetica-Narrow /Helvetica-Narrow-Bold /Helvetica-Narrow-BoldOblique /Helvetica-Narrow-Oblique /NewCenturySchlbk-Roman /NewCenturySchlbk-Bold /NewCenturySchlbk-BoldItalic /NewCenturySchlbk-Italic /Palatino-Bold
 /Palatino-BoldItalic /Palatino-Italic /Palatino-Roman ] {ISOLatin1Encoding reEncode } forall
%%EndProlog
%%BeginSetup
%%EndSetup
newpath  gsave  .25 .25 scale  gsave  0 0 t black[  ] 0 sd 3 lw 1 1 1 c 0 202 -59 626 bf black 1 1 1 c 2268 1434 0 196 bf black 1 1 1 c 1791 1133 363 425 bf black 1791 1133 363 425 bl 1 1 1 c 1791 1133 363 425 bf black 1791 1133 363 425 bl 6 lw 1 0 0
 c black 3 lw 1 0 0 c 1 lw << /PatternType 1 /PaintType 2 /TilingType 1 /BBox [ 0 0 98 4 ] /XStep 98 /YStep 4 /PaintProc { begin gsave [1] 0 sd 2 4 m 99 4 l s 1 3 m 98 3 l s 2 2 m 99 2 l s 1 1 m 98 1 l s gr end } >> [ 4.0 0 0 4.0 0 0 ] makepattern
 /P01 exch def /cs {[/Pattern /DeviceRGB] setcolorspace} def /FA {f [/DeviceRGB] setcolorspace} def cs 1 0 0 P01 setcolor 538 1328 m 15 X 1 Y -15 X FA 6 lw 3 lw 1 0 0 c cs 1 0 0 P01 setcolor 553 1315 m 16 X 1 Y -16 X FA 6 lw 3 lw 1 0 0 c cs 1 0 0 P01
 setcolor 569 1303 m 16 X 1 Y -16 X FA 6 lw 3 lw 1 0 0 c cs 1 0 0 P01 setcolor 585 1290 m 16 X 1 Y -16 X FA 6 lw 3 lw 1 0 0 c cs 1 0 0 P01 setcolor 601 1280 m 16 X 1 Y -16 X FA 6 lw 3 lw 1 0 0 c cs 1 0 0 P01 setcolor 617 1265 m 16 X 2 Y -16 X FA 6 lw
 3 lw 1 0 0 c cs 1 0 0 P01 setcolor 633 1253 m 17 X 2 Y -17 X FA 6 lw 3 lw 1 0 0 c cs 1 0 0 P01 setcolor 650 1240 m 18 X 2 Y -18 X FA 6 lw 3 lw 1 0 0 c cs 1 0 0 P01 setcolor 668 1231 m 17 X 2 Y -17 X FA 6 lw 3 lw 1 0 0 c cs 1 0 0 P01 setcolor 685
 1219 m 17 X 3 Y -17 X FA 6 lw 3 lw 1 0 0 c cs 1 0 0 P01 setcolor 702 1209 m 18 X 2 Y -18 X FA 6 lw 3 lw 1 0 0 c cs 1 0 0 P01 setcolor 720 1195 m 19 X 3 Y -19 X FA 6 lw 3 lw 1 0 0 c cs 1 0 0 P01 setcolor 739 1180 m 18 X 3 Y -18 X FA 6 lw 3 lw 1 0 0 c
 cs 1 0 0 P01 setcolor 757 1169 m 19 X 3 Y -19 X FA 6 lw 3 lw 1 0 0 c cs 1 0 0 P01 setcolor 776 1159 m 20 X 3 Y -20 X FA 6 lw 3 lw 1 0 0 c cs 1 0 0 P01 setcolor 796 1150 m 20 X 4 Y -20 X FA 6 lw 3 lw 1 0 0 c cs 1 0 0 P01 setcolor 816 1138 m 20 X 3 Y
 -20 X FA 6 lw 3 lw 1 0 0 c cs 1 0 0 P01 setcolor 836 1126 m 20 X 4 Y -20 X FA 6 lw 3 lw 1 0 0 c cs 1 0 0 P01 setcolor 856 1116 m 21 X 4 Y -21 X FA 6 lw 3 lw 1 0 0 c cs 1 0 0 P01 setcolor 877 1105 m 21 X 4 Y -21 X FA 6 lw 3 lw 1 0 0 c cs 1 0 0 P01
 setcolor 898 1092 m 21 X 5 Y -21 X FA 6 lw 3 lw 1 0 0 c cs 1 0 0 P01 setcolor 919 1076 m 22 X 5 Y -22 X FA 6 lw 3 lw 1 0 0 c cs 1 0 0 P01 setcolor 941 1060 m 23 X 5 Y -23 X FA 6 lw 3 lw 1 0 0 c cs 1 0 0 P01 setcolor 964 1041 m 22 X 6 Y -22 X FA 6 lw
 3 lw 1 0 0 c cs 1 0 0 P01 setcolor 986 1033 m 23 X 5 Y -23 X FA 6 lw 3 lw 1 0 0 c cs 1 0 0 P01 setcolor 1009 1020 m 23 X 7 Y -23 X FA 6 lw 3 lw 1 0 0 c cs 1 0 0 P01 setcolor 1032 1007 m 24 X 8 Y -24 X FA 6 lw 3 lw 1 0 0 c cs 1 0 0 P01 setcolor 1056
 991 m 24 X 7 Y -24 X FA 6 lw 3 lw 1 0 0 c cs 1 0 0 P01 setcolor 1080 960 m 24 X 10 Y -24 X FA 6 lw 3 lw 1 0 0 c cs 1 0 0 P01 setcolor 1104 936 m 25 X 11 Y -25 X FA 6 lw 3 lw 1 0 0 c cs 1 0 0 P01 setcolor 1129 919 m 26 X 11 Y -26 X FA 6 lw 3 lw 1 0 0
 c cs 1 0 0 P01 setcolor 1155 908 m 26 X 12 Y -26 X FA 6 lw 3 lw 1 0 0 c cs 1 0 0 P01 setcolor 1181 890 m 26 X 13 Y -26 X FA 6 lw 3 lw 1 0 0 c cs 1 0 0 P01 setcolor 1207 868 m 27 X 15 Y -27 X FA 6 lw 3 lw 1 0 0 c cs 1 0 0 P01 setcolor 1234 829 m 27 X
 14 Y -27 X FA 6 lw 3 lw 1 0 0 c cs 1 0 0 P01 setcolor 1261 834 m 27 X 16 Y -27 X FA 6 lw 3 lw 1 0 0 c cs 1 0 0 P01 setcolor 1288 833 m 29 X 16 Y -29 X FA 6 lw 3 lw 1 0 0 c cs 1 0 0 P01 setcolor 1317 827 m 28 X 17 Y -28 X FA 6 lw 3 lw 1 0 0 c cs 1 0
 0 P01 setcolor 1345 814 m 29 X 17 Y -29 X FA 6 lw 3 lw 1 0 0 c cs 1 0 0 P01 setcolor 1374 785 m 30 X 20 Y -30 X FA 6 lw 3 lw 1 0 0 c cs 1 0 0 P01 setcolor 1404 759 m 30 X 29 Y -30 X FA 6 lw 3 lw 1 0 0 c cs 1 0 0 P01 setcolor 1434 735 m 30 X 32 Y -30
 X FA 6 lw 3 lw 1 0 0 c cs 1 0 0 P01 setcolor 1464 739 m 31 X 32 Y -31 X FA 6 lw 3 lw 1 0 0 c cs 1 0 0 P01 setcolor 1495 724 m 32 X 29 Y -32 X FA 6 lw 3 lw 1 0 0 c cs 1 0 0 P01 setcolor 1527 711 m 32 X 36 Y -32 X FA 6 lw 3 lw 1 0 0 c cs 1 0 0 P01
 setcolor 1559 707 m 33 X 32 Y -33 X FA 6 lw 3 lw 1 0 0 c cs 1 0 0 P01 setcolor 1592 682 m 33 X 38 Y -33 X FA 6 lw 3 lw 1 0 0 c cs 1 0 0 P01 setcolor 1625 645 m 34 X 44 Y -34 X FA 6 lw 3 lw 1 0 0 c cs 1 0 0 P01 setcolor 1659 633 m 34 X 47 Y -34 X FA
 6 lw 3 lw 1 0 0 c cs 1 0 0 P01 setcolor 1693 614 m 35 X 53 Y -35 X FA 6 lw 3 lw 1 0 0 c cs 1 0 0 P01 setcolor 1728 619 m 35 X 51 Y -35 X FA 6 lw 3 lw 1 0 0 c cs 1 0 0 P01 setcolor 1763 579 m 36 X 58 Y -36 X FA 6 lw 3 lw 1 0 0 c cs 1 0 0 P01 setcolor
 1799 425 m 37 X 161 Y -37 X FA 6 lw 3 lw 1 0 0 c cs 1 0 0 P01 setcolor 1836 544 m 37 X 64 Y -37 X FA 6 lw black 3 lw 363 425 m 1791 X s 645 459 m -34 Y s 715 442 m -17 Y s 786 442 m -17 Y s 856 442 m -17 Y s 927 442 m -17 Y s 997 459 m -34 Y s 1067
 442 m -17 Y s 1138 442 m -17 Y s 1208 442 m -17 Y s 1279 442 m -17 Y s 1349 459 m -34 Y s 1420 442 m -17 Y s 1490 442 m -17 Y s 1561 442 m -17 Y s 1631 442 m -17 Y s 1702 459 m -34 Y s 1772 442 m -17 Y s 1843 442 m -17 Y s 1913 442 m -17 Y s 1983
 442 m -17 Y s 2054 459 m -34 Y s 645 459 m -34 Y s 574 442 m -17 Y s 504 442 m -17 Y s 433 442 m -17 Y s 363 442 m -17 Y s 2054 459 m -34 Y s 2124 442 m -17 Y s
 gsave  2268 1434 0 196 C 569.778 364.658 t 0 r /Helvetica findfont 65.5714 sf 0 0 m (2000) show NC gr 
 gsave  2268 1434 0 196 C 920.192 364.658 t 0 r /Helvetica findfont 65.5714 sf 0 0 m (3000) show NC gr 
 gsave  2268 1434 0 196 C 1273.45 364.658 t 0 r /Helvetica findfont 65.5714 sf 0 0 m (4000) show NC gr 
 gsave  2268 1434 0 196 C 1626.72 364.658 t 0 r /Helvetica findfont 65.5714 sf 0 0 m (5000) show NC gr 
 gsave  2268 1434 0 196 C 1977.13 364.658 t 0 r /Helvetica findfont 65.5714 sf 0 0 m (6000) show NC gr  363 1558 m 1791 X s 645 1524 m 34 Y s 715 1541 m 17 Y s 786 1541 m 17 Y s 856 1541 m 17 Y s 927 1541 m 17 Y s 997 1524 m 34 Y s 1067 1541 m 17 Y s
 1138 1541 m 17 Y s 1208 1541 m 17 Y s 1279 1541 m 17 Y s 1349 1524 m 34 Y s 1420 1541 m 17 Y s 1490 1541 m 17 Y s 1561 1541 m 17 Y s 1631 1541 m 17 Y s 1702 1524 m 34 Y s 1772 1541 m 17 Y s 1843 1541 m 17 Y s 1913 1541 m 17 Y s 1983 1541 m 17 Y s
 2054 1524 m 34 Y s 645 1524 m 34 Y s 574 1541 m 17 Y s 504 1541 m 17 Y s 433 1541 m 17 Y s 363 1541 m 17 Y s 2054 1524 m 34 Y s 2124 1541 m 17 Y s 363 425 m 1133 Y s
 gsave  2268 1434 0 196 C 205.12 1358.92 t 90 r /Helvetica findfont 65.5714 sf 0 0 m (Events) show NC gr  390 486 m -27 X s 390 521 m -27 X s 390 546 m -27 X s 390 566 m -27 X s 390 582 m -27 X s 390 595 m -27 X s 390 607 m -27 X s 390 617 m -27 X s
 417 626 m -54 X s
 gsave  2268 1434 0 196 C 342.425 597.865 t 0 r  -37 0 t /Helvetica findfont 65.5714 sf 0 0 m (1) show NC gr  390 687 m -27 X s 390 722 m -27 X s 390 748 m -27 X s 390 767 m -27 X s 390 783 m -27 X s 390 797 m -27 X s 390 808 m -27 X s 390 819 m -27
 X s 417 828 m -54 X s
 gsave  2268 1434 0 196 C 342.425 799.228 t 0 r  -74 0 t /Helvetica findfont 65.5714 sf 0 0 m (10) show NC gr  390 888 m -27 X s 390 924 m -27 X s 390 949 m -27 X s 390 968 m -27 X s 390 984 m -27 X s 390 998 m -27 X s 390 1010 m -27 X s 390 1020 m
 -27 X s 417 1029 m -54 X s
 gsave  2268 1434 0 196 C 316.227 1028.45 t 0 r /Helvetica findfont 45.6149 sf 0 0 m (2) show NC gr 
 gsave  2268 1434 0 196 C 245.005 999.96 t 0 r /Helvetica findfont 65.5714 sf 0 0 m (10) show NC gr  390 1090 m -27 X s 390 1125 m -27 X s 390 1150 m -27 X s 390 1170 m -27 X s 390 1186 m -27 X s 390 1199 m -27 X s 390 1211 m -27 X s 390 1221 m -27 X
 s 417 1230 m -54 X s
 gsave  2268 1434 0 196 C 316.227 1230.72 t 0 r /Helvetica findfont 45.6149 sf 0 0 m (3) show NC gr 
 gsave  2268 1434 0 196 C 245.005 1199.38 t 0 r /Helvetica findfont 65.5714 sf 0 0 m (10) show NC gr  390 1291 m -27 X s 390 1327 m -27 X s 390 1352 m -27 X s 390 1371 m -27 X s 390 1387 m -27 X s 390 1401 m -27 X s 390 1412 m -27 X s 390 1423 m -27
 X s 417 1432 m -54 X s
 gsave  2268 1434 0 196 C 316.227 1430.14 t 0 r /Helvetica findfont 45.6149 sf 0 0 m (4) show NC gr 
 gsave  2268 1434 0 196 C 245.005 1401.65 t 0 r /Helvetica findfont 65.5714 sf 0 0 m (10) show NC gr  390 1492 m -27 X s 390 1528 m -27 X s 390 1553 m -27 X s 2154 425 m 1133 Y s 2127 486 m 27 X s 2127 521 m 27 X s 2127 546 m 27 X s 2127 566 m 27 X s
 2127 582 m 27 X s 2127 595 m 27 X s 2127 607 m 27 X s 2127 617 m 27 X s 2101 626 m 53 X s 2127 687 m 27 X s 2127 722 m 27 X s 2127 748 m 27 X s 2127 767 m 27 X s 2127 783 m 27 X s 2127 797 m 27 X s 2127 808 m 27 X s 2127 819 m 27 X s 2101 828 m 53 X
 s 2127 888 m 27 X s 2127 924 m 27 X s 2127 949 m 27 X s 2127 968 m 27 X s 2127 984 m 27 X s 2127 998 m 27 X s 2127 1010 m 27 X s 2127 1020 m 27 X s 2101 1029 m 53 X s 2127 1090 m 27 X s 2127 1125 m 27 X s 2127 1150 m 27 X s 2127 1170 m 27 X s 2127
 1186 m 27 X s 2127 1199 m 27 X s 2127 1211 m 27 X s 2127 1221 m 27 X s 2101 1230 m 53 X s 2127 1291 m 27 X s 2127 1327 m 27 X s 2127 1352 m 27 X s 2127 1371 m 27 X s 2127 1387 m 27 X s 2127 1401 m 27 X s 2127 1412 m 27 X s 2127 1423 m 27 X s 2101
 1432 m 53 X s 2127 1492 m 27 X s 2127 1528 m 27 X s 2127 1553 m 27 X s 1 0 0 c 6 lw 1 1 1 c black 1 0 0 c 363 425 m 175 X 904 Y 15 X -13 Y 16 X -12 Y 16 X -14 Y 16 X -9 Y 16 X -15 Y 16 X -12 Y 17 X -13 Y 18 X -9 Y 17 X -12 Y 17 X -10 Y 18 X -13 Y 19
 X -16 Y 18 X -11 Y 19 X -9 Y 20 X -9 Y 20 X -12 Y 20 X -12 Y 20 X -10 Y 21 X -11 Y 21 X -13 Y 21 X -16 Y 22 X -15 Y 23 X -19 Y 22 X -9 Y 23 X -11 Y 23 X -13 Y 24 X -17 Y 24 X -29 Y 24 X -23 Y 25 X -17 Y 26 X -11 Y 26 X -17 Y 26 X -21 Y 27 X -40 Y 27
 X 7 Y 27 X -2 Y 29 X -5 Y 28 X -13 Y 29 X -27 Y 30 X -21 Y 30 X -23 Y 30 X 4 Y 31 X -16 Y 32 X -9 Y 32 X -6 Y 33 X -22 Y 33 X -33 Y 34 X -10 Y 34 X -15 Y 35 X 3 Y 35 X -35 Y 36 X -84 Y 37 X 53 Y 37 X -157 Y 281 X s 0 0 1 c 1 1 1 c black 0 0 1 c 363
 425 m 175 X 904 Y 15 X -13 Y 16 X -12 Y 16 X -12 Y 16 X -12 Y 16 X -13 Y 16 X -13 Y 17 X -11 Y 18 X -12 Y 17 X -11 Y 17 X -12 Y 18 X -11 Y 19 X -13 Y 18 X -10 Y 19 X -13 Y 20 X -11 Y 20 X -10 Y 20 X -12 Y 20 X -10 Y 21 X -11 Y 21 X -13 Y 21 X -14 Y
 22 X -14 Y 23 X -15 Y 22 X -14 Y 23 X -18 Y 23 X -16 Y 24 X -18 Y 24 X -17 Y 24 X -18 Y 25 X -19 Y 26 X -18 Y 26 X -16 Y 26 X -13 Y 27 X -10 Y 27 X -16 Y 27 X -14 Y 29 X -15 Y 28 X -15 Y 29 X -14 Y 30 X -14 Y 30 X -15 Y 30 X -15 Y 31 X -15 Y 32 X
 -14 Y 32 X -15 Y 33 X -18 Y 33 X -17 Y 34 X -18 Y 34 X -19 Y 35 X -21 Y 35 X -19 Y 36 X -20 Y 37 X 2 Y 37 X -157 Y 281 X s 0 1 0 c 9 lw 0.95 0.95 0.95 c black 0 1 0 c 477 1383 m 17 -15 d 17 -13 d 17 -14 d 16 -12 d 17 -14 d 17 -12 d 17 -13 d 17 -12 d
 17 -12 d 17 -12 d 16 -11 d 17 -13 d 17 -11 d 17 -11 d 17 -11 d 17 -11 d 17 -12 d 16 -10 d 17 -11 d 17 -11 d 17 -11 d 17 -10 d 17 -10 d 17 -11 d 16 -10 d 17 -10 d 17 -10 d 17 -10 d 17 -10 d 17 -10 d 17 -10 d 16 -10 d 17 -9 d 17 -10 d 17 -10 d 17 -9 d
 17 -10 d 17 -9 d 16 -10 d 17 -9 d 17 -10 d 17 -9 d 17 -9 d 17 -10 d 17 -9 d 16 -9 d 17 -9 d 17 -10 d 17 -9 d s 1303 860 m 17 -9 d 17 -9 d 17 -9 d 16 -10 d 17 -8 d 17 -10 d 17 -9 d 17 -9 d 17 -9 d 17 -9 d 16 -9 d 17 -9 d 17 -9 d 17 -9 d 17 -9 d 17 -9
 d 17 -9 d 16 -9 d 17 -9 d 17 -9 d 17 -9 d 17 -9 d 17 -9 d 17 -9 d 16 -10 d 17 -9 d 17 -9 d 17 -9 d 17 -9 d 17 -9 d 17 -9 d 16 -9 d 17 -9 d 17 -10 d 17 -9 d 17 -9 d 17 -9 d 17 -10 d 16 -9 d 17 -9 d 17 -10 d 17 -9 d 17 -9 d 17 -10 d 17 -9 d 16 -10 d
 17 -9 d 17 -5 d s black 6 lw 1 1 1 c black 3 lw /w 27 def /w2 {w 2 div} def /w3 {w 3 div} def 369 1497 m20 6 lw 3 lw 381 1484 m20 6 lw 3 lw 393 1472 m20 6 lw 3 lw 406 1457 m20 6 lw 3 lw 419 1445 m20 6 lw 3 lw 432 1433 m20 6 lw 3 lw 446 1419 m20 6 lw
 3 lw 459 1405 m20 6 lw 3 lw 473 1395 m20 6 lw 3 lw 487 1378 m20 6 lw 3 lw 501 1368 m20 6 lw 3 lw 516 1356 m20 6 lw 3 lw 531 1340 m20 6 lw 3 lw 546 1330 m20 6 lw 3 lw 561 1314 m20 6 lw 3 lw 577 1306 m20 6 lw 3 lw 593 1286 m20 6 lw 3 lw 609 1278 m20 6
 lw 3 lw 625 1267 m20 6 lw 3 lw 642 1256 m20 6 lw 3 lw 659 1246 m20 6 lw 3 lw 676 1233 m20 6 lw 3 lw 694 1217 m20 6 lw 3 lw 711 1208 m20 6 lw 3 lw 730 1191 m20 6 lw 3 lw 748 1182 m20 6 lw 3 lw 767 1178 m20 6 lw 3 lw 786 1157 m20 6 lw 3 lw 806 1147
 m20 6 lw 3 lw 826 1140 m20 6 lw 3 lw 846 1134 m20 6 lw 3 lw 866 1115 m20 6 lw 3 lw 887 1107 m20 6 lw 3 lw 909 1106 m20 6 lw 3 lw 930 1091 m20 6 lw 3 lw 952 1089 m20 6 lw 3 lw 975 1077 m20 6 lw 986 1065 m s 1009 1065 m s 3 lw 998 1065 m20 6 lw 1009
 1026 m s 1032 1026 m s 3 lw 1021 1026 m20 6 lw 1032 995 m 1 X s 1055 995 m 1 X s 3 lw 1044 995 m20 6 lw 1068 955 m 2 Y s 1068 980 m s 1056 968 m s 1079 968 m 1 X s 3 lw 1068 968 m20 6 lw 1092 951 m 2 Y s 1092 976 m 1 Y s 1080 965 m 1 X s 1104 965 m
 s 3 lw 1092 965 m20 6 lw 1117 972 m 1 Y s 1104 984 m 2 X s 1128 984 m 1 X s 3 lw 1117 984 m20 6 lw 1142 906 m 6 Y s 1142 935 m 3 Y s 1129 924 m 2 X s 1154 924 m 1 X s 3 lw 1142 924 m20 6 lw 1168 880 m 9 Y s 1168 912 m 5 Y s 1155 901 m 1 X s 1179 901
 m 2 X s 3 lw 1168 901 m20 6 lw 1194 876 m 9 Y s 1194 908 m 6 Y s 1181 897 m 1 X s 1205 897 m 2 X s 3 lw 1194 897 m20 6 lw 1220 880 m 9 Y s 1220 912 m 5 Y s 1207 901 m 2 X s 1232 901 m 2 X s 3 lw 1220 901 m20 6 lw 1247 884 m 9 Y s 1247 916 m 5 Y s
 1234 904 m 2 X s 1259 904 m 2 X s 3 lw 1247 904 m20 6 lw 1275 866 m 11 Y s 1275 900 m 6 Y s 1261 888 m 2 X s 1286 888 m 2 X s 3 lw 1275 888 m20 6 lw 1302 814 m 18 Y s 1302 855 m 11 Y s 1288 844 m 3 X s 1314 844 m 3 X s 3 lw 1302 844 m20 6 lw 1331
 794 m 22 Y s 1331 839 m 13 Y s 1317 828 m 2 X s 1342 828 m 3 X s 3 lw 1331 828 m20 6 lw 1360 783 m 24 Y s 1360 830 m 14 Y s 1345 819 m 3 X s 1371 819 m 3 X s 3 lw 1360 819 m20 6 lw 1389 755 m 30 Y s 1389 808 m 17 Y s 1374 797 m 3 X s 1400 797 m 4 X
 s 3 lw 1389 797 m20 6 lw 1419 794 m 22 Y s 1419 839 m 13 Y s 1404 828 m 3 X s 1430 828 m 4 X s 3 lw 1419 828 m20 6 lw 1449 647 m 64 Y s 1449 734 m 28 Y s 1434 722 m 3 X s 1460 722 m 4 X s 3 lw 1449 722 m20 6 lw 1480 715 m 41 Y s 1480 778 m 21 Y s
 1464 767 m 4 X s 1491 767 m 4 X s 3 lw 1480 767 m20 6 lw 1511 647 m 64 Y s 1511 734 m 28 Y s 1495 722 m 5 X s 1522 722 m 5 X s 3 lw 1511 722 m20 6 lw 1543 687 m 49 Y s 1543 759 m 24 Y s 1527 748 m 5 X s 1554 748 m 5 X s 3 lw 1543 748 m20 6 lw 1575
 425 m 190 Y s 1575 638 m 49 Y s 1559 626 m 5 X s 1587 626 m 5 X s 3 lw 1575 626 m20 6 lw 1608 425 m 190 Y s 1608 638 m 49 Y s 1592 626 m 5 X s 1620 626 m 5 X s 3 lw 1608 626 m20 6 lw 1642 647 m 64 Y s 1642 734 m 28 Y s 1625 722 m 5 X s 1653 722 m 6
 X s 3 lw 1642 722 m20 6 lw 1676 687 m 49 Y s 1676 759 m 24 Y s 1659 748 m 5 X s 1687 748 m 6 X s 3 lw 1676 748 m20 6 lw 1745 580 m 96 Y s 1745 698 m 36 Y s 1728 687 m 6 X s 1757 687 m 6 X s 3 lw 1745 687 m20 6 lw 1781 425 m 190 Y s 1781 638 m 49 Y s
 1763 626 m 7 X s 1793 626 m 6 X s 3 lw 1781 626 m20 6 lw 1818 425 m 190 Y s 1818 638 m 49 Y s 1799 626 m 7 X s 1829 626 m 7 X s 3 lw 1818 626 m20 6 lw 1855 580 m 96 Y s 1855 698 m 36 Y s 1836 687 m 7 X s 1866 687 m 7 X s 3 lw 1855 687 m20 6 lw 2050
 425 m 190 Y s 2050 638 m 49 Y s 2030 626 m 9 X s 2061 626 m 9 X s 3 lw 2050 626 m20 6 lw 3 lw 1 1 1 c 680 287 1361 1056 bf black
 gsave  2268 1434 0 196 C 1529.85 1293.4 t 0 r /Helvetica-Bold findfont 39.913 sf 0 0 m (Data) show NC gr  6 lw 1386 1307 m 119 X s 1446 1285 m 43 Y s 3 lw 1446 1307 m20 6 lw
 gsave  2268 1434 0 196 C 1529.85 1219.32 t 0 r /Helvetica-Bold findfont 39.913 sf 0 0 m (Sideband) show NC gr  1 1 1 c 3 lw 1386 1210 m 119 X 50 Y -119 X f 6 lw 1 0 0 c 1386 1235 m 119 X s black
 gsave  2268 1434 0 196 C 1529.85 1148.1 t 0 r /Helvetica-Bold findfont 39.913 sf 0 0 m (Smoothed sideband) show NC gr  0 0 1 c 1386 1164 m 119 X s black
 gsave  2268 1434 0 196 C 1529.85 1076.88 t 0 r /Helvetica-Bold findfont 39.913 sf 0 0 m (fit) show NC gr  0 1 0 c 9 lw 1386 1092 m 119 X s 1 1 1 c black
 gsave  2268 1434 0 196 C 427.334 1561.19 t 0 r /Helvetica findfont 54.1677 sf 0 0 m (mjj_DataLike_QCDDiJetWithQCDDiJetWithQStar3000_1fb) show NC gr  3 lw 1 1 1 c 2268 421 0 0 bf black 1 1 1 c 1793 266 361 151 bf black 1793 266 361 151 bl 1 1 1 c
 1793 266 361 151 bf black 1793 266 361 151 bl 1 0 0 c black 1 0 0 c 361 253 m 176 X 35 Y 15 X -77 Y 15 X 80 Y 16 X -116 Y 16 X 34 Y 16 X 67 Y 17 X 4 Y 17 X 39 Y 17 X -53 Y 17 X -49 Y 18 X 13 Y 18 X -33 Y 18 X 65 Y 19 X 68 Y 19 X -107 Y 19 X -8 Y 20
 X 42 Y 20 X 40 Y 21 X -70 Y 20 X 23 Y 22 X 74 Y 21 X 3 Y 22 X 63 Y 22 X 14 Y 23 X -23 Y 23 X -120 Y 23 X -67 Y 24 X -31 Y 24 X 89 Y 24 X 112 Y 25 X -113 Y 26 X -28 Y 25 X 30 Y 27 X 44 Y 27 X 54 Y 27 X -31 Y 27 X -63 Y 29 X -16 Y 28 X 6 Y 29 X 7 Y 30
 X 52 Y 30 X -79 Y 30 X 36 Y 31 X -24 Y 32 X 27 Y 32 X -89 Y 33 X 24 Y 33 X 81 Y 34 X 18 Y 34 X -47 Y 35 X 19 Y 36 X -14 Y 36 X 20 Y 36 X 12 Y 38 X -37 Y 281 X f black 1 0 0 c black 361 253 m 176 X 35 Y 15 X -77 Y 15 X 80 Y 16 X -116 Y 16 X 34 Y 16 X
 67 Y 17 X 4 Y 17 X 39 Y 17 X -53 Y 17 X -49 Y 18 X 13 Y 18 X -33 Y 18 X 65 Y 19 X 68 Y 19 X -107 Y 19 X -8 Y 20 X 42 Y 20 X 40 Y 21 X -70 Y 20 X 23 Y 22 X 74 Y 21 X 3 Y 22 X 63 Y 22 X 14 Y 23 X -23 Y 23 X -120 Y 23 X -67 Y 24 X -31 Y 24 X 89 Y 24 X
 112 Y 25 X -113 Y 26 X -28 Y 25 X 30 Y 27 X 44 Y 27 X 54 Y 27 X -31 Y 27 X -63 Y 29 X -16 Y 28 X 6 Y 29 X 7 Y 30 X 52 Y 30 X -79 Y 30 X 36 Y 31 X -24 Y 32 X 27 Y 32 X -89 Y 33 X 24 Y 33 X 81 Y 34 X 18 Y 34 X -47 Y 35 X 19 Y 36 X -14 Y 36 X 20 Y 36 X
 12 Y 38 X -37 Y 281 X s 361 151 m 1793 X s
 gsave  2268 421 0 0 C 1888.81 28.4889 t 0 r /Helvetica findfont 65.9455 sf 0 0 m (mjj [GeV]) show NC gr  643 161 m -10 Y s 714 156 m -5 Y s 784 156 m -5 Y s 855 156 m -5 Y s 925 156 m -5 Y s 996 161 m -10 Y s 1066 156 m -5 Y s 1137 156 m -5 Y s 1207
 156 m -5 Y s 1278 156 m -5 Y s 1348 161 m -10 Y s 1419 156 m -5 Y s 1489 156 m -5 Y s 1560 156 m -5 Y s 1631 156 m -5 Y s 1701 161 m -10 Y s 1772 156 m -5 Y s 1842 156 m -5 Y s 1913 156 m -5 Y s 1983 156 m -5 Y s 2054 161 m -10 Y s 643 161 m -10 Y s
 573 156 m -5 Y s 502 156 m -5 Y s 432 156 m -5 Y s 361 156 m -5 Y s 2054 161 m -10 Y s 2124 156 m -5 Y s
 gsave  2268 421 0 0 C 575.476 99.7112 t 0 r /Helvetica findfont 60.2112 sf 0 0 m (2000) show NC gr 
 gsave  2268 421 0 0 C 928.738 99.7112 t 0 r /Helvetica findfont 60.2112 sf 0 0 m (3000) show NC gr 
 gsave  2268 421 0 0 C 1282 99.7112 t 0 r /Helvetica findfont 60.2112 sf 0 0 m (4000) show NC gr 
 gsave  2268 421 0 0 C 1635.26 99.7112 t 0 r /Helvetica findfont 60.2112 sf 0 0 m (5000) show NC gr 
 gsave  2268 421 0 0 C 1985.68 99.7112 t 0 r /Helvetica findfont 60.2112 sf 0 0 m (6000) show NC gr  361 417 m 1793 X s 643 407 m 10 Y s 714 412 m 5 Y s 784 412 m 5 Y s 855 412 m 5 Y s 925 412 m 5 Y s 996 407 m 10 Y s 1066 412 m 5 Y s 1137 412 m 5 Y
 s 1207 412 m 5 Y s 1278 412 m 5 Y s 1348 407 m 10 Y s 1419 412 m 5 Y s 1489 412 m 5 Y s 1560 412 m 5 Y s 1631 412 m 5 Y s 1701 407 m 10 Y s 1772 412 m 5 Y s 1842 412 m 5 Y s 1913 412 m 5 Y s 1983 412 m 5 Y s 2054 407 m 10 Y s 643 407 m 10 Y s 573
 412 m 5 Y s 502 412 m 5 Y s 432 412 m 5 Y s 361 412 m 5 Y s 2054 407 m 10 Y s 2124 412 m 5 Y s 361 151 m 266 Y s
 gsave  2268 421 0 0 C 159.538 96.8623 t 90 r /Helvetica findfont 60.2112 sf 0 0 m (Significance) show NC gr  404 180 m -43 X s 382 187 m -21 X s 382 194 m -21 X s 382 202 m -21 X s 382 209 m -21 X s 404 216 m -43 X s 382 224 m -21 X s 382 231 m -21
 X s 382 239 m -21 X s 382 246 m -21 X s 404 253 m -43 X s 382 261 m -21 X s 382 268 m -21 X s 382 275 m -21 X s 382 283 m -21 X s 404 290 m -43 X s 382 297 m -21 X s 382 305 m -21 X s 382 312 m -21 X s 382 320 m -21 X s 404 327 m -43 X s 382 334 m
 -21 X s 382 342 m -21 X s 382 349 m -21 X s 382 356 m -21 X s 404 364 m -43 X s 382 371 m -21 X s 382 379 m -21 X s 382 386 m -21 X s 382 393 m -21 X s 404 401 m -43 X s 404 180 m -43 X s 382 172 m -21 X s 382 165 m -21 X s 382 157 m -21 X s 404 401
 m -43 X s 382 408 m -21 X s 382 415 m -21 X s
 gsave  2268 421 0 0 C 330.471 168.085 t 0 r /Helvetica findfont 28.672 sf 0 0 m (2) show NC gr 
 gsave  2268 421 0 0 C 313.378 168.085 t 0 r /Symbol findfont 28.672 sf 0 0 m (-) show NC gr 
 gsave  2268 421 0 0 C 336.169 202.271 t 0 r /Helvetica findfont 28.672 sf 0 0 m (1) show NC gr 
 gsave  2268 421 0 0 C 319.076 202.271 t 0 r /Symbol findfont 28.672 sf 0 0 m (-) show NC gr 
 gsave  2268 421 0 0 C 330.471 242.156 t 0 r /Helvetica findfont 28.672 sf 0 0 m (0) show NC gr 
 gsave  2268 421 0 0 C 336.169 276.342 t 0 r /Helvetica findfont 28.672 sf 0 0 m (1) show NC gr 
 gsave  2268 421 0 0 C 330.471 313.378 t 0 r /Helvetica findfont 28.672 sf 0 0 m (2) show NC gr 
 gsave  2268 421 0 0 C 330.471 353.262 t 0 r /Helvetica findfont 28.672 sf 0 0 m (3) show NC gr 
 gsave  2268 421 0 0 C 330.471 387.449 t 0 r /Helvetica findfont 28.672 sf 0 0 m (4) show NC gr  2154 151 m 266 Y s 2111 180 m 43 X s 2133 187 m 21 X s 2133 194 m 21 X s 2133 202 m 21 X s 2133 209 m 21 X s 2111 216 m 43 X s 2133 224 m 21 X s 2133 231
 m 21 X s 2133 239 m 21 X s 2133 246 m 21 X s 2111 253 m 43 X s 2133 261 m 21 X s 2133 268 m 21 X s 2133 275 m 21 X s 2133 283 m 21 X s 2111 290 m 43 X s 2133 297 m 21 X s 2133 305 m 21 X s 2133 312 m 21 X s 2133 320 m 21 X s 2111 327 m 43 X s 2133
 334 m 21 X s 2133 342 m 21 X s 2133 349 m 21 X s 2133 356 m 21 X s 2111 364 m 43 X s 2133 371 m 21 X s 2133 379 m 21 X s 2133 386 m 21 X s 2133 393 m 21 X s 2111 401 m 43 X s 2111 180 m 43 X s 2133 172 m 21 X s 2133 165 m 21 X s 2133 157 m 21 X s
 2111 401 m 43 X s 2133 408 m 21 X s 2133 415 m 21 X s 0 0 1 c 1 1 1 c black 0 0 1 c 361 253 m 176 X 35 Y 15 X -77 Y 15 X 80 Y 16 X -140 Y 16 X 64 Y 16 X 43 Y 17 X 22 Y 17 X 8 Y 17 X -13 Y 17 X -58 Y 18 X 34 Y 18 X -54 Y 18 X 36 Y 19 X 65 Y 19 X -75
 Y 19 X 9 Y 20 X 25 Y 20 X 40 Y 21 X -70 Y 20 X 23 Y 22 X 74 Y 21 X -6 Y 22 X 59 Y 22 X 1 Y 23 X -1 Y 23 X -98 Y 23 X -54 Y 24 X -27 Y 24 X 47 Y 24 X 100 Y 25 X -109 Y 26 X -10 Y 25 X 27 Y 27 X 31 Y 27 X 22 Y 27 X -4 Y 27 X -49 Y 29 X -2 Y 28 X 8 Y
 29 X -10 Y 30 X 48 Y 30 X -92 Y 30 X 58 Y 31 X -25 Y 32 X 31 Y 32 X -77 Y 33 X 18 Y 33 X 69 Y 34 X 21 Y 34 X -47 Y 35 X 28 Y 36 X -18 Y 36 X 5 Y 36 X 22 Y 38 X -37 Y 281 X s 0 1 0 c 1 1 1 c black 0 1 0 c 361 253 m 176 X 79 Y 15 X -113 Y 15 X 77 Y 16
 X -145 Y 16 X 69 Y 16 X 15 Y 17 X 15 Y 17 X 22 Y 17 X -12 Y 17 X -45 Y 18 X 32 Y 18 X -49 Y 18 X 34 Y 19 X 81 Y 19 X -80 Y 19 X 22 Y 20 X 40 Y 20 X 42 Y 21 X -49 Y 20 X 28 Y 22 X 66 Y 21 X -18 Y 22 X 47 Y 22 X -7 Y 23 X -7 Y 23 X -113 Y 23 X -63 Y
 24 X -43 Y 24 X 38 Y 24 X 100 Y 25 X -129 Y 26 X -17 Y 25 X 31 Y 27 X 43 Y 27 X 36 Y 27 X -4 Y 27 X -50 Y 29 X 2 Y 28 X 11 Y 29 X -7 Y 30 X 55 Y 30 X -95 Y 30 X 64 Y 31 X -24 Y 32 X 34 Y 32 X -76 Y 33 X 19 Y 33 X 70 Y 34 X 21 Y 34 X -47 Y 35 X 28 Y
 36 X -19 Y 36 X 6 Y 36 X 25 Y 38 X -40 Y 281 X s
 gr  gr showpage
end
%%EOF
