%!PS-Adobe-2.0 EPSF-2.0
%%BoundingBox:  0 0 567 407
%%Title: /afs/cern.ch/user/g/gkoren/DijetAlgo/trunk/TLA/Plots/WindowPvalsQStar3500.eps: p-values
%%Creator: ROOT Version 6.02/12
%%CreationDate: Thu Sep 17 15:02:25 2015
%%EndComments
%%BeginProlog
80 dict begin
/s {stroke} def /l {lineto} def /m {moveto} def /t {translate} def
/r {rotate} def /rl {roll}  def /R {repeat} def
/d {rlineto} def /rm {rmoveto} def /gr {grestore} def /f {eofill} def
/c {setrgbcolor} def /black {0 setgray} def /sd {setdash} def
/cl {closepath} def /sf {scalefont setfont} def /lw {setlinewidth} def
/box {m dup 0 exch d exch 0 d 0 exch neg d cl} def
/NC{systemdict begin initclip end}def/C{NC box clip newpath}def
/bl {box s} def /bf {gsave box gsave f grestore 1 lw [] 0 sd s grestore} def /Y { 0 exch d} def /X { 0 d} def 
/K {{pop pop 0 moveto} exch kshow} bind def
/ita {/ang 15 def gsave [1 0 ang dup sin exch cos div 1 0 0] concat} def 
/mp {newpath /y exch def /x exch def} def
/side {[w .77 mul w .23 mul] .385 w mul sd w 0 l currentpoint t -144 r} def
/mr {mp x y w2 0 360 arc} def /m24 {mr s} def /m20 {mr f} def
/mb {mp x y w2 add m w2 neg 0 d 0 w neg d w 0 d 0 w d cl} def
/mt {mp x y w2 add m w2 neg w neg d w 0 d cl} def
/m21 {mb f} def /m25 {mb s} def /m22 {mt f} def /m26{mt s} def
/m23 {mp x y w2 sub m w2 w d w neg 0 d cl f} def
/m27 {mp x y w2 add m w3 neg w2 neg d w3 w2 neg d w3 w2 d cl s} def
/m28 {mp x w2 sub y w2 sub w3 add m w3 0 d  0 w3 neg d w3 0 d 0 w3 d w3 0 d  0 w3 d w3 neg 0 d 0 w3 d w3 neg 0 d 0 w3 neg d w3 neg 0 d cl s } def
/m29 {mp gsave x w2 sub y w2 add w3 sub m currentpoint t 4 {side} repeat cl fill gr} def
/m30 {mp gsave x w2 sub y w2 add w3 sub m currentpoint t 4 {side} repeat cl s gr} def
/m31 {mp x y w2 sub m 0 w d x w2 sub y m w 0 d x w2 sub y w2 add m w w neg d x w2 sub y w2 sub m w w d s} def
/m32 {mp x y w2 sub m w2 w d w neg 0 d cl s} def
/m33 {mp x y w2 add m w3 neg w2 neg d w3 w2 neg d w3 w2 d cl f} def
/m34 {mp x w2 sub y w2 sub w3 add m w3 0 d  0 w3 neg d w3 0 d 0 w3 d w3 0 d  0 w3 d w3 neg 0 d 0 w3 d w3 neg 0 d 0 w3 neg d w3 neg 0 d cl f } def
/m2 {mp x y w2 sub m 0 w d x w2 sub y m w 0 d s} def
/m5 {mp x w2 sub y w2 sub m w w d x w2 sub y w2 add m w w neg d s} def
/reEncode {exch findfont dup length dict begin {1 index /FID eq  {pop pop} {def} ifelse } forall /Encoding exch def currentdict end dup /FontName get exch definefont pop } def [/Times-Bold /Times-Italic /Times-BoldItalic /Helvetica /Helvetica-Oblique
 /Helvetica-Bold /Helvetica-BoldOblique /Courier /Courier-Oblique /Courier-Bold /Courier-BoldOblique /Times-Roman /AvantGarde-Book /AvantGarde-BookOblique /AvantGarde-Demi /AvantGarde-DemiOblique /Bookman-Demi /Bookman-DemiItalic /Bookman-Light
 /Bookman-LightItalic /Helvetica-Narrow /Helvetica-Narrow-Bold /Helvetica-Narrow-BoldOblique /Helvetica-Narrow-Oblique /NewCenturySchlbk-Roman /NewCenturySchlbk-Bold /NewCenturySchlbk-BoldItalic /NewCenturySchlbk-Italic /Palatino-Bold
 /Palatino-BoldItalic /Palatino-Italic /Palatino-Roman ] {ISOLatin1Encoding reEncode } forall
%%EndProlog
%%BeginSetup
%%EndSetup
newpath  gsave  .25 .25 scale  gsave  0 0 t black[  ] 0 sd 3 lw 1 1 1 c 2268 1630 0 0 bf black 1 1 1 c 1791 1287 363 261 bf black 1791 1287 363 261 bl 1 1 1 c 1791 1287 363 261 bf black 1791 1287 363 261 bl 363 261 m 1791 X s
 gsave  2268 1630 0 0 C 1883.12 153.84 t 0 r /Helvetica findfont 54.1289 sf 0 0 m ( m\(jj\) [GeV]) show NC gr  393 299 m -38 Y s 435 280 m -19 Y s 476 280 m -19 Y s 518 280 m -19 Y s 559 280 m -19 Y s 601 299 m -38 Y s 642 280 m -19 Y s 684 280 m -19
 Y s 725 280 m -19 Y s 767 280 m -19 Y s 808 299 m -38 Y s 850 280 m -19 Y s 891 280 m -19 Y s 933 280 m -19 Y s 974 280 m -19 Y s 1016 299 m -38 Y s 1057 280 m -19 Y s 1099 280 m -19 Y s 1140 280 m -19 Y s 1182 280 m -19 Y s 1223 299 m -38 Y s 1264
 280 m -19 Y s 1306 280 m -19 Y s 1347 280 m -19 Y s 1389 280 m -19 Y s 1430 299 m -38 Y s 1472 280 m -19 Y s 1513 280 m -19 Y s 1555 280 m -19 Y s 1596 280 m -19 Y s 1638 299 m -38 Y s 1679 280 m -19 Y s 1721 280 m -19 Y s 1762 280 m -19 Y s 1804
 280 m -19 Y s 1845 299 m -38 Y s 1887 280 m -19 Y s 1928 280 m -19 Y s 1970 280 m -19 Y s 2011 280 m -19 Y s 2053 299 m -38 Y s 393 299 m -38 Y s 2053 299 m -38 Y s 2094 280 m -19 Y s 2136 280 m -19 Y s
 gsave  2268 1630 0 0 C 333.32 207.969 t 0 r /Helvetica findfont 54.1289 sf 0 0 m (1500) show NC gr 
 gsave  2268 1630 0 0 C 538.44 207.969 t 0 r /Helvetica findfont 54.1289 sf 0 0 m (2000) show NC gr 
 gsave  2268 1630 0 0 C 746.409 207.969 t 0 r /Helvetica findfont 54.1289 sf 0 0 m (2500) show NC gr 
 gsave  2268 1630 0 0 C 954.378 207.969 t 0 r /Helvetica findfont 54.1289 sf 0 0 m (3000) show NC gr 
 gsave  2268 1630 0 0 C 1162.35 207.969 t 0 r /Helvetica findfont 54.1289 sf 0 0 m (3500) show NC gr 
 gsave  2268 1630 0 0 C 1370.32 207.969 t 0 r /Helvetica findfont 54.1289 sf 0 0 m (4000) show NC gr 
 gsave  2268 1630 0 0 C 1575.44 207.969 t 0 r /Helvetica findfont 54.1289 sf 0 0 m (4500) show NC gr 
 gsave  2268 1630 0 0 C 1783.41 207.969 t 0 r /Helvetica findfont 54.1289 sf 0 0 m (5000) show NC gr 
 gsave  2268 1630 0 0 C 1991.37 207.969 t 0 r /Helvetica findfont 54.1289 sf 0 0 m (5500) show NC gr  363 1548 m 1791 X s 393 1509 m 39 Y s 435 1529 m 19 Y s 476 1529 m 19 Y s 518 1529 m 19 Y s 559 1529 m 19 Y s 601 1509 m 39 Y s 642 1529 m 19 Y s
 684 1529 m 19 Y s 725 1529 m 19 Y s 767 1529 m 19 Y s 808 1509 m 39 Y s 850 1529 m 19 Y s 891 1529 m 19 Y s 933 1529 m 19 Y s 974 1529 m 19 Y s 1016 1509 m 39 Y s 1057 1529 m 19 Y s 1099 1529 m 19 Y s 1140 1529 m 19 Y s 1182 1529 m 19 Y s 1223 1509
 m 39 Y s 1264 1529 m 19 Y s 1306 1529 m 19 Y s 1347 1529 m 19 Y s 1389 1529 m 19 Y s 1430 1509 m 39 Y s 1472 1529 m 19 Y s 1513 1529 m 19 Y s 1555 1529 m 19 Y s 1596 1529 m 19 Y s 1638 1509 m 39 Y s 1679 1529 m 19 Y s 1721 1529 m 19 Y s 1762 1529 m
 19 Y s 1804 1529 m 19 Y s 1845 1509 m 39 Y s 1887 1529 m 19 Y s 1928 1529 m 19 Y s 1970 1529 m 19 Y s 2011 1529 m 19 Y s 2053 1509 m 39 Y s 393 1509 m 39 Y s 2053 1509 m 39 Y s 2094 1529 m 19 Y s 2136 1529 m 19 Y s 363 261 m 1287 Y s
 gsave  2268 1630 0 0 C 247.853 1358.92 t 90 r /Helvetica findfont 54.1289 sf 0 0 m ( p\255value) show NC gr  390 286 m -27 X s 390 324 m -27 X s 390 357 m -27 X s 390 386 m -27 X s 417 411 m -54 X s
 gsave  2268 1630 0 0 C 324.773 413.089 t 0 r /Helvetica findfont 34.1867 sf 0 0 m (2) show NC gr 
 gsave  2268 1630 0 0 C 304.831 413.089 t 0 r /Symbol findfont 34.1867 sf 0 0 m (-) show NC gr 
 gsave  2268 1630 0 0 C 245.005 387.449 t 0 r /Helvetica findfont 54.1289 sf 0 0 m (10) show NC gr  390 581 m -27 X s 390 680 m -27 X s 390 750 m -27 X s 390 805 m -27 X s 390 850 m -27 X s 390 887 m -27 X s 390 920 m -27 X s 390 949 m -27 X s 417
 974 m -54 X s
 gsave  2268 1630 0 0 C 330.471 977.169 t 0 r /Helvetica findfont 34.1867 sf 0 0 m (1) show NC gr 
 gsave  2268 1630 0 0 C 310.529 977.169 t 0 r /Symbol findfont 34.1867 sf 0 0 m (-) show NC gr 
 gsave  2268 1630 0 0 C 250.702 951.529 t 0 r /Helvetica findfont 54.1289 sf 0 0 m (10) show NC gr  390 1144 m -27 X s 390 1243 m -27 X s 390 1313 m -27 X s 390 1368 m -27 X s 390 1413 m -27 X s 390 1450 m -27 X s 390 1483 m -27 X s 390 1512 m -27 X
 s 417 1537 m -54 X s
 gsave  2268 1630 0 0 C 345.146 1514.67 t 0 r  -29 0 t /Helvetica findfont 54.1289 sf 0 0 m (1) show NC gr  2154 261 m 1287 Y s 2127 286 m 27 X s 2127 324 m 27 X s 2127 357 m 27 X s 2127 386 m 27 X s 2101 411 m 53 X s 2127 581 m 27 X s 2127 680 m 27
 X s 2127 750 m 27 X s 2127 805 m 27 X s 2127 850 m 27 X s 2127 887 m 27 X s 2127 920 m 27 X s 2127 949 m 27 X s 2101 974 m 53 X s 2127 1144 m 27 X s 2127 1243 m 27 X s 2127 1313 m 27 X s 2127 1368 m 27 X s 2127 1413 m 27 X s 2127 1450 m 27 X s 2127
 1483 m 27 X s 2127 1512 m 27 X s 2101 1537 m 53 X s 1 0 0 c 9 lw black 1 0 0 c 512 935 m 19 -38 d 18 -201 d 20 268 d 19 -103 d 20 266 d 20 72 d 21 74 d 21 -53 d 21 -241 d 21 96 d 22 -17 d 23 -21 d 23 -26 d 23 -157 d 23 161 d 24 16 d 25 -54 d 25 -73
 d 25 X 26 332 d 26 129 d 27 -26 d 27 -37 d 27 4 d 28 -199 d 28 -105 d 29 -387 d 29 -329 d 30 38 d 31 444 d 31 733 d 31 17 d 32 7 d 33 -149 d 33 -45 d 34 -2 d 34 16 d 35 35 d 35 12 d 36 21 d 36 22 d 38 -283 d 38 21 d 38 -56 d 39 209 d 40 -117 d 40
 -87 d 41 92 d 42 -9 d 43 154 d 43 -204 d s 3 lw /w 2 def /w2 {w 2 div} def /w3 {w 3 div} def 512 935 531 897 549 696 569 964 588 861 608 1127 628 1199 649 1273 670 1220 691 979 712 1075 734 1058 757 1037 780 1011 803 854 826 1015 850 1031 875 977
 900 904 925 904 951 1236 977 1365 1004 1339 1031 1302 1058 1306 1086 1107 1114 1002 1143 615 1172 286 1202 324 1233 768 1264 1501 1295 1518 1327 1525 1360 1376 1393 1331 1427 1329 1461 1345 1496 1380 1531 1392 1567 1413 1603 1435 1641 1152 1679 1173
 1717 1117 1756 1326 1796 1209 1836 1122 1877 1214 1919 1205 1962 1359 2005 1155 52 { m20} R 9 lw 0 1 0 c black 0 1 0 c 512 774 m 19 X 18 -159 d 20 412 d 19 -73 d 20 270 d 20 62 d 21 -43 d 21 -165 d 21 -191 d 21 80 d 22 54 d 23 34 d 23 -11 d 23 -140
 d 23 144 d 24 -62 d 25 23 d 25 -86 d 25 54 d 26 237 d 26 188 d 27 -60 d 27 -24 d 27 25 d 28 -125 d 28 -98 d 29 -475 d 29 -288 d 30 29 d 31 370 d 31 684 d 31 63 d 32 -5 d 33 -17 d 33 -230 d 34 -5 d 34 5 d 35 222 d 35 -68 d 36 -5 d 36 -148 d 38 -31 d
 38 -18 d 38 154 d 39 76 d 40 -348 d 40 -43 d 41 55 d 42 317 d 43 -125 d 43 -195 d s 0 0 1 c black 0 0 1 c 512 774 m 19 X 18 -159 d 20 412 d 19 -73 d 20 270 d 20 -61 d 21 -179 d 21 -90 d 21 -126 d 21 211 d 22 -15 d 23 15 d 23 -12 d 23 -217 d 23 190 d
 24 -36 d 25 271 d 25 -298 d 25 95 d 26 67 d 26 425 d 27 -30 d 27 10 d 27 18 d 28 -233 d 28 -109 d 29 -516 d 29 765 d 30 -1045 d 31 407 d 31 770 d 31 32 d 32 -3 d 33 -16 d 33 -298 d 34 -29 d 34 -13 d 35 267 d 35 -40 d 36 -37 d 36 -128 d 38 20 d 38
 -10 d 38 116 d 39 130 d 40 -401 d 40 -2 d 41 22 d 42 331 d 43 8 d 43 -488 d s black 3 lw 1 1 1 c 340 244 1814 1304 bf black
 gsave  2268 1630 0 0 C 1897.36 1498.52 t 0 r /Helvetica-Bold findfont 28.4889 sf 0 0 m (SideBands Fit) show NC gr  0 0 1 c 9 lw 1827 1507 m 59 X s black
 gsave  2268 1630 0 0 C 1897.36 1415.9 t 0 r /Helvetica-Bold findfont 28.4889 sf 0 0 m (Smoothed Fit) show NC gr  0 1 0 c 1827 1426 m 59 X s black
 gsave  2268 1630 0 0 C 1897.36 1333.28 t 0 r /Helvetica-Bold findfont 28.4889 sf 0 0 m (Global Fit) show NC gr  1 0 0 c 1827 1344 m 59 X s 1 1 1 c black
 gsave  2268 1630 0 0 C 829.027 1549.8 t 0 r /Helvetica findfont 79.7689 sf 0 0 m (Window p\255values) show NC gr 
 gr  gr showpage
end
%%EOF
