Error in <TGClient::TGClient>: can't open display "", switching to batch mode...
 In case you run from a remote ssh session, reconnect with ssh -Y
Info in <TCanvas::Print>: pdf file /afs/cern.ch/user/b/boveia/work/zprimeb/CouplingLimit/outputDir/Zprime_basicHistos_MCValidation.pdf has been created
[?1034h/afs/cern.ch/user/b/boveia/work/zprimeb/CouplingLimit/outputDir/output_1200.root entries: 7039.0
 FCN=0.0163382 FROM HESSE     STATUS=OK             31 CALLS         602 TOTAL
                     EDM=1.36168e-06    STRATEGY= 1      ERROR MATRIX ACCURATE 
  EXT PARAMETER                                   STEP         FIRST   
  NO.   NAME      VALUE            ERROR          SIZE      DERIVATIVE 
   1  p0           8.06255e-01   5.30211e+00   1.07145e-04  -7.48253e-06
   2  p1           4.11020e-01   2.26858e+00   7.29773e-05  -2.50767e-05
   3  p2           1.19410e+03   9.67073e+01   1.04674e-05   1.29816e-02
   4  p3           6.12873e+00   3.26043e+02   1.04827e-04   8.94745e-04
   5  p4           8.17980e-01   3.94537e+00   8.14624e-05   1.87778e-04
Info in <TCanvas::Print>: png file /afs/cern.ch/user/b/boveia/work/zprimeb/CouplingLimit/outputDir/h_cuts1200.png has been created
Info in <TCanvas::Print>: Current canvas added to pdf file /afs/cern.ch/user/b/boveia/work/zprimeb/CouplingLimit/outputDir/Zprime_basicHistos_MCValidation.pdf
1194.09555213 6.12873420911 1175.7093495 1212.48175475
Mass|Efficiency: 1200 0.582895297628
width(%)|detector resolution(%): 0.00510727850759|0.0284511817619
Resolution<Detector
Mass|couplingLimit: 1200|2.92120353016
Signal mass | N_events total | N_events passing hard cuts | N_events within Gaussian mean +/- 3 sigma | Gaussian mean | Gaussian width | alpha | power
1200 16528.0 7039.0 4103.0 1194.09555213 6.12873420911 0.411020344645 0.806255487717
writing coupling results to limit
COUPLINGRESULT: 1200 2.92120353016

/afs/cern.ch/user/b/boveia/work/zprimeb/CouplingLimit/outputDir/output_1250.root entries: 8050.0
 FCN=0.0121722 FROM HESSE     STATUS=OK             31 CALLS        1367 TOTAL
                     EDM=8.93257e-08    STRATEGY= 1      ERROR MATRIX ACCURATE 
  EXT PARAMETER                                   STEP         FIRST   
  NO.   NAME      VALUE            ERROR          SIZE      DERIVATIVE 
   1  p0           7.30333e-01   8.36194e+00   1.28049e-04  -6.28203e-05
   2  p1           5.46520e-01   2.52392e+00   8.19550e-05  -1.04748e-04
   3  p2           1.24146e+03   1.20844e+02   2.14522e-05   1.15405e-03
   4  p3           1.37696e+01   2.60568e+02   3.18603e-05  -7.54453e-04
   5  p4           4.79235e-01   1.29834e+00   4.76241e-05   3.12531e-04
Info in <TCanvas::Print>: png file /afs/cern.ch/user/b/boveia/work/zprimeb/CouplingLimit/outputDir/h_cuts1250.png has been created
Info in <TCanvas::Print>: Current canvas added to pdf file /afs/cern.ch/user/b/boveia/work/zprimeb/CouplingLimit/outputDir/Zprime_basicHistos_MCValidation.pdf
1241.45902418 13.7695840666 1200.15027198 1282.76777638
Mass|Efficiency: 1250 0.603850931677
width(%)|detector resolution(%): 0.0110156672533|0.0280399451324
Resolution<Detector
Mass|couplingLimit: 1250|2.70318610612
Signal mass | N_events total | N_events passing hard cuts | N_events within Gaussian mean +/- 3 sigma | Gaussian mean | Gaussian width | alpha | power
1250 17625.0 8050.0 4861.0 1241.45902418 13.7695840666 0.546519792225 0.730332925187
writing coupling results to limit
COUPLINGRESULT: 1200 2.92120353016

COUPLINGRESULT: 1250 2.70318610612

/afs/cern.ch/user/b/boveia/work/zprimeb/CouplingLimit/outputDir/output_1300.root entries: 9110.0
 FCN=0.0126624 FROM HESSE     STATUS=OK             31 CALLS         696 TOTAL
                     EDM=4.89598e-05    STRATEGY= 1      ERROR MATRIX ACCURATE 
  EXT PARAMETER                                   STEP         FIRST   
  NO.   NAME      VALUE            ERROR          SIZE      DERIVATIVE 
   1  p0           6.79159e-01   5.40708e+00   1.49472e-05   5.16553e-05
   2  p1           5.03236e-01   2.55281e+00   1.36982e-05   3.22998e-04
   3  p2           1.29356e+03   3.70686e+02   3.15713e-06   8.86549e-04
   4  p3           7.62180e+00   2.32896e+02   9.25723e-06   6.22195e-04
   5  p4           5.83772e-01   4.12283e+00   1.16164e-05   2.75968e-04
Info in <TCanvas::Print>: png file /afs/cern.ch/user/b/boveia/work/zprimeb/CouplingLimit/outputDir/h_cuts1300.png has been created
Info in <TCanvas::Print>: Current canvas added to pdf file /afs/cern.ch/user/b/boveia/work/zprimeb/CouplingLimit/outputDir/Zprime_basicHistos_MCValidation.pdf
1293.56217538 7.62180108992 1270.69677211 1316.42757865
Mass|Efficiency: 1300 0.409110867179
width(%)|detector resolution(%): 0.00586292391533|0.0276508475334
Resolution<Detector
Mass|couplingLimit: 1300|3.31426834346
Signal mass | N_events total | N_events passing hard cuts | N_events within Gaussian mean +/- 3 sigma | Gaussian mean | Gaussian width | alpha | power
1300 18950.0 9110.0 3727.0 1293.56217538 7.62180108992 0.503235769293 0.679158869184
writing coupling results to limit
COUPLINGRESULT: 1200 2.92120353016

COUPLINGRESULT: 1250 2.70318610612

COUPLINGRESULT: 1300 3.31426834346

/afs/cern.ch/user/b/boveia/work/zprimeb/CouplingLimit/outputDir/output_1350.root entries: 9751.0
 FCN=0.0150935 FROM HESSE     STATUS=OK             31 CALLS         510 TOTAL
                     EDM=1.65475e-06    STRATEGY= 1      ERROR MATRIX ACCURATE 
  EXT PARAMETER                                   STEP         FIRST   
  NO.   NAME      VALUE            ERROR          SIZE      DERIVATIVE 
   1  p0           7.12330e-01   9.39171e+00   1.23440e-05  -2.48101e-03
   2  p1           4.66400e-01   1.95875e+00   1.23802e-05  -2.40253e-03
   3  p2           1.34310e+03   7.23419e+01   2.87239e-06  -3.82835e-03
   4  p3           6.94111e+00   2.71353e+02   2.63129e-05   7.90338e-04
   5  p4           5.65704e-01   4.45262e+00   1.11551e-05   1.72890e-03
Info in <TCanvas::Print>: png file /afs/cern.ch/user/b/boveia/work/zprimeb/CouplingLimit/outputDir/h_cuts1350.png has been created
Info in <TCanvas::Print>: Current canvas added to pdf file /afs/cern.ch/user/b/boveia/work/zprimeb/CouplingLimit/outputDir/Zprime_basicHistos_MCValidation.pdf
1343.0984236 6.94111455856 1322.27507993 1363.92176728
Mass|Efficiency: 1350 0.451338324274
width(%)|detector resolution(%): 0.00514156633968|0.0272827410675
Resolution<Detector
Mass|couplingLimit: 1350|3.26547280952
Signal mass | N_events total | N_events passing hard cuts | N_events within Gaussian mean +/- 3 sigma | Gaussian mean | Gaussian width | alpha | power
1350 20105.0 9751.0 4401.0 1343.0984236 6.94111455856 0.466400147151 0.712330271277
writing coupling results to limit
COUPLINGRESULT: 1200 2.92120353016

COUPLINGRESULT: 1250 2.70318610612

COUPLINGRESULT: 1300 3.31426834346

COUPLINGRESULT: 1350 3.26547280952

/afs/cern.ch/user/b/boveia/work/zprimeb/CouplingLimit/outputDir/output_1400.root entries: 10484.0
 FCN=0.0100406 FROM HESSE     STATUS=OK             31 CALLS        1183 TOTAL
                     EDM=1.37379e-06    STRATEGY= 1      ERROR MATRIX ACCURATE 
  EXT PARAMETER                                   STEP         FIRST   
  NO.   NAME      VALUE            ERROR          SIZE      DERIVATIVE 
   1  p0           8.66389e-01   7.47316e+00   7.09191e-05  -4.64756e-04
   2  p1           3.97642e-01   3.24233e+00   5.83734e-05   1.02014e-03
   3  p2           1.39435e+03   4.24251e+02   2.42101e-05   1.85544e-03
   4  p3           1.15275e+01   4.02568e+02   3.29125e-05   2.81542e-03
   5  p4           4.00456e-01   1.10437e+00   3.96536e-05   1.57485e-03
Info in <TCanvas::Print>: png file /afs/cern.ch/user/b/boveia/work/zprimeb/CouplingLimit/outputDir/h_cuts1400.png has been created
Info in <TCanvas::Print>: Current canvas added to pdf file /afs/cern.ch/user/b/boveia/work/zprimeb/CouplingLimit/outputDir/Zprime_basicHistos_MCValidation.pdf
1394.35160123 11.5274811669 1359.76915773 1428.93404474
Mass|Efficiency: 1400 0.487504769172
width(%)|detector resolution(%): 0.00823391511922|0.0269345237671
Resolution<Detector
Mass|couplingLimit: 1400|3.29335188073
Signal mass | N_events total | N_events passing hard cuts | N_events within Gaussian mean +/- 3 sigma | Gaussian mean | Gaussian width | alpha | power
1400 21141.0 10484.0 5111.0 1394.35160123 11.5274811669 0.39764189697 0.866389173399
writing coupling results to limit
COUPLINGRESULT: 1200 2.92120353016

COUPLINGRESULT: 1250 2.70318610612

COUPLINGRESULT: 1300 3.31426834346

COUPLINGRESULT: 1350 3.26547280952

COUPLINGRESULT: 1400 3.29335188073

/afs/cern.ch/user/b/boveia/work/zprimeb/CouplingLimit/outputDir/output_1450.root entries: 10792.0
 FCN=0.0117692 FROM HESSE     STATUS=OK             31 CALLS         641 TOTAL
                     EDM=4.43451e-06    STRATEGY= 1      ERROR MATRIX ACCURATE 
  EXT PARAMETER                                   STEP         FIRST   
  NO.   NAME      VALUE            ERROR          SIZE      DERIVATIVE 
   1  p0           8.27731e-01   8.71032e+00   5.20807e-05   9.79035e-04
   2  p1           3.80030e-01   2.43359e+00   5.44485e-05   1.06071e-03
   3  p2           1.44352e+03   4.24181e+02   1.51806e-05   3.47341e-03
   4  p3           7.29196e+00   3.98478e+02   3.59945e-05  -1.19026e-05
   5  p4           4.94612e-01   2.04286e+00   4.89877e-05  -6.98046e-04
Info in <TCanvas::Print>: png file /afs/cern.ch/user/b/boveia/work/zprimeb/CouplingLimit/outputDir/h_cuts1450.png has been created
Info in <TCanvas::Print>: Current canvas added to pdf file /afs/cern.ch/user/b/boveia/work/zprimeb/CouplingLimit/outputDir/Zprime_basicHistos_MCValidation.pdf
1443.52225289 7.29195863749 1421.64637698 1465.39812881
Mass|Efficiency: 1450 0.349888806523
width(%)|detector resolution(%): 0.00502893699137|0.0266051383988
Resolution<Detector
Mass|couplingLimit: 1450|4.1523818724
Signal mass | N_events total | N_events passing hard cuts | N_events within Gaussian mean +/- 3 sigma | Gaussian mean | Gaussian width | alpha | power
1450 21700.0 10792.0 3776.0 1443.52225289 7.29195863749 0.380030118895 0.827731226151
writing coupling results to limit
COUPLINGRESULT: 1200 2.92120353016

COUPLINGRESULT: 1250 2.70318610612

COUPLINGRESULT: 1300 3.31426834346

COUPLINGRESULT: 1350 3.26547280952

COUPLINGRESULT: 1400 3.29335188073

COUPLINGRESULT: 1450 4.1523818724

/afs/cern.ch/user/b/boveia/work/zprimeb/CouplingLimit/outputDir/output_1500.root entries: 11144.0
 FCN=0.0131137 FROM HESSE     STATUS=OK             31 CALLS         444 TOTAL
                     EDM=2.19195e-06    STRATEGY= 1      ERROR MATRIX ACCURATE 
  EXT PARAMETER                                   STEP         FIRST   
  NO.   NAME      VALUE            ERROR          SIZE      DERIVATIVE 
   1  p0           7.86033e-01   7.76999e+00   9.80125e-06  -7.28424e-05
   2  p1           4.42933e-01   2.28018e+00   1.12739e-05  -1.57652e-05
   3  p2           1.49356e+03   4.80286e+02   2.77907e-06   1.70928e-03
   4  p3           8.05159e+00   2.45046e+02   1.49638e-05   1.38848e-04
   5  p4           4.78159e-01   1.50128e+01   9.46547e-06  -4.02465e-05
Info in <TCanvas::Print>: png file /afs/cern.ch/user/b/boveia/work/zprimeb/CouplingLimit/outputDir/h_cuts1500.png has been created
Info in <TCanvas::Print>: Current canvas added to pdf file /afs/cern.ch/user/b/boveia/work/zprimeb/CouplingLimit/outputDir/Zprime_basicHistos_MCValidation.pdf
1493.5644872 8.05158813761 1469.40972279 1517.71925162
Mass|Efficiency: 1500 0.392677674085
width(%)|detector resolution(%): 0.00536772542508|0.0262935712841
Resolution<Detector
Mass|couplingLimit: 1500|4.39963393131
Signal mass | N_events total | N_events passing hard cuts | N_events within Gaussian mean +/- 3 sigma | Gaussian mean | Gaussian width | alpha | power
1500 22391.0 11144.0 4376.0 1493.5644872 8.05158813761 0.44293294212 0.786032902461
writing coupling results to limit
COUPLINGRESULT: 1200 2.92120353016

COUPLINGRESULT: 1250 2.70318610612

COUPLINGRESULT: 1300 3.31426834346

COUPLINGRESULT: 1350 3.26547280952

COUPLINGRESULT: 1400 3.29335188073

COUPLINGRESULT: 1450 4.1523818724

COUPLINGRESULT: 1500 4.39963393131

/afs/cern.ch/user/b/boveia/work/zprimeb/CouplingLimit/outputDir/output_1550.root entries: 11696.0
 FCN=0.00785368 FROM HESSE     STATUS=OK             31 CALLS         894 TOTAL
                     EDM=2.24739e-07    STRATEGY= 1      ERROR MATRIX ACCURATE 
  EXT PARAMETER                                   STEP         FIRST   
  NO.   NAME      VALUE            ERROR          SIZE      DERIVATIVE 
   1  p0           7.77055e-01   9.36117e+00   6.19283e-05   7.39117e-04
   2  p1           5.28017e-01   3.13742e+00   6.18149e-05  -7.94179e-04
   3  p2           1.53951e+03   9.96823e+01   2.31409e-05  -1.02869e-03
   4  p3           1.61177e+01   9.35847e+01   3.26414e-05   1.01831e-03
   5  p4           3.27018e-01   8.69135e-01   3.22740e-05   7.44282e-04
Info in <TCanvas::Print>: png file /afs/cern.ch/user/b/boveia/work/zprimeb/CouplingLimit/outputDir/h_cuts1550.png has been created
Info in <TCanvas::Print>: Current canvas added to pdf file /afs/cern.ch/user/b/boveia/work/zprimeb/CouplingLimit/outputDir/Zprime_basicHistos_MCValidation.pdf
1539.51360437 16.1177030257 1491.16049529 1587.86671344
Mass|Efficiency: 1550 0.521460328317
width(%)|detector resolution(%): 0.0103985180811|0.025998851134
Resolution<Detector
Mass|couplingLimit: 1550|4.42129797697
Signal mass | N_events total | N_events passing hard cuts | N_events within Gaussian mean +/- 3 sigma | Gaussian mean | Gaussian width | alpha | power
1550 23162.0 11696.0 6099.0 1539.51360437 16.1177030257 0.528016508994 0.777055105471
writing coupling results to limit
COUPLINGRESULT: 1200 2.92120353016

COUPLINGRESULT: 1250 2.70318610612

COUPLINGRESULT: 1300 3.31426834346

COUPLINGRESULT: 1350 3.26547280952

COUPLINGRESULT: 1400 3.29335188073

COUPLINGRESULT: 1450 4.1523818724

COUPLINGRESULT: 1500 4.39963393131

COUPLINGRESULT: 1550 4.42129797697

/afs/cern.ch/user/b/boveia/work/zprimeb/CouplingLimit/outputDir/output_1600.root entries: 11936.0
 FCN=0.00842211 FROM HESSE     STATUS=OK             31 CALLS         656 TOTAL
                     EDM=3.16717e-07    STRATEGY= 1      ERROR MATRIX ACCURATE 
  EXT PARAMETER                                   STEP         FIRST   
  NO.   NAME      VALUE            ERROR          SIZE      DERIVATIVE 
   1  p0           7.46676e-01   9.25180e+00   5.21165e-05   1.30415e-03
   2  p1           5.60970e-01   1.98003e+00   5.95282e-05   1.18577e-03
   3  p2           1.58920e+03   4.38916e+02   2.46422e-05  -2.50273e-04
   4  p3           1.29218e+01   4.13895e+02   3.37832e-05  -2.02159e-03
   5  p4           3.75055e-01   9.60301e-01   3.72712e-05  -1.57257e-03
Info in <TCanvas::Print>: png file /afs/cern.ch/user/b/boveia/work/zprimeb/CouplingLimit/outputDir/h_cuts1600.png has been created
Info in <TCanvas::Print>: Current canvas added to pdf file /afs/cern.ch/user/b/boveia/work/zprimeb/CouplingLimit/outputDir/Zprime_basicHistos_MCValidation.pdf
1589.19833305 12.9218461991 1550.43279445 1627.96387164
Mass|Efficiency: 1600 0.431551608579
width(%)|detector resolution(%): 0.00807615387442|0.0257200478998
Resolution<Detector
Mass|couplingLimit: 1600|5.30187047227
Signal mass | N_events total | N_events passing hard cuts | N_events within Gaussian mean +/- 3 sigma | Gaussian mean | Gaussian width | alpha | power
1600 23687.0 11936.0 5151.0 1589.19833305 12.9218461991 0.560969726903 0.746675968395
writing coupling results to limit
COUPLINGRESULT: 1200 2.92120353016

COUPLINGRESULT: 1250 2.70318610612

COUPLINGRESULT: 1300 3.31426834346

COUPLINGRESULT: 1350 3.26547280952

COUPLINGRESULT: 1400 3.29335188073

COUPLINGRESULT: 1450 4.1523818724

COUPLINGRESULT: 1500 4.39963393131

COUPLINGRESULT: 1550 4.42129797697

COUPLINGRESULT: 1600 5.30187047227

/afs/cern.ch/user/b/boveia/work/zprimeb/CouplingLimit/outputDir/output_1650.root entries: 12226.0
 FCN=0.0098919 FROM HESSE     STATUS=OK             31 CALLS         776 TOTAL
                     EDM=2.13662e-06    STRATEGY= 1      ERROR MATRIX ACCURATE 
  EXT PARAMETER                                   STEP         FIRST   
  NO.   NAME      VALUE            ERROR          SIZE      DERIVATIVE 
   1  p0           8.06448e-01   6.07477e+00   4.16491e-05  -2.20706e-03
   2  p1           4.43804e-01   2.99803e+00   5.37334e-05  -1.87976e-03
   3  p2           1.64351e+03   4.45256e+01   1.59089e-05   3.07441e-03
   4  p3           8.25915e+00   2.53068e+02   2.63644e-04   5.21469e-04
   5  p4           4.55982e-01   1.32517e+00   4.51008e-05   2.85086e-03
Info in <TCanvas::Print>: png file /afs/cern.ch/user/b/boveia/work/zprimeb/CouplingLimit/outputDir/h_cuts1650.png has been created
Info in <TCanvas::Print>: Current canvas added to pdf file /afs/cern.ch/user/b/boveia/work/zprimeb/CouplingLimit/outputDir/Zprime_basicHistos_MCValidation.pdf
1643.51282727 8.25914587924 1618.73538964 1668.29026491
Mass|Efficiency: 1650 0.314657287747
width(%)|detector resolution(%): 0.00500554295712|0.0254562716375
Resolution<Detector
Mass|couplingLimit: 1650|6.31644447724
Signal mass | N_events total | N_events passing hard cuts | N_events within Gaussian mean +/- 3 sigma | Gaussian mean | Gaussian width | alpha | power
1650 24057.0 12226.0 3847.0 1643.51282727 8.25914587924 0.443804336977 0.806448206087
writing coupling results to limit
COUPLINGRESULT: 1200 2.92120353016

COUPLINGRESULT: 1250 2.70318610612

COUPLINGRESULT: 1300 3.31426834346

COUPLINGRESULT: 1350 3.26547280952

COUPLINGRESULT: 1400 3.29335188073

COUPLINGRESULT: 1450 4.1523818724

COUPLINGRESULT: 1500 4.39963393131

COUPLINGRESULT: 1550 4.42129797697

COUPLINGRESULT: 1600 5.30187047227

COUPLINGRESULT: 1650 6.31644447724

/afs/cern.ch/user/b/boveia/work/zprimeb/CouplingLimit/outputDir/output_1700.root entries: 12541.0
 FCN=0.0129962 FROM HESSE     STATUS=OK             31 CALLS         671 TOTAL
                     EDM=3.4207e-06    STRATEGY= 1      ERROR MATRIX ACCURATE 
  EXT PARAMETER                                   STEP         FIRST   
  NO.   NAME      VALUE            ERROR          SIZE      DERIVATIVE 
   1  p0           8.71057e-01   6.05528e+00   4.20110e-05  -3.16388e-03
   2  p1           3.72050e-01   3.05487e+00   5.01779e-05  -2.59157e-03
   3  p2           1.69178e+03   4.33958e+01   1.29469e-05   1.62684e-03
   4  p3           8.52584e+00   2.51660e+02   1.94462e-04   7.93772e-04
   5  p4           4.16946e-01   1.31362e+00   4.13202e-05   3.04100e-03
Info in <TCanvas::Print>: png file /afs/cern.ch/user/b/boveia/work/zprimeb/CouplingLimit/outputDir/h_cuts1700.png has been created
Info in <TCanvas::Print>: Current canvas added to pdf file /afs/cern.ch/user/b/boveia/work/zprimeb/CouplingLimit/outputDir/Zprime_basicHistos_MCValidation.pdf
1691.78317322 8.52583813034 1666.20565883 1717.36068761
Mass|Efficiency: 1700 0.32836296946
width(%)|detector resolution(%): 0.0050151989002|0.0252066713884
Resolution<Detector
Mass|couplingLimit: 1700|6.08846784714
Signal mass | N_events total | N_events passing hard cuts | N_events within Gaussian mean +/- 3 sigma | Gaussian mean | Gaussian width | alpha | power
1700 24495.0 12541.0 4118.0 1691.78317322 8.52583813034 0.37205037967 0.871056774022
writing coupling results to limit
COUPLINGRESULT: 1200 2.92120353016

COUPLINGRESULT: 1250 2.70318610612

COUPLINGRESULT: 1300 3.31426834346

COUPLINGRESULT: 1350 3.26547280952

COUPLINGRESULT: 1400 3.29335188073

COUPLINGRESULT: 1450 4.1523818724

COUPLINGRESULT: 1500 4.39963393131

COUPLINGRESULT: 1550 4.42129797697

COUPLINGRESULT: 1600 5.30187047227

COUPLINGRESULT: 1650 6.31644447724

COUPLINGRESULT: 1700 6.08846784714

/afs/cern.ch/user/b/boveia/work/zprimeb/CouplingLimit/outputDir/output_1750.root entries: 12718.0
 FCN=0.0104246 FROM HESSE     STATUS=OK             31 CALLS        1060 TOTAL
                     EDM=6.83386e-07    STRATEGY= 1      ERROR MATRIX ACCURATE 
  EXT PARAMETER                                   STEP         FIRST   
  NO.   NAME      VALUE            ERROR          SIZE      DERIVATIVE 
   1  p0           8.59273e-01   8.88866e+00   5.84908e-05   1.17767e-04
   2  p1           5.79736e-01   2.93842e+00   1.19641e-05  -4.20936e-06
   3  p2           1.73056e+03   1.19200e+02   2.42811e-05   4.52988e-03
   4  p3           2.46294e+01   2.81864e+02   3.18820e-05   2.30080e-03
   5  p4           2.58837e-01   6.34262e-01   2.58024e-05   8.26324e-04
Info in <TCanvas::Print>: png file /afs/cern.ch/user/b/boveia/work/zprimeb/CouplingLimit/outputDir/h_cuts1750.png has been created
Info in <TCanvas::Print>: Current canvas added to pdf file /afs/cern.ch/user/b/boveia/work/zprimeb/CouplingLimit/outputDir/Zprime_basicHistos_MCValidation.pdf
Fit:0: RuntimeWarning: Abnormal termination of minimization.
1730.56032652 24.6294111764 1656.67209299 1804.44856005
Mass|Efficiency: 1750 0.456832835351
width(%)|detector resolution(%): 0.0140739492437|0.0249704340736
Resolution<Detector
Mass|couplingLimit: 1750|4.9267224766
Signal mass | N_events total | N_events passing hard cuts | N_events within Gaussian mean +/- 3 sigma | Gaussian mean | Gaussian width | alpha | power
1750 24837.0 12718.0 5810.0 1730.56032652 24.6294111764 0.579736100041 0.859272640014
writing coupling results to limit
COUPLINGRESULT: 1200 2.92120353016

COUPLINGRESULT: 1250 2.70318610612

COUPLINGRESULT: 1300 3.31426834346

COUPLINGRESULT: 1350 3.26547280952

COUPLINGRESULT: 1400 3.29335188073

COUPLINGRESULT: 1450 4.1523818724

COUPLINGRESULT: 1500 4.39963393131

COUPLINGRESULT: 1550 4.42129797697

COUPLINGRESULT: 1600 5.30187047227

COUPLINGRESULT: 1650 6.31644447724

COUPLINGRESULT: 1700 6.08846784714

COUPLINGRESULT: 1750 4.9267224766

/afs/cern.ch/user/b/boveia/work/zprimeb/CouplingLimit/outputDir/output_1800.root entries: 12923.0
 FCN=0.0136733 FROM MIGRAD    STATUS=FAILED       1231 CALLS        1232 TOTAL
                     EDM=6.68219e-05    STRATEGY= 1      ERR MATRIX NOT POS-DEF
  EXT PARAMETER                APPROXIMATE        STEP         FIRST   
  NO.   NAME      VALUE            ERROR          SIZE      DERIVATIVE 
   1  p0           9.78177e-01   6.62575e+00   2.19931e-04   2.73333e-04
   2  p1           2.86925e-01   2.44225e+00   2.16759e-04   9.17190e-04
   3  p2           1.79568e+03   1.38125e+02   1.28893e-04   1.41589e-03
   4  p3           9.50295e+00   4.48478e+02   3.80523e-04   2.55629e-04
   5  p4           3.54082e-01   2.80035e+00   1.75417e-04   2.39448e-03
Info in <TCanvas::Print>: png file /afs/cern.ch/user/b/boveia/work/zprimeb/CouplingLimit/outputDir/h_cuts1800.png has been created
Info in <TCanvas::Print>: Current canvas added to pdf file /afs/cern.ch/user/b/boveia/work/zprimeb/CouplingLimit/outputDir/Zprime_basicHistos_MCValidation.pdf
1795.67784261 9.50294900823 1767.16899558 1824.18668963
Mass|Efficiency: 1800 0.358508086358
width(%)|detector resolution(%): 0.00527941611568|0.0247467834045
Resolution<Detector
Mass|couplingLimit: 1800|5.77885681014
Signal mass | N_events total | N_events passing hard cuts | N_events within Gaussian mean +/- 3 sigma | Gaussian mean | Gaussian width | alpha | power
1800 25341.0 12923.0 4633.0 1795.67784261 9.50294900823 0.286925394431 0.978177430447
writing coupling results to limit
COUPLINGRESULT: 1200 2.92120353016

COUPLINGRESULT: 1250 2.70318610612

COUPLINGRESULT: 1300 3.31426834346

COUPLINGRESULT: 1350 3.26547280952

COUPLINGRESULT: 1400 3.29335188073

COUPLINGRESULT: 1450 4.1523818724

COUPLINGRESULT: 1500 4.39963393131

COUPLINGRESULT: 1550 4.42129797697

COUPLINGRESULT: 1600 5.30187047227

COUPLINGRESULT: 1650 6.31644447724

COUPLINGRESULT: 1700 6.08846784714

COUPLINGRESULT: 1750 4.9267224766

COUPLINGRESULT: 1800 5.77885681014

/afs/cern.ch/user/b/boveia/work/zprimeb/CouplingLimit/outputDir/output_1850.root entries: 0.0
/afs/cern.ch/user/b/boveia/work/zprimeb/CouplingLimit/outputDir/output_1900.root entries: 13103.0
 FCN=0.4317 FROM HESSE     STATUS=FAILED          3 CALLS         313 TOTAL
                     EDM=6.85307e-08    STRATEGY= 1  ERROR MATRIX UNCERTAINTY 100.0 per cent
  EXT PARAMETER                APPROXIMATE        STEP         FIRST   
  NO.   NAME      VALUE            ERROR          SIZE      DERIVATIVE 
   1  p0           2.80233e+00   6.08814e+00   6.08814e-02   5.53875e+00
   2  p1           2.87470e+00   1.91727e+00   1.91727e-02   1.22070e+00
   3  p2           1.60419e+03   2.44109e+02   2.44109e+00  -4.54437e+02
   4  p3           2.00356e+02   1.45191e+02   1.45191e+00  -3.65825e+02
   5  p4           4.63040e-02   6.16870e-02   6.16870e-04   5.81051e+00
Info in <TCanvas::Print>: png file /afs/cern.ch/user/b/boveia/work/zprimeb/CouplingLimit/outputDir/h_cuts1900.png has been created
Info in <TCanvas::Print>: Current canvas added to pdf file /afs/cern.ch/user/b/boveia/work/zprimeb/CouplingLimit/outputDir/Zprime_basicHistos_MCValidation.pdf
1604.18977152 200.356359555 1003.12069286 2205.25885019
Mass|Efficiency: 1900 0.996184079982
width(%)|detector resolution(%): 0.105450715555|0.0243343143635
Mass|couplingLimit: 1900|4.51576416386
Signal mass | N_events total | N_events passing hard cuts | N_events within Gaussian mean +/- 3 sigma | Gaussian mean | Gaussian width | alpha | power
1900 25717.0 13103.0 13053.0 1604.18977152 200.356359555 2.8747038421 2.80233299342
writing coupling results to limit
COUPLINGRESULT: 1200 2.92120353016

COUPLINGRESULT: 1250 2.70318610612

COUPLINGRESULT: 1300 3.31426834346

COUPLINGRESULT: 1350 3.26547280952

COUPLINGRESULT: 1400 3.29335188073

COUPLINGRESULT: 1450 4.1523818724

COUPLINGRESULT: 1500 4.39963393131

COUPLINGRESULT: 1550 4.42129797697

COUPLINGRESULT: 1600 5.30187047227

COUPLINGRESULT: 1650 6.31644447724

COUPLINGRESULT: 1700 6.08846784714

COUPLINGRESULT: 1750 4.9267224766

COUPLINGRESULT: 1800 5.77885681014

COUPLINGRESULT: 1900 4.51576416386

/afs/cern.ch/user/b/boveia/work/zprimeb/CouplingLimit/outputDir/output_1950.root entries: 13226.0
 FCN=0.0155233 FROM HESSE     STATUS=OK             31 CALLS         989 TOTAL
                     EDM=2.85035e-06    STRATEGY= 1      ERROR MATRIX ACCURATE 
  EXT PARAMETER                                   STEP         FIRST   
  NO.   NAME      VALUE            ERROR          SIZE      DERIVATIVE 
   1  p0           1.06375e+00   5.50699e+00   4.31139e-05  -3.20516e-03
   2  p1           2.42380e-01   3.24071e+00   3.90193e-05   3.99626e-03
   3  p2           1.95073e+03   6.00584e+01   2.04911e-05  -9.12304e-04
   4  p3           9.75528e+00   4.43578e+02   2.67106e-04   5.76093e-04
   5  p4           3.28165e-01   9.83121e-01   3.25319e-05   5.21638e-03
Info in <TCanvas::Print>: png file /afs/cern.ch/user/b/boveia/work/zprimeb/CouplingLimit/outputDir/h_cuts1950.png has been created
Info in <TCanvas::Print>: Current canvas added to pdf file /afs/cern.ch/user/b/boveia/work/zprimeb/CouplingLimit/outputDir/Zprime_basicHistos_MCValidation.pdf
Fit:0: RuntimeWarning: Abnormal termination of minimization.
1950.73323177 9.75527850952 1921.46739624 1979.9990673
Mass|Efficiency: 1950 0.244669590201
width(%)|detector resolution(%): 0.00500270692796|0.0241441177641
Resolution<Detector
Mass|couplingLimit: 1950|6.89907581032
Signal mass | N_events total | N_events passing hard cuts | N_events within Gaussian mean +/- 3 sigma | Gaussian mean | Gaussian width | alpha | power
1950 25990.0 13226.0 3236.0 1950.73323177 9.75527850952 0.242379733141 1.06374732512
writing coupling results to limit
COUPLINGRESULT: 1200 2.92120353016

COUPLINGRESULT: 1250 2.70318610612

COUPLINGRESULT: 1300 3.31426834346

COUPLINGRESULT: 1350 3.26547280952

COUPLINGRESULT: 1400 3.29335188073

COUPLINGRESULT: 1450 4.1523818724

COUPLINGRESULT: 1500 4.39963393131

COUPLINGRESULT: 1550 4.42129797697

COUPLINGRESULT: 1600 5.30187047227

COUPLINGRESULT: 1650 6.31644447724

COUPLINGRESULT: 1700 6.08846784714

COUPLINGRESULT: 1750 4.9267224766

COUPLINGRESULT: 1800 5.77885681014

COUPLINGRESULT: 1900 4.51576416386

COUPLINGRESULT: 1950 6.89907581032

/afs/cern.ch/user/b/boveia/work/zprimeb/CouplingLimit/outputDir/output_2000.root entries: 13309.0
 FCN=0.0173356 FROM MIGRAD    STATUS=FAILED        461 CALLS         462 TOTAL
                     EDM=2.36918e-05    STRATEGY= 1      ERR MATRIX APPROXIMATE
  EXT PARAMETER                APPROXIMATE        STEP         FIRST   
  NO.   NAME      VALUE            ERROR          SIZE      DERIVATIVE 
   1  p0           1.05767e+00   5.34331e+00   2.03555e-04  -2.89882e-03
   2  p1           2.63130e-01   2.59261e+00   2.00399e-04  -3.99735e-03
   3  p2           1.99779e+03   6.08978e+01   9.66280e-05   5.38283e-03
   4  p3           1.00229e+01   5.89854e+02   1.00579e-03   2.63221e-03
   5  p4           3.38985e-01   1.01692e+00   1.69044e-04   3.49486e-03
Info in <TCanvas::Print>: png file /afs/cern.ch/user/b/boveia/work/zprimeb/CouplingLimit/outputDir/h_cuts2000.png has been created
Info in <TCanvas::Print>: Current canvas added to pdf file /afs/cern.ch/user/b/boveia/work/zprimeb/CouplingLimit/outputDir/Zprime_basicHistos_MCValidation.pdf
1997.78711761 10.0228617081 1967.71853249 2027.85570274
Mass|Efficiency: 2000 0.386430235179
width(%)|detector resolution(%): 0.00501143085406|0.02396374928
Resolution<Detector
Mass|couplingLimit: 2000|5.54674368979
Signal mass | N_events total | N_events passing hard cuts | N_events within Gaussian mean +/- 3 sigma | Gaussian mean | Gaussian width | alpha | power
2000 26286.0 13309.0 5143.0 1997.78711761 10.0228617081 0.263129550661 1.05766796513
writing coupling results to limit
COUPLINGRESULT: 1200 2.92120353016

COUPLINGRESULT: 1250 2.70318610612

COUPLINGRESULT: 1300 3.31426834346

COUPLINGRESULT: 1350 3.26547280952

COUPLINGRESULT: 1400 3.29335188073

COUPLINGRESULT: 1450 4.1523818724

COUPLINGRESULT: 1500 4.39963393131

COUPLINGRESULT: 1550 4.42129797697

COUPLINGRESULT: 1600 5.30187047227

COUPLINGRESULT: 1650 6.31644447724

COUPLINGRESULT: 1700 6.08846784714

COUPLINGRESULT: 1750 4.9267224766

COUPLINGRESULT: 1800 5.77885681014

COUPLINGRESULT: 1900 4.51576416386

COUPLINGRESULT: 1950 6.89907581032

COUPLINGRESULT: 2000 5.54674368979

/afs/cern.ch/user/b/boveia/work/zprimeb/CouplingLimit/outputDir/output_2100.root entries: 13254.0
 FCN=0.0190648 FROM HESSE     STATUS=OK             31 CALLS         516 TOTAL
                     EDM=3.12985e-07    STRATEGY= 1      ERROR MATRIX ACCURATE 
  EXT PARAMETER                                   STEP         FIRST   
  NO.   NAME      VALUE            ERROR          SIZE      DERIVATIVE 
   1  p0           1.15600e+00   5.28584e+00   4.17369e-05  -1.59596e-05
   2  p1           2.38227e-01   2.45111e+00   3.69117e-05  -6.88047e-04
   3  p2           2.09678e+03   5.29250e+01   1.73447e-05   1.15927e-03
   4  p3           1.05000e+01   6.19215e+02   2.83883e-04** at limit **
   5  p4           3.28715e-01   9.76014e-01   3.26855e-05   1.46634e-03
Info in <TCanvas::Print>: png file /afs/cern.ch/user/b/boveia/work/zprimeb/CouplingLimit/outputDir/h_cuts2100.png has been created
Info in <TCanvas::Print>: Current canvas added to pdf file /afs/cern.ch/user/b/boveia/work/zprimeb/CouplingLimit/outputDir/Zprime_basicHistos_MCValidation.pdf
2096.77581961 10.5000306061 2065.27572779 2128.27591142
Mass|Efficiency: 2100 0.25765806549
width(%)|detector resolution(%): 0.00500001457432|0.0236300945644
Resolution<Detector
Mass|couplingLimit: 2100|7.29125581442
Signal mass | N_events total | N_events passing hard cuts | N_events within Gaussian mean +/- 3 sigma | Gaussian mean | Gaussian width | alpha | power
2100 26495.0 13254.0 3415.0 2096.77581961 10.5000306061 0.238227093128 1.15600073638
writing coupling results to limit
COUPLINGRESULT: 1200 2.92120353016

COUPLINGRESULT: 1250 2.70318610612

COUPLINGRESULT: 1300 3.31426834346

COUPLINGRESULT: 1350 3.26547280952

COUPLINGRESULT: 1400 3.29335188073

COUPLINGRESULT: 1450 4.1523818724

COUPLINGRESULT: 1500 4.39963393131

COUPLINGRESULT: 1550 4.42129797697

COUPLINGRESULT: 1600 5.30187047227

COUPLINGRESULT: 1650 6.31644447724

COUPLINGRESULT: 1700 6.08846784714

COUPLINGRESULT: 1750 4.9267224766

COUPLINGRESULT: 1800 5.77885681014

COUPLINGRESULT: 1900 4.51576416386

COUPLINGRESULT: 1950 6.89907581032

COUPLINGRESULT: 2000 5.54674368979

COUPLINGRESULT: 2100 7.29125581442

/afs/cern.ch/user/b/boveia/work/zprimeb/CouplingLimit/outputDir/output_2200.root entries: 13577.0
 FCN=0.0254179 FROM HESSE     STATUS=OK             31 CALLS        1150 TOTAL
                     EDM=2.05127e-07    STRATEGY= 1      ERROR MATRIX ACCURATE 
  EXT PARAMETER                                   STEP         FIRST   
  NO.   NAME      VALUE            ERROR          SIZE      DERIVATIVE 
   1  p0           1.38742e+00   5.46641e+00   4.81563e-05  -1.17437e-04
   2  p1           1.79296e-01   2.31268e+00   3.13750e-05   9.15888e-05
   3  p2           2.19628e+03   5.55407e+01   1.72576e-05  -1.00263e-03
   4  p3           1.10001e+01   6.34692e+02   2.31489e-04** at limit **
   5  p4           2.95380e-01   8.83953e-01   2.96576e-05  -6.08158e-04
Info in <TCanvas::Print>: png file /afs/cern.ch/user/b/boveia/work/zprimeb/CouplingLimit/outputDir/h_cuts2200.png has been created
Info in <TCanvas::Print>: Current canvas added to pdf file /afs/cern.ch/user/b/boveia/work/zprimeb/CouplingLimit/outputDir/Zprime_basicHistos_MCValidation.pdf
2196.28376161 11.0000839889 2163.28350964 2229.28401358
Mass|Efficiency: 2200 0.379907195993
width(%)|detector resolution(%): 0.00500003817675|0.0233288457777
Resolution<Detector
Mass|couplingLimit: 2200|5.68387128603
Signal mass | N_events total | N_events passing hard cuts | N_events within Gaussian mean +/- 3 sigma | Gaussian mean | Gaussian width | alpha | power
2200 26887.0 13577.0 5158.0 2196.28376161 11.0000839889 0.179296299442 1.3874210839
writing coupling results to limit
COUPLINGRESULT: 1200 2.92120353016

COUPLINGRESULT: 1250 2.70318610612

COUPLINGRESULT: 1300 3.31426834346

COUPLINGRESULT: 1350 3.26547280952

COUPLINGRESULT: 1400 3.29335188073

COUPLINGRESULT: 1450 4.1523818724

COUPLINGRESULT: 1500 4.39963393131

COUPLINGRESULT: 1550 4.42129797697

COUPLINGRESULT: 1600 5.30187047227

COUPLINGRESULT: 1650 6.31644447724

COUPLINGRESULT: 1700 6.08846784714

COUPLINGRESULT: 1750 4.9267224766

COUPLINGRESULT: 1800 5.77885681014

COUPLINGRESULT: 1900 4.51576416386

COUPLINGRESULT: 1950 6.89907581032

COUPLINGRESULT: 2000 5.54674368979

COUPLINGRESULT: 2100 7.29125581442

COUPLINGRESULT: 2200 5.68387128603

/afs/cern.ch/user/b/boveia/work/zprimeb/CouplingLimit/outputDir/output_2300.root entries: 13658.0
 FCN=0.0233458 FROM HESSE     STATUS=OK             31 CALLS         760 TOTAL
                     EDM=1.45143e-06    STRATEGY= 1      ERROR MATRIX ACCURATE 
  EXT PARAMETER                                   STEP         FIRST   
  NO.   NAME      VALUE            ERROR          SIZE      DERIVATIVE 
   1  p0           1.29657e+00   5.34620e+00   4.56020e-05  -3.59963e-04
   2  p1           1.96081e-01   2.33701e+00   3.31823e-05  -1.36187e-03
   3  p2           2.30087e+03   6.01672e+01   1.80803e-05  -2.89457e-03
   4  p3           1.15010e+01   6.78161e+02   2.49910e-04   4.71688e-04
   5  p4           2.96380e-01   8.79726e-01   2.98158e-05   1.54229e-03
Info in <TCanvas::Print>: png file /afs/cern.ch/user/b/boveia/work/zprimeb/CouplingLimit/outputDir/h_cuts2300.png has been created
Info in <TCanvas::Print>: Current canvas added to pdf file /afs/cern.ch/user/b/boveia/work/zprimeb/CouplingLimit/outputDir/Zprime_basicHistos_MCValidation.pdf
2300.87201619 11.500989356 2266.36904813 2335.37498426
Mass|Efficiency: 2300 0.375677258749
width(%)|detector resolution(%): 0.00500043015478|0.0230559563444
Resolution<Detector
Mass|couplingLimit: 2300|6.57059742018
Signal mass | N_events total | N_events passing hard cuts | N_events within Gaussian mean +/- 3 sigma | Gaussian mean | Gaussian width | alpha | power
2300 27224.0 13658.0 5131.0 2300.87201619 11.500989356 0.196080758114 1.29657115874
writing coupling results to limit
COUPLINGRESULT: 1200 2.92120353016

COUPLINGRESULT: 1250 2.70318610612

COUPLINGRESULT: 1300 3.31426834346

COUPLINGRESULT: 1350 3.26547280952

COUPLINGRESULT: 1400 3.29335188073

COUPLINGRESULT: 1450 4.1523818724

COUPLINGRESULT: 1500 4.39963393131

COUPLINGRESULT: 1550 4.42129797697

COUPLINGRESULT: 1600 5.30187047227

COUPLINGRESULT: 1650 6.31644447724

COUPLINGRESULT: 1700 6.08846784714

COUPLINGRESULT: 1750 4.9267224766

COUPLINGRESULT: 1800 5.77885681014

COUPLINGRESULT: 1900 4.51576416386

COUPLINGRESULT: 1950 6.89907581032

COUPLINGRESULT: 2000 5.54674368979

COUPLINGRESULT: 2100 7.29125581442

COUPLINGRESULT: 2200 5.68387128603

COUPLINGRESULT: 2300 6.57059742018

/afs/cern.ch/user/b/boveia/work/zprimeb/CouplingLimit/outputDir/output_2400.root entries: 13658.0
 FCN=0.0265344 FROM HESSE     STATUS=OK             31 CALLS         955 TOTAL
                     EDM=9.60887e-07    STRATEGY= 1      ERROR MATRIX ACCURATE 
  EXT PARAMETER                                   STEP         FIRST   
  NO.   NAME      VALUE            ERROR          SIZE      DERIVATIVE 
   1  p0           1.56642e+00   5.91421e+00   5.81722e-05  -1.75997e-03
   2  p1           1.35584e-01   2.21913e+00   2.81639e-05  -3.45342e-03
   3  p2           2.40744e+03   7.58774e+01   2.25125e-05   7.90172e-04
   4  p3           1.20012e+01   5.78979e+02   3.57442e-04   2.65396e-04
   5  p4           2.49496e-01   7.24002e-01   2.51854e-05   2.86543e-03
Info in <TCanvas::Print>: png file /afs/cern.ch/user/b/boveia/work/zprimeb/CouplingLimit/outputDir/h_cuts2400.png has been created
Info in <TCanvas::Print>: Current canvas added to pdf file /afs/cern.ch/user/b/boveia/work/zprimeb/CouplingLimit/outputDir/Zprime_basicHistos_MCValidation.pdf
2407.44360047 12.0011778486 2371.44006692 2443.44713401
Mass|Efficiency: 2400 0.355615756333
width(%)|detector resolution(%): 0.00500049077027|0.0228078072237
Resolution<Detector
Mass|couplingLimit: 2400|8.03994580528
Signal mass | N_events total | N_events passing hard cuts | N_events within Gaussian mean +/- 3 sigma | Gaussian mean | Gaussian width | alpha | power
2400 27387.0 13658.0 4857.0 2407.44360047 12.0011778486 0.135583676465 1.56642438043
writing coupling results to limit
COUPLINGRESULT: 1200 2.92120353016

COUPLINGRESULT: 1250 2.70318610612

COUPLINGRESULT: 1300 3.31426834346

COUPLINGRESULT: 1350 3.26547280952

COUPLINGRESULT: 1400 3.29335188073

COUPLINGRESULT: 1450 4.1523818724

COUPLINGRESULT: 1500 4.39963393131

COUPLINGRESULT: 1550 4.42129797697

COUPLINGRESULT: 1600 5.30187047227

COUPLINGRESULT: 1650 6.31644447724

COUPLINGRESULT: 1700 6.08846784714

COUPLINGRESULT: 1750 4.9267224766

COUPLINGRESULT: 1800 5.77885681014

COUPLINGRESULT: 1900 4.51576416386

COUPLINGRESULT: 1950 6.89907581032

COUPLINGRESULT: 2000 5.54674368979

COUPLINGRESULT: 2100 7.29125581442

COUPLINGRESULT: 2200 5.68387128603

COUPLINGRESULT: 2300 6.57059742018

COUPLINGRESULT: 2400 8.03994580528

/afs/cern.ch/user/b/boveia/work/zprimeb/CouplingLimit/outputDir/output_2500.root entries: 13621.0
 FCN=0.0243647 FROM HESSE     STATUS=OK             31 CALLS        1613 TOTAL
                     EDM=3.87257e-08    STRATEGY= 1      ERROR MATRIX ACCURATE 
  EXT PARAMETER                                   STEP         FIRST   
  NO.   NAME      VALUE            ERROR          SIZE      DERIVATIVE 
   1  p0           1.38740e+00   6.05009e+00   5.40858e-05   1.94119e-04
   2  p1           3.23645e-01   3.31248e+00   4.02554e-05  -1.25896e-04
   3  p2           2.48690e+03   1.54598e+02   2.36361e-05  -3.97448e-04
   4  p3           2.59054e+01   4.18632e+02   2.70633e-05  -4.14357e-04
   5  p4           2.36662e-01   6.37805e-01   2.38102e-05  -4.04863e-04
Info in <TCanvas::Print>: png file /afs/cern.ch/user/b/boveia/work/zprimeb/CouplingLimit/outputDir/h_cuts2500.png has been created
Info in <TCanvas::Print>: Current canvas added to pdf file /afs/cern.ch/user/b/boveia/work/zprimeb/CouplingLimit/outputDir/Zprime_basicHistos_MCValidation.pdf
2486.90408984 25.9053649055 2409.18799512 2564.62018456
Mass|Efficiency: 2500 0.433154687615
width(%)|detector resolution(%): 0.0103621459622|0.0225811775391
Resolution<Detector
Mass|couplingLimit: 2500|8.26659177451
Signal mass | N_events total | N_events passing hard cuts | N_events within Gaussian mean +/- 3 sigma | Gaussian mean | Gaussian width | alpha | power
2500 27569.0 13621.0 5900.0 2486.90408984 25.9053649055 0.323645011361 1.38739936714
writing coupling results to limit
COUPLINGRESULT: 1200 2.92120353016

COUPLINGRESULT: 1250 2.70318610612

COUPLINGRESULT: 1300 3.31426834346

COUPLINGRESULT: 1350 3.26547280952

COUPLINGRESULT: 1400 3.29335188073

COUPLINGRESULT: 1450 4.1523818724

COUPLINGRESULT: 1500 4.39963393131

COUPLINGRESULT: 1550 4.42129797697

COUPLINGRESULT: 1600 5.30187047227

COUPLINGRESULT: 1650 6.31644447724

COUPLINGRESULT: 1700 6.08846784714

COUPLINGRESULT: 1750 4.9267224766

COUPLINGRESULT: 1800 5.77885681014

COUPLINGRESULT: 1900 4.51576416386

COUPLINGRESULT: 1950 6.89907581032

COUPLINGRESULT: 2000 5.54674368979

COUPLINGRESULT: 2100 7.29125581442

COUPLINGRESULT: 2200 5.68387128603

COUPLINGRESULT: 2300 6.57059742018

COUPLINGRESULT: 2400 8.03994580528

COUPLINGRESULT: 2500 8.26659177451

/afs/cern.ch/user/b/boveia/work/zprimeb/CouplingLimit/outputDir/output_2600.root entries: 13714.0
 FCN=0.0325372 FROM HESSE     STATUS=OK             31 CALLS         969 TOTAL
                     EDM=1.84401e-06    STRATEGY= 1      ERROR MATRIX ACCURATE 
  EXT PARAMETER                                   STEP         FIRST   
  NO.   NAME      VALUE            ERROR          SIZE      DERIVATIVE 
   1  p0           1.14972e+00   7.31409e+00   3.81471e-05   7.20484e-04
   2  p1           2.95634e-01   3.23045e+00   4.00192e-05   4.57561e-04
   3  p2           2.58639e+03   5.26077e+01   1.36356e-05  -5.77819e-03
   4  p3           1.30012e+01   7.65596e+02   2.71410e-04   4.64012e-04
   5  p4           3.45631e-01   1.03810e+00   3.51657e-05   1.66689e-03
Info in <TCanvas::Print>: png file /afs/cern.ch/user/b/boveia/work/zprimeb/CouplingLimit/outputDir/h_cuts2600.png has been created
Info in <TCanvas::Print>: Current canvas added to pdf file /afs/cern.ch/user/b/boveia/work/zprimeb/CouplingLimit/outputDir/Zprime_basicHistos_MCValidation.pdf
2586.38503634 13.0011616143 2547.3815515 2625.38852119
Mass|Efficiency: 2600 0.29240192504
width(%)|detector resolution(%): 0.00500044677471|0.0223732161654
Resolution<Detector
Mass|couplingLimit: 2600|11.3205016062
Signal mass | N_events total | N_events passing hard cuts | N_events within Gaussian mean +/- 3 sigma | Gaussian mean | Gaussian width | alpha | power
2600 27680.0 13714.0 4010.0 2586.38503634 13.0011616143 0.295633868101 1.149722133
writing coupling results to limit
COUPLINGRESULT: 1200 2.92120353016

COUPLINGRESULT: 1250 2.70318610612

COUPLINGRESULT: 1300 3.31426834346

COUPLINGRESULT: 1350 3.26547280952

COUPLINGRESULT: 1400 3.29335188073

COUPLINGRESULT: 1450 4.1523818724

COUPLINGRESULT: 1500 4.39963393131

COUPLINGRESULT: 1550 4.42129797697

COUPLINGRESULT: 1600 5.30187047227

COUPLINGRESULT: 1650 6.31644447724

COUPLINGRESULT: 1700 6.08846784714

COUPLINGRESULT: 1750 4.9267224766

COUPLINGRESULT: 1800 5.77885681014

COUPLINGRESULT: 1900 4.51576416386

COUPLINGRESULT: 1950 6.89907581032

COUPLINGRESULT: 2000 5.54674368979

COUPLINGRESULT: 2100 7.29125581442

COUPLINGRESULT: 2200 5.68387128603

COUPLINGRESULT: 2300 6.57059742018

COUPLINGRESULT: 2400 8.03994580528

COUPLINGRESULT: 2500 8.26659177451

COUPLINGRESULT: 2600 11.3205016062

/afs/cern.ch/user/b/boveia/work/zprimeb/CouplingLimit/outputDir/output_2700.root entries: 13655.0
 FCN=0.0271119 FROM HESSE     STATUS=OK             31 CALLS         651 TOTAL
                     EDM=3.73105e-07    STRATEGY= 1      ERROR MATRIX ACCURATE 
  EXT PARAMETER                                   STEP         FIRST   
  NO.   NAME      VALUE            ERROR          SIZE      DERIVATIVE 
   1  p0           1.31326e+00   5.20731e+00   4.39853e-05  -9.01583e-05
   2  p1           2.12357e-01   2.33882e+00   3.38767e-05  -1.16276e-04
   3  p2           2.69619e+03   6.65613e+01   1.70861e-05   3.93613e-03
   4  p3           1.35001e+01   7.69274e+02   2.53116e-04** at limit **
   5  p4           2.99857e-01   8.99783e-01   3.04170e-05   6.45391e-04
Info in <TCanvas::Print>: png file /afs/cern.ch/user/b/boveia/work/zprimeb/CouplingLimit/outputDir/h_cuts2700.png has been created
Info in <TCanvas::Print>: Current canvas added to pdf file /afs/cern.ch/user/b/boveia/work/zprimeb/CouplingLimit/outputDir/Zprime_basicHistos_MCValidation.pdf
2696.18607252 13.5000918271 2655.68579703 2736.686348
Mass|Efficiency: 2700 0.374441596485
width(%)|detector resolution(%): 0.00500003401005|0.0221814142752
Resolution<Detector
Mass|couplingLimit: 2700|10.8067664042
Signal mass | N_events total | N_events passing hard cuts | N_events within Gaussian mean +/- 3 sigma | Gaussian mean | Gaussian width | alpha | power
2700 27907.0 13655.0 5113.0 2696.18607252 13.5000918271 0.21235696792 1.31326419239
writing coupling results to limit
COUPLINGRESULT: 1200 2.92120353016

COUPLINGRESULT: 1250 2.70318610612

COUPLINGRESULT: 1300 3.31426834346

COUPLINGRESULT: 1350 3.26547280952

COUPLINGRESULT: 1400 3.29335188073

COUPLINGRESULT: 1450 4.1523818724

COUPLINGRESULT: 1500 4.39963393131

COUPLINGRESULT: 1550 4.42129797697

COUPLINGRESULT: 1600 5.30187047227

COUPLINGRESULT: 1650 6.31644447724

COUPLINGRESULT: 1700 6.08846784714

COUPLINGRESULT: 1750 4.9267224766

COUPLINGRESULT: 1800 5.77885681014

COUPLINGRESULT: 1900 4.51576416386

COUPLINGRESULT: 1950 6.89907581032

COUPLINGRESULT: 2000 5.54674368979

COUPLINGRESULT: 2100 7.29125581442

COUPLINGRESULT: 2200 5.68387128603

COUPLINGRESULT: 2300 6.57059742018

COUPLINGRESULT: 2400 8.03994580528

COUPLINGRESULT: 2500 8.26659177451

COUPLINGRESULT: 2600 11.3205016062

COUPLINGRESULT: 2700 10.8067664042

/afs/cern.ch/user/b/boveia/work/zprimeb/CouplingLimit/outputDir/output_2800.root entries: 13782.0
 FCN=0.0219448 FROM HESSE     STATUS=OK             31 CALLS        1254 TOTAL
                     EDM=8.93183e-07    STRATEGY= 1      ERROR MATRIX ACCURATE 
  EXT PARAMETER                                   STEP         FIRST   
  NO.   NAME      VALUE            ERROR          SIZE      DERIVATIVE 
   1  p0           1.47806e+00   6.70667e+00   5.63087e-05  -1.63876e-03
   2  p1           2.45424e-01   3.29373e+00   3.49129e-05  -3.11814e-03
   3  p2           2.79467e+03   2.39472e+02   2.58275e-05  -1.37097e-03
   4  p3           2.29177e+01   5.68137e+02   2.77485e-05   3.88462e-03
   5  p4           2.38282e-01   6.81422e-01   2.40218e-05   3.54732e-03
Info in <TCanvas::Print>: png file /afs/cern.ch/user/b/boveia/work/zprimeb/CouplingLimit/outputDir/h_cuts2800.png has been created
Info in <TCanvas::Print>: Current canvas added to pdf file /afs/cern.ch/user/b/boveia/work/zprimeb/CouplingLimit/outputDir/Zprime_basicHistos_MCValidation.pdf
2794.66929587 22.9176837162 2725.91624472 2863.42234702
Mass|Efficiency: 2800 0.339428239733
width(%)|detector resolution(%): 0.00818488704149|0.0220035788421
Resolution<Detector
Mass|couplingLimit: 2800|11.6464844416
Signal mass | N_events total | N_events passing hard cuts | N_events within Gaussian mean +/- 3 sigma | Gaussian mean | Gaussian width | alpha | power
2800 27960.0 13782.0 4678.0 2794.66929587 22.9176837162 0.245423784829 1.47805548497
writing coupling results to limit
COUPLINGRESULT: 1200 2.92120353016

COUPLINGRESULT: 1250 2.70318610612

COUPLINGRESULT: 1300 3.31426834346

COUPLINGRESULT: 1350 3.26547280952

COUPLINGRESULT: 1400 3.29335188073

COUPLINGRESULT: 1450 4.1523818724

COUPLINGRESULT: 1500 4.39963393131

COUPLINGRESULT: 1550 4.42129797697

COUPLINGRESULT: 1600 5.30187047227

COUPLINGRESULT: 1650 6.31644447724

COUPLINGRESULT: 1700 6.08846784714

COUPLINGRESULT: 1750 4.9267224766

COUPLINGRESULT: 1800 5.77885681014

COUPLINGRESULT: 1900 4.51576416386

COUPLINGRESULT: 1950 6.89907581032

COUPLINGRESULT: 2000 5.54674368979

COUPLINGRESULT: 2100 7.29125581442

COUPLINGRESULT: 2200 5.68387128603

COUPLINGRESULT: 2300 6.57059742018

COUPLINGRESULT: 2400 8.03994580528

COUPLINGRESULT: 2500 8.26659177451

COUPLINGRESULT: 2600 11.3205016062

COUPLINGRESULT: 2700 10.8067664042

COUPLINGRESULT: 2800 11.6464844416

/afs/cern.ch/user/b/boveia/work/zprimeb/CouplingLimit/outputDir/output_2900.root entries: 13954.0
 FCN=0.0317216 FROM HESSE     STATUS=OK             31 CALLS         533 TOTAL
                     EDM=8.89979e-06    STRATEGY= 1      ERROR MATRIX ACCURATE 
  EXT PARAMETER                                   STEP         FIRST   
  NO.   NAME      VALUE            ERROR          SIZE      DERIVATIVE 
   1  p0           1.10608e+00   4.92448e+00   3.61304e-05  -1.23094e-03
   2  p1           3.42038e-01   2.45095e+00   4.27903e-05  -2.83343e-03
   3  p2           2.88423e+03   6.12829e+01   1.41602e-05   2.33844e-03
   4  p3           1.45013e+01   8.10388e+02   2.37193e-04   8.12839e-04
   5  p4           3.60059e-01   1.05037e+00   3.68297e-05   1.44475e-03
Info in <TCanvas::Print>: png file /afs/cern.ch/user/b/boveia/work/zprimeb/CouplingLimit/outputDir/h_cuts2900.png has been created
Info in <TCanvas::Print>: Current canvas added to pdf file /afs/cern.ch/user/b/boveia/work/zprimeb/CouplingLimit/outputDir/Zprime_basicHistos_MCValidation.pdf
2884.23429505 14.5013352561 2840.73028928 2927.73830082
Mass|Efficiency: 2900 0.397520424251
width(%)|detector resolution(%): 0.00500046043313|0.0218378071034
Resolution<Detector
Mass|couplingLimit: 2900|10.4986648532
Signal mass | N_events total | N_events passing hard cuts | N_events within Gaussian mean +/- 3 sigma | Gaussian mean | Gaussian width | alpha | power
2900 28078.0 13954.0 5547.0 2884.23429505 14.5013352561 0.34203830984 1.10608179545
writing coupling results to limit
COUPLINGRESULT: 1200 2.92120353016

COUPLINGRESULT: 1250 2.70318610612

COUPLINGRESULT: 1300 3.31426834346

COUPLINGRESULT: 1350 3.26547280952

COUPLINGRESULT: 1400 3.29335188073

COUPLINGRESULT: 1450 4.1523818724

COUPLINGRESULT: 1500 4.39963393131

COUPLINGRESULT: 1550 4.42129797697

COUPLINGRESULT: 1600 5.30187047227

COUPLINGRESULT: 1650 6.31644447724

COUPLINGRESULT: 1700 6.08846784714

COUPLINGRESULT: 1750 4.9267224766

COUPLINGRESULT: 1800 5.77885681014

COUPLINGRESULT: 1900 4.51576416386

COUPLINGRESULT: 1950 6.89907581032

COUPLINGRESULT: 2000 5.54674368979

COUPLINGRESULT: 2100 7.29125581442

COUPLINGRESULT: 2200 5.68387128603

COUPLINGRESULT: 2300 6.57059742018

COUPLINGRESULT: 2400 8.03994580528

COUPLINGRESULT: 2500 8.26659177451

COUPLINGRESULT: 2600 11.3205016062

COUPLINGRESULT: 2700 10.8067664042

COUPLINGRESULT: 2800 11.6464844416

COUPLINGRESULT: 2900 10.4986648532

/afs/cern.ch/user/b/boveia/work/zprimeb/CouplingLimit/outputDir/output_3000.root entries: 13872.0
 FCN=0.0216727 FROM HESSE     STATUS=OK             31 CALLS         918 TOTAL
                     EDM=7.46499e-07    STRATEGY= 1      ERROR MATRIX ACCURATE 
  EXT PARAMETER                                   STEP         FIRST   
  NO.   NAME      VALUE            ERROR          SIZE      DERIVATIVE 
   1  p0           1.46961e+00   5.52403e+00   5.13772e-05  -1.87316e-03
   2  p1           1.62560e-01   2.24290e+00   2.98850e-05  -2.96567e-03
   3  p2           3.00649e+03   8.53342e+01   1.98345e-05  -1.57547e-03
   4  p3           1.50003e+01   8.84998e+02   2.80123e-04  -2.36601e-04
   5  p4           2.58317e-01   7.59466e-01   2.61472e-05   2.64001e-03
Info in <TCanvas::Print>: png file /afs/cern.ch/user/b/boveia/work/zprimeb/CouplingLimit/outputDir/h_cuts3000.png has been created
Info in <TCanvas::Print>: Current canvas added to pdf file /afs/cern.ch/user/b/boveia/work/zprimeb/CouplingLimit/outputDir/Zprime_basicHistos_MCValidation.pdf
3006.49463802 15.0003044501 2961.49372467 3051.49555137
Mass|Efficiency: 3000 0.352292387543
width(%)|detector resolution(%): 0.00500010148335|0.02168246198
Resolution<Detector
Mass|couplingLimit: 3000|11.8336146386
Signal mass | N_events total | N_events passing hard cuts | N_events within Gaussian mean +/- 3 sigma | Gaussian mean | Gaussian width | alpha | power
3000 28094.0 13872.0 4887.0 3006.49463802 15.0003044501 0.162560214011 1.46960824722
writing coupling results to limit
COUPLINGRESULT: 1200 2.92120353016

COUPLINGRESULT: 1250 2.70318610612

COUPLINGRESULT: 1300 3.31426834346

COUPLINGRESULT: 1350 3.26547280952

COUPLINGRESULT: 1400 3.29335188073

COUPLINGRESULT: 1450 4.1523818724

COUPLINGRESULT: 1500 4.39963393131

COUPLINGRESULT: 1550 4.42129797697

COUPLINGRESULT: 1600 5.30187047227

COUPLINGRESULT: 1650 6.31644447724

COUPLINGRESULT: 1700 6.08846784714

COUPLINGRESULT: 1750 4.9267224766

COUPLINGRESULT: 1800 5.77885681014

COUPLINGRESULT: 1900 4.51576416386

COUPLINGRESULT: 1950 6.89907581032

COUPLINGRESULT: 2000 5.54674368979

COUPLINGRESULT: 2100 7.29125581442

COUPLINGRESULT: 2200 5.68387128603

COUPLINGRESULT: 2300 6.57059742018

COUPLINGRESULT: 2400 8.03994580528

COUPLINGRESULT: 2500 8.26659177451

COUPLINGRESULT: 2600 11.3205016062

COUPLINGRESULT: 2700 10.8067664042

COUPLINGRESULT: 2800 11.6464844416

COUPLINGRESULT: 2900 10.4986648532

COUPLINGRESULT: 3000 11.8336146386

/afs/cern.ch/user/b/boveia/work/zprimeb/CouplingLimit/outputDir/output_3200.root entries: 14004.0
 FCN=0.0239067 FROM HESSE     STATUS=OK             31 CALLS         585 TOTAL
                     EDM=5.07105e-07    STRATEGY= 1      ERROR MATRIX ACCURATE 
  EXT PARAMETER                                   STEP         FIRST   
  NO.   NAME      VALUE            ERROR          SIZE      DERIVATIVE 
   1  p0           1.49324e+00   5.48483e+00   5.18796e-05  -1.05360e-04
   2  p1           1.66130e-01   2.21851e+00   2.99655e-05  -5.66622e-04
   3  p2           3.20571e+03   9.05176e+01   1.97140e-05   1.00234e-03
   4  p3           1.60005e+01   9.41059e+02   2.89386e-04   2.79614e-04
   5  p4           2.60290e-01   7.54297e-01   2.64075e-05   1.38122e-03
Info in <TCanvas::Print>: png file /afs/cern.ch/user/b/boveia/work/zprimeb/CouplingLimit/outputDir/h_cuts3200.png has been created
Info in <TCanvas::Print>: Current canvas added to pdf file /afs/cern.ch/user/b/boveia/work/zprimeb/CouplingLimit/outputDir/Zprime_basicHistos_MCValidation.pdf
3205.70807766 16.0005436946 3157.70644658 3253.70970875
Mass|Efficiency: 3200 0.353827477863
width(%)|detector resolution(%): 0.00500016990457|0.0213976909113
Resolution<Detector
Mass|couplingLimit: 3200|27.6710038323
Signal mass | N_events total | N_events passing hard cuts | N_events within Gaussian mean +/- 3 sigma | Gaussian mean | Gaussian width | alpha | power
3200 28263.0 14004.0 4955.0 3205.70807766 16.0005436946 0.166130234094 1.49323881064
writing coupling results to limit
COUPLINGRESULT: 1200 2.92120353016

COUPLINGRESULT: 1250 2.70318610612

COUPLINGRESULT: 1300 3.31426834346

COUPLINGRESULT: 1350 3.26547280952

COUPLINGRESULT: 1400 3.29335188073

COUPLINGRESULT: 1450 4.1523818724

COUPLINGRESULT: 1500 4.39963393131

COUPLINGRESULT: 1550 4.42129797697

COUPLINGRESULT: 1600 5.30187047227

COUPLINGRESULT: 1650 6.31644447724

COUPLINGRESULT: 1700 6.08846784714

COUPLINGRESULT: 1750 4.9267224766

COUPLINGRESULT: 1800 5.77885681014

COUPLINGRESULT: 1900 4.51576416386

COUPLINGRESULT: 1950 6.89907581032

COUPLINGRESULT: 2000 5.54674368979

COUPLINGRESULT: 2100 7.29125581442

COUPLINGRESULT: 2200 5.68387128603

COUPLINGRESULT: 2300 6.57059742018

COUPLINGRESULT: 2400 8.03994580528

COUPLINGRESULT: 2500 8.26659177451

COUPLINGRESULT: 2600 11.3205016062

COUPLINGRESULT: 2700 10.8067664042

COUPLINGRESULT: 2800 11.6464844416

COUPLINGRESULT: 2900 10.4986648532

COUPLINGRESULT: 3000 11.8336146386

COUPLINGRESULT: 3200 27.6710038323

/afs/cern.ch/user/b/boveia/work/zprimeb/CouplingLimit/outputDir/output_3400.root entries: 13720.0
 FCN=0.0205619 FROM HESSE     STATUS=OK             31 CALLS         952 TOTAL
                     EDM=5.07878e-07    STRATEGY= 1      ERROR MATRIX ACCURATE 
  EXT PARAMETER                                   STEP         FIRST   
  NO.   NAME      VALUE            ERROR          SIZE      DERIVATIVE 
   1  p0           1.50723e+00   6.63522e+00   5.53538e-05  -1.42995e-03
   2  p1           2.32916e-01   3.31053e+00   3.36373e-05  -2.30395e-03
   3  p2           3.39431e+03   2.86148e+02   2.48975e-05   9.92271e-04
   4  p3           2.55927e+01   8.17805e+02   2.84022e-05  -3.05113e-03
   5  p4           2.36341e-01   6.89974e-01   2.38728e-05   2.49496e-03
Info in <TCanvas::Print>: png file /afs/cern.ch/user/b/boveia/work/zprimeb/CouplingLimit/outputDir/h_cuts3400.png has been created
Info in <TCanvas::Print>: Current canvas added to pdf file /afs/cern.ch/user/b/boveia/work/zprimeb/CouplingLimit/outputDir/Zprime_basicHistos_MCValidation.pdf
3394.30864057 25.5927499811 3317.53039063 3471.08689051
Mass|Efficiency: 3400 0.336734693878
width(%)|detector resolution(%): 0.00752727940622|0.0211406090173
Resolution<Detector
Mass|couplingLimit: 3400|None
Signal mass | N_events total | N_events passing hard cuts | N_events within Gaussian mean +/- 3 sigma | Gaussian mean | Gaussian width | alpha | power
3400 28265.0 13720.0 4620.0 3394.30864057 25.5927499811 0.232916122288 1.50723238772
writing coupling results to limit
COUPLINGRESULT: 1200 2.92120353016

COUPLINGRESULT: 1250 2.70318610612

COUPLINGRESULT: 1300 3.31426834346

COUPLINGRESULT: 1350 3.26547280952

COUPLINGRESULT: 1400 3.29335188073

COUPLINGRESULT: 1450 4.1523818724

COUPLINGRESULT: 1500 4.39963393131

COUPLINGRESULT: 1550 4.42129797697

COUPLINGRESULT: 1600 5.30187047227

COUPLINGRESULT: 1650 6.31644447724

COUPLINGRESULT: 1700 6.08846784714

COUPLINGRESULT: 1750 4.9267224766

COUPLINGRESULT: 1800 5.77885681014

COUPLINGRESULT: 1900 4.51576416386

COUPLINGRESULT: 1950 6.89907581032

COUPLINGRESULT: 2000 5.54674368979

COUPLINGRESULT: 2100 7.29125581442

COUPLINGRESULT: 2200 5.68387128603

COUPLINGRESULT: 2300 6.57059742018

COUPLINGRESULT: 2400 8.03994580528

COUPLINGRESULT: 2500 8.26659177451

COUPLINGRESULT: 2600 11.3205016062

COUPLINGRESULT: 2700 10.8067664042

COUPLINGRESULT: 2800 11.6464844416

COUPLINGRESULT: 2900 10.4986648532

COUPLINGRESULT: 3000 11.8336146386

COUPLINGRESULT: 3200 27.6710038323

/afs/cern.ch/user/b/boveia/work/zprimeb/CouplingLimit/outputDir/output_3600.root entries: 13870.0
 FCN=0.0335951 FROM HESSE     STATUS=OK             31 CALLS        1068 TOTAL
                     EDM=5.33762e-07    STRATEGY= 1      ERROR MATRIX ACCURATE 
  EXT PARAMETER                                   STEP         FIRST   
  NO.   NAME      VALUE            ERROR          SIZE      DERIVATIVE 
   1  p0           1.19922e+00   7.32685e+00   3.83943e-05   2.11557e-03
   2  p1           2.94664e-01   3.20622e+00   3.93746e-05   2.16608e-03
   3  p2           3.58448e+03   7.05378e+01   1.29917e-05  -1.93565e-03
   4  p3           1.80003e+01   9.58396e+02   3.39749e-04  -1.27583e-04
   5  p4           3.26535e-01   9.77679e-01   3.35138e-05   2.45419e-03
Info in <TCanvas::Print>: png file /afs/cern.ch/user/b/boveia/work/zprimeb/CouplingLimit/outputDir/h_cuts3600.png has been created
Info in <TCanvas::Print>: Current canvas added to pdf file /afs/cern.ch/user/b/boveia/work/zprimeb/CouplingLimit/outputDir/Zprime_basicHistos_MCValidation.pdf
Fit:0: RuntimeWarning: Abnormal termination of minimization.
3584.47639642 18.0002947097 3530.47551229 3638.47728054
Mass|Efficiency: 3600 0.30021629416
width(%)|detector resolution(%): 0.00500008186379|0.020905398496
Resolution<Detector
Mass|couplingLimit: 3600|None
Signal mass | N_events total | N_events passing hard cuts | N_events within Gaussian mean +/- 3 sigma | Gaussian mean | Gaussian width | alpha | power
3600 28409.0 13870.0 4164.0 3584.47639642 18.0002947097 0.294663650078 1.19921540071
writing coupling results to limit
COUPLINGRESULT: 1200 2.92120353016

COUPLINGRESULT: 1250 2.70318610612

COUPLINGRESULT: 1300 3.31426834346

COUPLINGRESULT: 1350 3.26547280952

COUPLINGRESULT: 1400 3.29335188073

COUPLINGRESULT: 1450 4.1523818724

COUPLINGRESULT: 1500 4.39963393131

COUPLINGRESULT: 1550 4.42129797697

COUPLINGRESULT: 1600 5.30187047227

COUPLINGRESULT: 1650 6.31644447724

COUPLINGRESULT: 1700 6.08846784714

COUPLINGRESULT: 1750 4.9267224766

COUPLINGRESULT: 1800 5.77885681014

COUPLINGRESULT: 1900 4.51576416386

COUPLINGRESULT: 1950 6.89907581032

COUPLINGRESULT: 2000 5.54674368979

COUPLINGRESULT: 2100 7.29125581442

COUPLINGRESULT: 2200 5.68387128603

COUPLINGRESULT: 2300 6.57059742018

COUPLINGRESULT: 2400 8.03994580528

COUPLINGRESULT: 2500 8.26659177451

COUPLINGRESULT: 2600 11.3205016062

COUPLINGRESULT: 2700 10.8067664042

COUPLINGRESULT: 2800 11.6464844416

COUPLINGRESULT: 2900 10.4986648532

COUPLINGRESULT: 3000 11.8336146386

COUPLINGRESULT: 3200 27.6710038323

/afs/cern.ch/user/b/boveia/work/zprimeb/CouplingLimit/outputDir/output_3800.root entries: 13803.0
 FCN=0.0777748 FROM MIGRAD    STATUS=FAILED        507 CALLS         508 TOTAL
                     EDM=1.71692    STRATEGY= 1      ERR MATRIX NOT POS-DEF
  EXT PARAMETER                APPROXIMATE        STEP         FIRST   
  NO.   NAME      VALUE            ERROR          SIZE      DERIVATIVE 
   1  p0           5.41652e+00   6.61868e+00   3.33701e-03   2.46661e-02
   2  p1           5.65372e-02   2.86597e+00   1.88642e-04   1.83905e-02
   3  p2           3.80169e+03   6.71418e+01   7.98799e-05  -1.39798e-02
   4  p3           1.90453e+01   1.02227e+03   9.53704e-04  -5.20859e-03
   5  p4           1.50640e-01   3.84461e-01   8.09790e-05   4.28415e-03
Info in <TCanvas::Print>: png file /afs/cern.ch/user/b/boveia/work/zprimeb/CouplingLimit/outputDir/h_cuts3800.png has been created
Info in <TCanvas::Print>: Current canvas added to pdf file /afs/cern.ch/user/b/boveia/work/zprimeb/CouplingLimit/outputDir/Zprime_basicHistos_MCValidation.pdf
3801.68942994 19.0453372832 3744.55341809 3858.82544179
Mass|Efficiency: 3800 0.36042889227
width(%)|detector resolution(%): 0.00501193086401|0.0206884624535
Resolution<Detector
Mass|couplingLimit: 3800|None
Signal mass | N_events total | N_events passing hard cuts | N_events within Gaussian mean +/- 3 sigma | Gaussian mean | Gaussian width | alpha | power
3800 28439.0 13803.0 4975.0 3801.68942994 19.0453372832 0.0565372432771 5.41652335022
writing coupling results to limit
COUPLINGRESULT: 1200 2.92120353016

COUPLINGRESULT: 1250 2.70318610612

COUPLINGRESULT: 1300 3.31426834346

COUPLINGRESULT: 1350 3.26547280952

COUPLINGRESULT: 1400 3.29335188073

COUPLINGRESULT: 1450 4.1523818724

COUPLINGRESULT: 1500 4.39963393131

COUPLINGRESULT: 1550 4.42129797697

COUPLINGRESULT: 1600 5.30187047227

COUPLINGRESULT: 1650 6.31644447724

COUPLINGRESULT: 1700 6.08846784714

COUPLINGRESULT: 1750 4.9267224766

COUPLINGRESULT: 1800 5.77885681014

COUPLINGRESULT: 1900 4.51576416386

COUPLINGRESULT: 1950 6.89907581032

COUPLINGRESULT: 2000 5.54674368979

COUPLINGRESULT: 2100 7.29125581442

COUPLINGRESULT: 2200 5.68387128603

COUPLINGRESULT: 2300 6.57059742018

COUPLINGRESULT: 2400 8.03994580528

COUPLINGRESULT: 2500 8.26659177451

COUPLINGRESULT: 2600 11.3205016062

COUPLINGRESULT: 2700 10.8067664042

COUPLINGRESULT: 2800 11.6464844416

COUPLINGRESULT: 2900 10.4986648532

COUPLINGRESULT: 3000 11.8336146386

COUPLINGRESULT: 3200 27.6710038323

/afs/cern.ch/user/b/boveia/work/zprimeb/CouplingLimit/outputDir/output_4000.root entries: 13834.0
 FCN=0.0309277 FROM MIGRAD    STATUS=CONVERGED     378 CALLS         678 TOTAL
                     EDM=4.89349e-06    STRATEGY= 1  ERROR MATRIX UNCERTAINTY   1.8 per cent
  EXT PARAMETER                                   STEP         FIRST   
  NO.   NAME      VALUE            ERROR          SIZE      DERIVATIVE 
   1  p0           1.37334e+00   8.27701e+00   2.91203e-03  -2.09403e-03
   2  p1           3.64551e-01   2.54697e+00  -2.17640e-03   2.44778e-03
   3  p2           3.97553e+03   2.04360e+02  -2.79542e-03  -9.39438e-03
   4  p3           3.86802e+01   8.15598e+02   1.11355e-02  -4.38887e-03
   5  p4           2.38389e-01   6.59526e-01   7.75918e-03   2.37168e-03
Info in <TCanvas::Print>: png file /afs/cern.ch/user/b/boveia/work/zprimeb/CouplingLimit/outputDir/h_cuts4000.png has been created
Info in <TCanvas::Print>: Current canvas added to pdf file /afs/cern.ch/user/b/boveia/work/zprimeb/CouplingLimit/outputDir/Zprime_basicHistos_MCValidation.pdf
Fit:0: RuntimeWarning: Abnormal termination of minimization.
3975.52997574 38.6802205946 3859.48931396 4091.57063752
Mass|Efficiency: 4000 0.415498048287
width(%)|detector resolution(%): 0.00967005514866|0.02048786832
Resolution<Detector
Mass|couplingLimit: 4000|None
Signal mass | N_events total | N_events passing hard cuts | N_events within Gaussian mean +/- 3 sigma | Gaussian mean | Gaussian width | alpha | power
4000 28509.0 13834.0 5748.0 3975.52997574 38.6802205946 0.364550885585 1.3733393489
writing coupling results to limit
COUPLINGRESULT: 1200 2.92120353016

COUPLINGRESULT: 1250 2.70318610612

COUPLINGRESULT: 1300 3.31426834346

COUPLINGRESULT: 1350 3.26547280952

COUPLINGRESULT: 1400 3.29335188073

COUPLINGRESULT: 1450 4.1523818724

COUPLINGRESULT: 1500 4.39963393131

COUPLINGRESULT: 1550 4.42129797697

COUPLINGRESULT: 1600 5.30187047227

COUPLINGRESULT: 1650 6.31644447724

COUPLINGRESULT: 1700 6.08846784714

COUPLINGRESULT: 1750 4.9267224766

COUPLINGRESULT: 1800 5.77885681014

COUPLINGRESULT: 1900 4.51576416386

COUPLINGRESULT: 1950 6.89907581032

COUPLINGRESULT: 2000 5.54674368979

COUPLINGRESULT: 2100 7.29125581442

COUPLINGRESULT: 2200 5.68387128603

COUPLINGRESULT: 2300 6.57059742018

COUPLINGRESULT: 2400 8.03994580528

COUPLINGRESULT: 2500 8.26659177451

COUPLINGRESULT: 2600 11.3205016062

COUPLINGRESULT: 2700 10.8067664042

COUPLINGRESULT: 2800 11.6464844416

COUPLINGRESULT: 2900 10.4986648532

COUPLINGRESULT: 3000 11.8336146386

COUPLINGRESULT: 3200 27.6710038323

/afs/cern.ch/user/b/boveia/work/zprimeb/CouplingLimit/outputDir/output_4200.root entries: 14046.0
 FCN=0.0295438 FROM MIGRAD    STATUS=FAILED        347 CALLS         348 TOTAL
                     EDM=0.00025443    STRATEGY= 1      ERR MATRIX APPROXIMATE
  EXT PARAMETER                APPROXIMATE        STEP         FIRST   
  NO.   NAME      VALUE            ERROR          SIZE      DERIVATIVE 
   1  p0           1.45688e+00   5.23923e+00   2.42367e-04  -3.17463e-03
   2  p1           1.91156e-01   2.38318e+00   1.59111e-04  -3.57769e-03
   3  p2           4.20023e+03   1.49840e+02   8.99034e-05   6.43745e-05
   4  p3           2.13730e+01   1.16426e+03   4.69522e-04  -1.03494e-02
   5  p4           2.62393e-01   7.55892e-01   1.35139e-04   4.28480e-03
Info in <TCanvas::Print>: png file /afs/cern.ch/user/b/boveia/work/zprimeb/CouplingLimit/outputDir/h_cuts4200.png has been created
Info in <TCanvas::Print>: Current canvas added to pdf file /afs/cern.ch/user/b/boveia/work/zprimeb/CouplingLimit/outputDir/Zprime_basicHistos_MCValidation.pdf
4200.2313956 21.3730458197 4136.11225814 4264.35053306
Mass|Efficiency: 4200 0.352769471736
width(%)|detector resolution(%): 0.00508882043327|0.0203028525898
Resolution<Detector
Mass|couplingLimit: 4200|None
Signal mass | N_events total | N_events passing hard cuts | N_events within Gaussian mean +/- 3 sigma | Gaussian mean | Gaussian width | alpha | power
4200 28461.0 14046.0 4955.0 4200.2313956 21.3730458197 0.191156438567 1.45688425211
writing coupling results to limit
COUPLINGRESULT: 1200 2.92120353016

COUPLINGRESULT: 1250 2.70318610612

COUPLINGRESULT: 1300 3.31426834346

COUPLINGRESULT: 1350 3.26547280952

COUPLINGRESULT: 1400 3.29335188073

COUPLINGRESULT: 1450 4.1523818724

COUPLINGRESULT: 1500 4.39963393131

COUPLINGRESULT: 1550 4.42129797697

COUPLINGRESULT: 1600 5.30187047227

COUPLINGRESULT: 1650 6.31644447724

COUPLINGRESULT: 1700 6.08846784714

COUPLINGRESULT: 1750 4.9267224766

COUPLINGRESULT: 1800 5.77885681014

COUPLINGRESULT: 1900 4.51576416386

COUPLINGRESULT: 1950 6.89907581032

COUPLINGRESULT: 2000 5.54674368979

COUPLINGRESULT: 2100 7.29125581442

COUPLINGRESULT: 2200 5.68387128603

COUPLINGRESULT: 2300 6.57059742018

COUPLINGRESULT: 2400 8.03994580528

COUPLINGRESULT: 2500 8.26659177451

COUPLINGRESULT: 2600 11.3205016062

COUPLINGRESULT: 2700 10.8067664042

COUPLINGRESULT: 2800 11.6464844416

COUPLINGRESULT: 2900 10.4986648532

COUPLINGRESULT: 3000 11.8336146386

COUPLINGRESULT: 3200 27.6710038323

/afs/cern.ch/user/b/boveia/work/zprimeb/CouplingLimit/outputDir/output_4400.root entries: 13791.0
 FCN=0.0388233 FROM HESSE     STATUS=OK             31 CALLS        1193 TOTAL
                     EDM=1.12385e-07    STRATEGY= 1      ERROR MATRIX ACCURATE 
  EXT PARAMETER                                   STEP         FIRST   
  NO.   NAME      VALUE            ERROR          SIZE      DERIVATIVE 
   1  p0           1.17166e+00   7.11292e+00   3.66246e-05   1.25301e-03
   2  p1           3.40669e-01   3.23013e+00   4.21126e-05   9.47566e-04
   3  p2           4.37733e+03   9.45865e+01   1.42020e-05   1.38162e-04
   4  p3           2.20000e+01   1.11545e+03   2.02608e-04** at limit **
   5  p4           3.41309e-01   1.00084e+00   3.53272e-05   8.16477e-04
Info in <TCanvas::Print>: png file /afs/cern.ch/user/b/boveia/work/zprimeb/CouplingLimit/outputDir/h_cuts4400.png has been created
Info in <TCanvas::Print>: Current canvas added to pdf file /afs/cern.ch/user/b/boveia/work/zprimeb/CouplingLimit/outputDir/Zprime_basicHistos_MCValidation.pdf
4377.330359 22.0000014866 4311.33035454 4443.33036346
Mass|Efficiency: 4400 0.387354071496
width(%)|detector resolution(%): 0.00500000033787|0.0201333868855
Resolution<Detector
Mass|couplingLimit: 4400|None
Signal mass | N_events total | N_events passing hard cuts | N_events within Gaussian mean +/- 3 sigma | Gaussian mean | Gaussian width | alpha | power
4400 28525.0 13791.0 5342.0 4377.330359 22.0000014866 0.340668729115 1.17165755937
writing coupling results to limit
COUPLINGRESULT: 1200 2.92120353016

COUPLINGRESULT: 1250 2.70318610612

COUPLINGRESULT: 1300 3.31426834346

COUPLINGRESULT: 1350 3.26547280952

COUPLINGRESULT: 1400 3.29335188073

COUPLINGRESULT: 1450 4.1523818724

COUPLINGRESULT: 1500 4.39963393131

COUPLINGRESULT: 1550 4.42129797697

COUPLINGRESULT: 1600 5.30187047227

COUPLINGRESULT: 1650 6.31644447724

COUPLINGRESULT: 1700 6.08846784714

COUPLINGRESULT: 1750 4.9267224766

COUPLINGRESULT: 1800 5.77885681014

COUPLINGRESULT: 1900 4.51576416386

COUPLINGRESULT: 1950 6.89907581032

COUPLINGRESULT: 2000 5.54674368979

COUPLINGRESULT: 2100 7.29125581442

COUPLINGRESULT: 2200 5.68387128603

COUPLINGRESULT: 2300 6.57059742018

COUPLINGRESULT: 2400 8.03994580528

COUPLINGRESULT: 2500 8.26659177451

COUPLINGRESULT: 2600 11.3205016062

COUPLINGRESULT: 2700 10.8067664042

COUPLINGRESULT: 2800 11.6464844416

COUPLINGRESULT: 2900 10.4986648532

COUPLINGRESULT: 3000 11.8336146386

COUPLINGRESULT: 3200 27.6710038323

/afs/cern.ch/user/b/boveia/work/zprimeb/CouplingLimit/outputDir/output_4600.root entries: 13897.0
 FCN=0.0383491 FROM HESSE     STATUS=OK             31 CALLS        1607 TOTAL
                     EDM=2.11962e-06    STRATEGY= 1      ERROR MATRIX ACCURATE 
  EXT PARAMETER                                   STEP         FIRST   
  NO.   NAME      VALUE            ERROR          SIZE      DERIVATIVE 
   1  p0           1.19554e+00   4.84570e+00   3.72705e-05  -2.98289e-03
   2  p1           3.33825e-01   2.36115e+00   4.13117e-05  -2.31966e-03
   3  p2           4.58037e+03   8.58157e+01   1.24704e-05   7.03881e-04
   4  p3           2.30013e+01   1.31069e+03   2.78685e-04   2.87448e-04
   5  p4           3.39580e-01   9.72571e-01   3.50226e-05   3.62713e-03
Info in <TCanvas::Print>: png file /afs/cern.ch/user/b/boveia/work/zprimeb/CouplingLimit/outputDir/h_cuts4600.png has been created
Info in <TCanvas::Print>: Current canvas added to pdf file /afs/cern.ch/user/b/boveia/work/zprimeb/CouplingLimit/outputDir/Zprime_basicHistos_MCValidation.pdf
4580.37288327 23.0012616319 4511.36909837 4649.37666816
Mass|Efficiency: 4600 0.312081744261
width(%)|detector resolution(%): 0.00500027426781|0.0199798053459
Resolution<Detector
Mass|couplingLimit: 4600|None
Signal mass | N_events total | N_events passing hard cuts | N_events within Gaussian mean +/- 3 sigma | Gaussian mean | Gaussian width | alpha | power
4600 28523.0 13897.0 4337.0 4580.37288327 23.0012616319 0.333824985813 1.19553908428
writing coupling results to limit
COUPLINGRESULT: 1200 2.92120353016

COUPLINGRESULT: 1250 2.70318610612

COUPLINGRESULT: 1300 3.31426834346

COUPLINGRESULT: 1350 3.26547280952

COUPLINGRESULT: 1400 3.29335188073

COUPLINGRESULT: 1450 4.1523818724

COUPLINGRESULT: 1500 4.39963393131

COUPLINGRESULT: 1550 4.42129797697

COUPLINGRESULT: 1600 5.30187047227

COUPLINGRESULT: 1650 6.31644447724

COUPLINGRESULT: 1700 6.08846784714

COUPLINGRESULT: 1750 4.9267224766

COUPLINGRESULT: 1800 5.77885681014

COUPLINGRESULT: 1900 4.51576416386

COUPLINGRESULT: 1950 6.89907581032

COUPLINGRESULT: 2000 5.54674368979

COUPLINGRESULT: 2100 7.29125581442

COUPLINGRESULT: 2200 5.68387128603

COUPLINGRESULT: 2300 6.57059742018

COUPLINGRESULT: 2400 8.03994580528

COUPLINGRESULT: 2500 8.26659177451

COUPLINGRESULT: 2600 11.3205016062

COUPLINGRESULT: 2700 10.8067664042

COUPLINGRESULT: 2800 11.6464844416

COUPLINGRESULT: 2900 10.4986648532

COUPLINGRESULT: 3000 11.8336146386

COUPLINGRESULT: 3200 27.6710038323

/afs/cern.ch/user/b/boveia/work/zprimeb/CouplingLimit/outputDir/output_4800.root entries: 13909.0
 FCN=0.0227636 FROM HESSE     STATUS=OK             31 CALLS         570 TOTAL
                     EDM=1.63365e-06    STRATEGY= 1      ERROR MATRIX ACCURATE 
  EXT PARAMETER                                   STEP         FIRST   
  NO.   NAME      VALUE            ERROR          SIZE      DERIVATIVE 
   1  p0           1.41812e+00   5.49033e+00   4.88350e-05  -1.07645e-03
   2  p1           3.22738e-01   2.73193e+00   3.96142e-05  -9.02926e-04
   3  p2           4.78027e+03   2.43932e+02   1.96474e-05  -6.85717e-03
   4  p3           4.09051e+01   8.65838e+02   2.75087e-05  -1.58284e-03
   5  p4           2.40980e-01   6.93926e-01   2.47133e-05  -3.53045e-04
Info in <TCanvas::Print>: png file /afs/cern.ch/user/b/boveia/work/zprimeb/CouplingLimit/outputDir/h_cuts4800.png has been created
Info in <TCanvas::Print>: Current canvas added to pdf file /afs/cern.ch/user/b/boveia/work/zprimeb/CouplingLimit/outputDir/Zprime_basicHistos_MCValidation.pdf
4780.27061992 40.9051185741 4657.5552642 4902.98597564
Mass|Efficiency: 4800 0.41900927457
width(%)|detector resolution(%): 0.00852189970293|0.0198424933394
Resolution<Detector
Mass|couplingLimit: 4800|None
Signal mass | N_events total | N_events passing hard cuts | N_events within Gaussian mean +/- 3 sigma | Gaussian mean | Gaussian width | alpha | power
4800 28511.0 13909.0 5828.0 4780.27061992 40.9051185741 0.322737759085 1.41812222981
writing coupling results to limit
COUPLINGRESULT: 1200 2.92120353016

COUPLINGRESULT: 1250 2.70318610612

COUPLINGRESULT: 1300 3.31426834346

COUPLINGRESULT: 1350 3.26547280952

COUPLINGRESULT: 1400 3.29335188073

COUPLINGRESULT: 1450 4.1523818724

COUPLINGRESULT: 1500 4.39963393131

COUPLINGRESULT: 1550 4.42129797697

COUPLINGRESULT: 1600 5.30187047227

COUPLINGRESULT: 1650 6.31644447724

COUPLINGRESULT: 1700 6.08846784714

COUPLINGRESULT: 1750 4.9267224766

COUPLINGRESULT: 1800 5.77885681014

COUPLINGRESULT: 1900 4.51576416386

COUPLINGRESULT: 1950 6.89907581032

COUPLINGRESULT: 2000 5.54674368979

COUPLINGRESULT: 2100 7.29125581442

COUPLINGRESULT: 2200 5.68387128603

COUPLINGRESULT: 2300 6.57059742018

COUPLINGRESULT: 2400 8.03994580528

COUPLINGRESULT: 2500 8.26659177451

COUPLINGRESULT: 2600 11.3205016062

COUPLINGRESULT: 2700 10.8067664042

COUPLINGRESULT: 2800 11.6464844416

COUPLINGRESULT: 2900 10.4986648532

COUPLINGRESULT: 3000 11.8336146386

COUPLINGRESULT: 3200 27.6710038323

/afs/cern.ch/user/b/boveia/work/zprimeb/CouplingLimit/outputDir/output_5000.root entries: 14008.0
 FCN=0.0274374 FROM HESSE     STATUS=OK             31 CALLS         586 TOTAL
                     EDM=7.45263e-07    STRATEGY= 1      ERROR MATRIX ACCURATE 
  EXT PARAMETER                                   STEP         FIRST   
  NO.   NAME      VALUE            ERROR          SIZE      DERIVATIVE 
   1  p0           1.47712e+00   5.97195e+00   5.07813e-05   7.93271e-05
   2  p1           2.75538e-01   3.11893e+00   3.64087e-05   3.61834e-04
   3  p2           4.98860e+03   3.25571e+02   2.17313e-05   2.98351e-03
   4  p3           3.82098e+01   9.65703e+02   2.79891e-05   1.11159e-03
   5  p4           2.38805e-01   7.01211e-01   2.43060e-05   9.37822e-04
Info in <TCanvas::Print>: png file /afs/cern.ch/user/b/boveia/work/zprimeb/CouplingLimit/outputDir/h_cuts5000.png has been created
Info in <TCanvas::Print>: Current canvas added to pdf file /afs/cern.ch/user/b/boveia/work/zprimeb/CouplingLimit/outputDir/Zprime_basicHistos_MCValidation.pdf
4988.6006997 38.2098443701 4873.97116659 5103.23023281
Mass|Efficiency: 5000 0.422187321531
width(%)|detector resolution(%): 0.00764196887403|0.0197216375
Resolution<Detector
Mass|couplingLimit: 5000|None
Signal mass | N_events total | N_events passing hard cuts | N_events within Gaussian mean +/- 3 sigma | Gaussian mean | Gaussian width | alpha | power
5000 28548.0 14008.0 5914.0 4988.6006997 38.2098443701 0.275537675795 1.47712151406
writing coupling results to limit
COUPLINGRESULT: 1200 2.92120353016

COUPLINGRESULT: 1250 2.70318610612

COUPLINGRESULT: 1300 3.31426834346

COUPLINGRESULT: 1350 3.26547280952

COUPLINGRESULT: 1400 3.29335188073

COUPLINGRESULT: 1450 4.1523818724

COUPLINGRESULT: 1500 4.39963393131

COUPLINGRESULT: 1550 4.42129797697

COUPLINGRESULT: 1600 5.30187047227

COUPLINGRESULT: 1650 6.31644447724

COUPLINGRESULT: 1700 6.08846784714

COUPLINGRESULT: 1750 4.9267224766

COUPLINGRESULT: 1800 5.77885681014

COUPLINGRESULT: 1900 4.51576416386

COUPLINGRESULT: 1950 6.89907581032

COUPLINGRESULT: 2000 5.54674368979

COUPLINGRESULT: 2100 7.29125581442

COUPLINGRESULT: 2200 5.68387128603

COUPLINGRESULT: 2300 6.57059742018

COUPLINGRESULT: 2400 8.03994580528

COUPLINGRESULT: 2500 8.26659177451

COUPLINGRESULT: 2600 11.3205016062

COUPLINGRESULT: 2700 10.8067664042

COUPLINGRESULT: 2800 11.6464844416

COUPLINGRESULT: 2900 10.4986648532

COUPLINGRESULT: 3000 11.8336146386

COUPLINGRESULT: 3200 27.6710038323

/afs/cern.ch/user/b/boveia/work/zprimeb/CouplingLimit/outputDir/output_5200.root entries: 13683.0
 FCN=0.0239138 FROM HESSE     STATUS=OK             31 CALLS         546 TOTAL
                     EDM=1.46483e-06    STRATEGY= 1      ERROR MATRIX ACCURATE 
  EXT PARAMETER                                   STEP         FIRST   
  NO.   NAME      VALUE            ERROR          SIZE      DERIVATIVE 
   1  p0           1.52761e+00   6.03542e+00   5.36806e-05  -2.65472e-03
   2  p1           2.57736e-01   3.07114e+00   3.48689e-05  -4.17546e-03
   3  p2           5.18905e+03   3.42375e+02   2.20443e-05   9.70792e-04
   4  p3           3.99023e+01   1.00742e+03   2.75265e-05   5.04290e-03
   5  p4           2.31831e-01   6.70447e-01   2.33622e-05   5.50807e-03
Info in <TCanvas::Print>: png file /afs/cern.ch/user/b/boveia/work/zprimeb/CouplingLimit/outputDir/h_cuts5200.png has been created
Info in <TCanvas::Print>: Current canvas added to pdf file /afs/cern.ch/user/b/boveia/work/zprimeb/CouplingLimit/outputDir/Zprime_basicHistos_MCValidation.pdf
5189.04653395 39.902323482 5069.3395635 5308.75350439
Mass|Efficiency: 5200 0.419717898122
width(%)|detector resolution(%): 0.00767352374653|0.0196170370885
Resolution<Detector
Mass|couplingLimit: 5200|None
Signal mass | N_events total | N_events passing hard cuts | N_events within Gaussian mean +/- 3 sigma | Gaussian mean | Gaussian width | alpha | power
5200 28574.0 13683.0 5743.0 5189.04653395 39.902323482 0.257735503664 1.52761460196
writing coupling results to limit
COUPLINGRESULT: 1200 2.92120353016

COUPLINGRESULT: 1250 2.70318610612

COUPLINGRESULT: 1300 3.31426834346

COUPLINGRESULT: 1350 3.26547280952

COUPLINGRESULT: 1400 3.29335188073

COUPLINGRESULT: 1450 4.1523818724

COUPLINGRESULT: 1500 4.39963393131

COUPLINGRESULT: 1550 4.42129797697

COUPLINGRESULT: 1600 5.30187047227

COUPLINGRESULT: 1650 6.31644447724

COUPLINGRESULT: 1700 6.08846784714

COUPLINGRESULT: 1750 4.9267224766

COUPLINGRESULT: 1800 5.77885681014

COUPLINGRESULT: 1900 4.51576416386

COUPLINGRESULT: 1950 6.89907581032

COUPLINGRESULT: 2000 5.54674368979

COUPLINGRESULT: 2100 7.29125581442

COUPLINGRESULT: 2200 5.68387128603

COUPLINGRESULT: 2300 6.57059742018

COUPLINGRESULT: 2400 8.03994580528

COUPLINGRESULT: 2500 8.26659177451

COUPLINGRESULT: 2600 11.3205016062

COUPLINGRESULT: 2700 10.8067664042

COUPLINGRESULT: 2800 11.6464844416

COUPLINGRESULT: 2900 10.4986648532

COUPLINGRESULT: 3000 11.8336146386

COUPLINGRESULT: 3200 27.6710038323

/afs/cern.ch/user/b/boveia/work/zprimeb/CouplingLimit/outputDir/output_5400.root entries: 13953.0
 FCN=0.0253576 FROM HESSE     STATUS=OK             31 CALLS         955 TOTAL
                     EDM=1.37601e-06    STRATEGY= 1      ERROR MATRIX ACCURATE 
  EXT PARAMETER                                   STEP         FIRST   
  NO.   NAME      VALUE            ERROR          SIZE      DERIVATIVE 
   1  p0           1.36898e+00   5.40271e+00   4.82092e-05  -4.25151e-04
   2  p1           3.48125e-01   2.71851e+00   4.16767e-05  -1.05359e-03
   3  p2           5.37650e+03   2.63540e+02   1.91259e-05   5.86712e-04
   4  p3           4.61070e+01   1.12479e+03   2.77078e-05  -2.76508e-03
   5  p4           2.42627e-01   7.02258e-01   2.48389e-05   1.27776e-03
Info in <TCanvas::Print>: png file /afs/cern.ch/user/b/boveia/work/zprimeb/CouplingLimit/outputDir/h_cuts5400.png has been created
Info in <TCanvas::Print>: Current canvas added to pdf file /afs/cern.ch/user/b/boveia/work/zprimeb/CouplingLimit/outputDir/Zprime_basicHistos_MCValidation.pdf
5376.50198713 46.1070482612 5238.18084235 5514.82313192
Mass|Efficiency: 5400 0.418046298287
width(%)|detector resolution(%): 0.0085383422706|0.0195279766778
Resolution<Detector
Mass|couplingLimit: 5400|None
Signal mass | N_events total | N_events passing hard cuts | N_events within Gaussian mean +/- 3 sigma | Gaussian mean | Gaussian width | alpha | power
5400 28512.0 13953.0 5833.0 5376.50198713 46.1070482612 0.34812481215 1.36897820387
writing coupling results to limit
COUPLINGRESULT: 1200 2.92120353016

COUPLINGRESULT: 1250 2.70318610612

COUPLINGRESULT: 1300 3.31426834346

COUPLINGRESULT: 1350 3.26547280952

COUPLINGRESULT: 1400 3.29335188073

COUPLINGRESULT: 1450 4.1523818724

COUPLINGRESULT: 1500 4.39963393131

COUPLINGRESULT: 1550 4.42129797697

COUPLINGRESULT: 1600 5.30187047227

COUPLINGRESULT: 1650 6.31644447724

COUPLINGRESULT: 1700 6.08846784714

COUPLINGRESULT: 1750 4.9267224766

COUPLINGRESULT: 1800 5.77885681014

COUPLINGRESULT: 1900 4.51576416386

COUPLINGRESULT: 1950 6.89907581032

COUPLINGRESULT: 2000 5.54674368979

COUPLINGRESULT: 2100 7.29125581442

COUPLINGRESULT: 2200 5.68387128603

COUPLINGRESULT: 2300 6.57059742018

COUPLINGRESULT: 2400 8.03994580528

COUPLINGRESULT: 2500 8.26659177451

COUPLINGRESULT: 2600 11.3205016062

COUPLINGRESULT: 2700 10.8067664042

COUPLINGRESULT: 2800 11.6464844416

COUPLINGRESULT: 2900 10.4986648532

COUPLINGRESULT: 3000 11.8336146386

COUPLINGRESULT: 3200 27.6710038323

/afs/cern.ch/user/b/boveia/work/zprimeb/CouplingLimit/outputDir/output_5600.root entries: 13703.0
 FCN=0.0371471 FROM HESSE     STATUS=OK             31 CALLS        1061 TOTAL
                     EDM=6.41014e-07    STRATEGY= 1      ERROR MATRIX ACCURATE 
  EXT PARAMETER                                   STEP         FIRST   
  NO.   NAME      VALUE            ERROR          SIZE      DERIVATIVE 
   1  p0           1.29949e+00   7.38874e+00   3.95749e-05   7.28772e-04
   2  p1           2.84490e-01   2.30926e+00   3.76879e-05  -1.05273e-03
   3  p2           5.57531e+03   1.06694e+02   1.26684e-05  -3.09482e-03
   4  p3           2.80013e+01   1.61128e+03   2.96776e-04  -2.70491e-04
   5  p4           3.12877e-01   9.08319e-01   3.22756e-05   6.59958e-04
Info in <TCanvas::Print>: png file /afs/cern.ch/user/b/boveia/work/zprimeb/CouplingLimit/outputDir/h_cuts5600.png has been created
Info in <TCanvas::Print>: Current canvas added to pdf file /afs/cern.ch/user/b/boveia/work/zprimeb/CouplingLimit/outputDir/Zprime_basicHistos_MCValidation.pdf
5575.30958833 28.0012646112 5491.30579449 5659.31338216
Mass|Efficiency: 5600 0.300007297672
width(%)|detector resolution(%): 0.00500022582342|0.0194531601616
Resolution<Detector
Mass|couplingLimit: 5600|None
Signal mass | N_events total | N_events passing hard cuts | N_events within Gaussian mean +/- 3 sigma | Gaussian mean | Gaussian width | alpha | power
5600 28429.0 13703.0 4111.0 5575.30958833 28.0012646112 0.284489811865 1.29949041047
writing coupling results to limit
COUPLINGRESULT: 1200 2.92120353016

COUPLINGRESULT: 1250 2.70318610612

COUPLINGRESULT: 1300 3.31426834346

COUPLINGRESULT: 1350 3.26547280952

COUPLINGRESULT: 1400 3.29335188073

COUPLINGRESULT: 1450 4.1523818724

COUPLINGRESULT: 1500 4.39963393131

COUPLINGRESULT: 1550 4.42129797697

COUPLINGRESULT: 1600 5.30187047227

COUPLINGRESULT: 1650 6.31644447724

COUPLINGRESULT: 1700 6.08846784714

COUPLINGRESULT: 1750 4.9267224766

COUPLINGRESULT: 1800 5.77885681014

COUPLINGRESULT: 1900 4.51576416386

COUPLINGRESULT: 1950 6.89907581032

COUPLINGRESULT: 2000 5.54674368979

COUPLINGRESULT: 2100 7.29125581442

COUPLINGRESULT: 2200 5.68387128603

COUPLINGRESULT: 2300 6.57059742018

COUPLINGRESULT: 2400 8.03994580528

COUPLINGRESULT: 2500 8.26659177451

COUPLINGRESULT: 2600 11.3205016062

COUPLINGRESULT: 2700 10.8067664042

COUPLINGRESULT: 2800 11.6464844416

COUPLINGRESULT: 2900 10.4986648532

COUPLINGRESULT: 3000 11.8336146386

COUPLINGRESULT: 3200 27.6710038323

/afs/cern.ch/user/b/boveia/work/zprimeb/CouplingLimit/outputDir/output_6000.root entries: 13704.0
 FCN=0.0413021 FROM HESSE     STATUS=OK             31 CALLS         652 TOTAL
                     EDM=7.96507e-08    STRATEGY= 1      ERROR MATRIX ACCURATE 
  EXT PARAMETER                                   STEP         FIRST   
  NO.   NAME      VALUE            ERROR          SIZE      DERIVATIVE 
   1  p0           1.32450e+00   4.89237e+00   3.98519e-05  -1.85026e-04
   2  p1           2.78141e-01   2.34807e+00   3.73177e-05  -3.76398e-04
   3  p2           5.98760e+03   1.31705e+02   1.47081e-05  -1.85173e-03
   4  p3           3.00000e+01   1.37923e+03   1.76868e-04** at limit **
   5  p4           3.09622e-01   9.31869e-01   3.21030e-05   3.12664e-04
Info in <TCanvas::Print>: png file /afs/cern.ch/user/b/boveia/work/zprimeb/CouplingLimit/outputDir/h_cuts6000.png has been created
Info in <TCanvas::Print>: Current canvas added to pdf file /afs/cern.ch/user/b/boveia/work/zprimeb/CouplingLimit/outputDir/Zprime_basicHistos_MCValidation.pdf
Info in <TCanvas::Print>: Current canvas added to pdf file /afs/cern.ch/user/b/boveia/work/zprimeb/CouplingLimit/outputDir/Zprime_basicHistos_MCValidation.pdf
5987.59941451 30.0000221566 5897.59934804 6077.59948098
Mass|Efficiency: 6000 0.374051371862
width(%)|detector resolution(%): 0.00500000369276|0.01933820432
Resolution<Detector
Mass|couplingLimit: 6000|None
Signal mass | N_events total | N_events passing hard cuts | N_events within Gaussian mean +/- 3 sigma | Gaussian mean | Gaussian width | alpha | power
6000 28403.0 13704.0 5126.0 5987.59941451 30.0000221566 0.278141215308 1.32449781924
writing coupling results to limit
COUPLINGRESULT: 1200 2.92120353016

COUPLINGRESULT: 1250 2.70318610612

COUPLINGRESULT: 1300 3.31426834346

COUPLINGRESULT: 1350 3.26547280952

COUPLINGRESULT: 1400 3.29335188073

COUPLINGRESULT: 1450 4.1523818724

COUPLINGRESULT: 1500 4.39963393131

COUPLINGRESULT: 1550 4.42129797697

COUPLINGRESULT: 1600 5.30187047227

COUPLINGRESULT: 1650 6.31644447724

COUPLINGRESULT: 1700 6.08846784714

COUPLINGRESULT: 1750 4.9267224766

COUPLINGRESULT: 1800 5.77885681014

COUPLINGRESULT: 1900 4.51576416386

COUPLINGRESULT: 1950 6.89907581032

COUPLINGRESULT: 2000 5.54674368979

COUPLINGRESULT: 2100 7.29125581442

COUPLINGRESULT: 2200 5.68387128603

COUPLINGRESULT: 2300 6.57059742018

COUPLINGRESULT: 2400 8.03994580528

COUPLINGRESULT: 2500 8.26659177451

COUPLINGRESULT: 2600 11.3205016062

COUPLINGRESULT: 2700 10.8067664042

COUPLINGRESULT: 2800 11.6464844416

COUPLINGRESULT: 2900 10.4986648532

COUPLINGRESULT: 3000 11.8336146386

COUPLINGRESULT: 3200 27.6710038323

